ISO-10303-21;
HEADER;
FILE_DESCRIPTION (( 'STEP AP214' ),
    '1' );
FILE_NAME ('KRL3216T4A-M-R001-G-T1.STEP',
    '2023-06-15T12:44:49',
    ( '' ),
    ( '' ),
    'SwSTEP 2.0',
    'SolidWorks 2021',
    '' );
FILE_SCHEMA (( 'AUTOMOTIVE_DESIGN' ));
ENDSEC;

DATA;
#1 = DIRECTION ( 'NONE',  ( 1.478457507934779132E-16, 0.000000000000000000, -1.000000000000000000 ) ) ;
#2 = ORIENTED_EDGE ( 'NONE', *, *, #841, .F. ) ;
#3 = DIRECTION ( 'NONE',  ( 1.301042606982604729E-15, -0.000000000000000000, -1.000000000000000000 ) ) ;
#4 = VERTEX_POINT ( 'NONE', #926 ) ;
#5 = CARTESIAN_POINT ( 'NONE',  ( 0.7999999999999997113, 3.827708763999662978, -1.100000000000000089 ) ) ;
#6 = EDGE_CURVE ( 'NONE', #468, #1057, #234, .T. ) ;
#7 = CARTESIAN_POINT ( 'NONE',  ( -0.7999999999999990452, 0.000000000000000000, -1.100000000000000089 ) ) ;
#8 = ORIENTED_EDGE ( 'NONE', *, *, #629, .T. ) ;
#9 = LINE ( 'NONE', #506, #960 ) ;
#10 = FACE_OUTER_BOUND ( 'NONE', #56, .T. ) ;
#11 = DIRECTION ( 'NONE',  ( 1.000000000000000000, 0.000000000000000000, -1.478457507934779379E-16 ) ) ;
#12 = AXIS2_PLACEMENT_3D ( 'NONE', #845, #738, #225 ) ;
#13 = EDGE_CURVE ( 'NONE', #778, #401, #448, .T. ) ;
#14 = ORIENTED_EDGE ( 'NONE', *, *, #471, .F. ) ;
#15 = DIRECTION ( 'NONE',  ( 1.000000000000000000, 0.000000000000000000, -0.000000000000000000 ) ) ;
#16 = ORIENTED_EDGE ( 'NONE', *, *, #798, .T. ) ;
#17 = DIRECTION ( 'NONE',  ( -0.000000000000000000, -1.000000000000000000, -0.000000000000000000 ) ) ;
#18 = VECTOR ( 'NONE', #1139, 1000.000000000000000 ) ;
#19 = VERTEX_POINT ( 'NONE', #241 ) ;
#20 = VECTOR ( 'NONE', #996, 1000.000000000000000 ) ;
#21 = PLANE ( 'NONE',  #154 ) ;
#22 = EDGE_LOOP ( 'NONE', ( #885, #322, #1246, #997 ) ) ;
#23 = DIRECTION ( 'NONE',  ( 1.000000000000000000, 0.000000000000000000, 0.000000000000000000 ) ) ;
#24 = CARTESIAN_POINT ( 'NONE',  ( -0.7999999999999992673, 0.2500000000000000000, -0.6000000000000000888 ) ) ;
#25 = DIRECTION ( 'NONE',  ( -0.000000000000000000, -1.000000000000000000, -0.000000000000000000 ) ) ;
#26 = LINE ( 'NONE', #548, #744 ) ;
#27 = FACE_OUTER_BOUND ( 'NONE', #271, .T. ) ;
#28 = ORIENTED_EDGE ( 'NONE', *, *, #743, .F. ) ;
#29 = ADVANCED_FACE ( 'NONE', ( #133 ), #530, .F. ) ;
#30 = AXIS2_PLACEMENT_3D ( 'NONE', #222, #228, #434 ) ;
#31 = LINE ( 'NONE', #730, #1072 ) ;
#32 = VECTOR ( 'NONE', #903, 1000.000000000000000 ) ;
#33 = CARTESIAN_POINT ( 'NONE',  ( -0.7999999999999997113, 4.977708763999664221, -1.600000000000000311 ) ) ;
#34 = LINE ( 'NONE', #334, #221 ) ;
#35 = VERTEX_POINT ( 'NONE', #538 ) ;
#36 = CARTESIAN_POINT ( 'NONE',  ( 0.8000000000000003775, 0.7000000000000000666, -1.600000000000000311 ) ) ;
#37 = EDGE_CURVE ( 'NONE', #1071, #794, #217, .T. ) ;
#38 = CARTESIAN_POINT ( 'NONE',  ( 0.3500000000000002554, 0.2500000000000000000, -0.6000000000000000888 ) ) ;
#39 = DIRECTION ( 'NONE',  ( -0.000000000000000000, -1.000000000000000000, -0.000000000000000000 ) ) ;
#40 = VECTOR ( 'NONE', #952, 1000.000000000000000 ) ;
#41 = ORIENTED_EDGE ( 'NONE', *, *, #936, .F. ) ;
#42 = LINE ( 'NONE', #238, #198 ) ;
#43 = SURFACE_SIDE_STYLE ('',( #745 ) ) ;
#44 = FACE_OUTER_BOUND ( 'NONE', #299, .T. ) ;
#45 = EDGE_CURVE ( 'NONE', #778, #453, #26, .T. ) ;
#46 = EDGE_LOOP ( 'NONE', ( #283, #150, #632, #1106 ) ) ;
#47 = CARTESIAN_POINT ( 'NONE',  ( 0.8000000000000003775, 0.000000000000000000, -1.600000000000000311 ) ) ;
#48 = VECTOR ( 'NONE', #1239, 1000.000000000000000 ) ;
#49 = EDGE_LOOP ( 'NONE', ( #149, #934, #879, #1220 ) ) ;
#50 = STYLED_ITEM ( 'NONE', ( #614 ), #340 ) ;
#51 = EDGE_CURVE ( 'NONE', #902, #435, #420, .T. ) ;
#52 = CARTESIAN_POINT ( 'NONE',  ( 0.3500000000000003109, 3.827708763999662978, -1.100000000000000089 ) ) ;
#53 = LINE ( 'NONE', #656, #963 ) ;
#54 = CARTESIAN_POINT ( 'NONE',  ( -0.7999999999999997113, 0.2500000000000000000, -1.600000000000000311 ) ) ;
#55 = CARTESIAN_POINT ( 'NONE',  ( -0.3499999999999993117, 0.000000000000000000, 1.599999999999999867 ) ) ;
#56 = EDGE_LOOP ( 'NONE', ( #1094, #563, #1021, #691 ) ) ;
#57 = ORIENTED_EDGE ( 'NONE', *, *, #601, .F. ) ;
#58 = CARTESIAN_POINT ( 'NONE',  ( 0.8000000000000003775, 0.000000000000000000, -1.600000000000000311 ) ) ;
#59 = DIRECTION ( 'NONE',  ( -1.000000000000000000, 0.000000000000000000, 0.000000000000000000 ) ) ;
#60 = CARTESIAN_POINT ( 'NONE',  ( 0.7999999999999999334, 0.2500000000000000000, -0.6000000000000000888 ) ) ;
#61 = ORIENTED_EDGE ( 'NONE', *, *, #447, .T. ) ;
#62 = ORIENTED_EDGE ( 'NONE', *, *, #807, .F. ) ;
#63 = ADVANCED_FACE ( 'NONE', ( #630 ), #823, .F. ) ;
#64 = PLANE ( 'NONE',  #87 ) ;
#65 = APPLICATION_CONTEXT ( 'automotive_design' ) ;
#66 = DIRECTION ( 'NONE',  ( -1.000000000000000000, 0.000000000000000000, 0.000000000000000000 ) ) ;
#67 = VERTEX_POINT ( 'NONE', #654 ) ;
#68 = AXIS2_PLACEMENT_3D ( 'NONE', #33, #731, #1218 ) ;
#69 = DIRECTION ( 'NONE',  ( 0.000000000000000000, 1.000000000000000000, 0.000000000000000000 ) ) ;
#70 = DIRECTION ( 'NONE',  ( 1.000000000000000000, -0.000000000000000000, -0.000000000000000000 ) ) ;
#71 = EDGE_CURVE ( 'NONE', #643, #938, #345, .T. ) ;
#72 = LINE ( 'NONE', #887, #523 ) ;
#73 = EDGE_LOOP ( 'NONE', ( #16, #594, #1272, #277 ) ) ;
#74 = VECTOR ( 'NONE', #146, 1000.000000000000000 ) ;
#75 = PLANE ( 'NONE',  #951 ) ;
#76 = COLOUR_RGB ( '',0.7921568627450980005, 0.8196078431372548767, 0.9333333333333333481 ) ;
#77 = LINE ( 'NONE', #1084, #690 ) ;
#78 = VERTEX_POINT ( 'NONE', #747 ) ;
#79 = EDGE_LOOP ( 'NONE', ( #616, #688, #41, #540 ) ) ;
#80 = PLANE ( 'NONE',  #1082 ) ;
#81 = SURFACE_STYLE_USAGE ( .BOTH. , #295 ) ;
#82 =( NAMED_UNIT ( * ) PLANE_ANGLE_UNIT ( ) SI_UNIT ( $, .RADIAN. ) );
#83 = DIRECTION ( 'NONE',  ( -1.000000000000000000, -0.000000000000000000, -0.000000000000000000 ) ) ;
#84 = ORIENTED_EDGE ( 'NONE', *, *, #168, .T. ) ;
#85 = ADVANCED_FACE ( 'NONE', ( #1232 ), #1132, .F. ) ;
#86 = ORIENTED_EDGE ( 'NONE', *, *, #629, .F. ) ;
#87 = AXIS2_PLACEMENT_3D ( 'NONE', #167, #470, #758 ) ;
#88 = CARTESIAN_POINT ( 'NONE',  ( -0.3499999999999996447, 0.2500000000000000000, -0.6000000000000000888 ) ) ;
#89 = FACE_OUTER_BOUND ( 'NONE', #1228, .T. ) ;
#90 = ORIENTED_EDGE ( 'NONE', *, *, #339, .F. ) ;
#91 = EDGE_CURVE ( 'NONE', #947, #435, #949, .T. ) ;
#92 = LINE ( 'NONE', #919, #1065 ) ;
#93 = ORIENTED_EDGE ( 'NONE', *, *, #463, .F. ) ;
#94 = CARTESIAN_POINT ( 'NONE',  ( -0.7999999999999997113, 0.2500000000000000000, 1.599999999999999867 ) ) ;
#95 = VECTOR ( 'NONE', #409, 1000.000000000000000 ) ;
#96 = CARTESIAN_POINT ( 'NONE',  ( -0.7999999999999997113, 0.2500000000000000000, 1.599999999999999867 ) ) ;
#97 = VERTEX_POINT ( 'NONE', #525 ) ;
#98 = LINE ( 'NONE', #1020, #877 ) ;
#99 = ORIENTED_EDGE ( 'NONE', *, *, #1098, .F. ) ;
#100 = CARTESIAN_POINT ( 'NONE',  ( 0.000000000000000000, 0.000000000000000000, 0.000000000000000000 ) ) ;
#101 = ADVANCED_FACE ( 'NONE', ( #640 ), #1035, .F. ) ;
#102 = PLANE ( 'NONE',  #554 ) ;
#103 = LINE ( 'NONE', #96, #462 ) ;
#104 = ORIENTED_EDGE ( 'NONE', *, *, #641, .T. ) ;
#105 = PLANE ( 'NONE',  #313 ) ;
#106 = ORIENTED_EDGE ( 'NONE', *, *, #413, .F. ) ;
#107 = AXIS2_PLACEMENT_3D ( 'NONE', #1122, #216, #828 ) ;
#108 = PLANE ( 'NONE',  #1144 ) ;
#109 = AXIS2_PLACEMENT_3D ( 'NONE', #544, #121, #337 ) ;
#110 = DIRECTION ( 'NONE',  ( -7.589415207398534982E-16, -0.000000000000000000, -1.000000000000000000 ) ) ;
#111 = ADVANCED_FACE ( 'NONE', ( #440 ), #1234, .F. ) ;
#112 = DIRECTION ( 'NONE',  ( 0.000000000000000000, -0.000000000000000000, -1.000000000000000000 ) ) ;
#113 = ORIENTED_EDGE ( 'NONE', *, *, #557, .F. ) ;
#114 = LINE ( 'NONE', #1013, #1249 ) ;
#115 = CARTESIAN_POINT ( 'NONE',  ( 0.7999999999999999334, 0.000000000000000000, -0.6000000000000000888 ) ) ;
#116 = LINE ( 'NONE', #233, #163 ) ;
#117 = VECTOR ( 'NONE', #454, 1000.000000000000000 ) ;
#118 = CARTESIAN_POINT ( 'NONE',  ( -0.7999999999999990452, 3.827708763999662978, -1.100000000000000089 ) ) ;
#119 = CARTESIAN_POINT ( 'NONE',  ( 0.000000000000000000, 0.2500000000000000000, 0.000000000000000000 ) ) ;
#120 = ORIENTED_EDGE ( 'NONE', *, *, #71, .T. ) ;
#121 = DIRECTION ( 'NONE',  ( 0.000000000000000000, 0.000000000000000000, -1.000000000000000000 ) ) ;
#122 = ORIENTED_EDGE ( 'NONE', *, *, #801, .T. ) ;
#123 = EDGE_CURVE ( 'NONE', #19, #1071, #621, .T. ) ;
#124 = ORIENTED_EDGE ( 'NONE', *, *, #1038, .F. ) ;
#125 = LINE ( 'NONE', #438, #901 ) ;
#126 = AXIS2_PLACEMENT_3D ( 'NONE', #266, #974, #142 ) ;
#127 = LINE ( 'NONE', #1017, #910 ) ;
#128 = ORIENTED_EDGE ( 'NONE', *, *, #1126, .F. ) ;
#129 = CARTESIAN_POINT ( 'NONE',  ( -0.7999999999999990452, 0.000000000000000000, -1.100000000000000089 ) ) ;
#130 = DIRECTION ( 'NONE',  ( 0.000000000000000000, 1.000000000000000000, 0.000000000000000000 ) ) ;
#131 = ORIENTED_EDGE ( 'NONE', *, *, #904, .T. ) ;
#132 = EDGE_CURVE ( 'NONE', #219, #512, #116, .T. ) ;
#133 = FACE_OUTER_BOUND ( 'NONE', #1172, .T. ) ;
#134 = AXIS2_PLACEMENT_3D ( 'NONE', #119, #202, #527 ) ;
#135 = DIRECTION ( 'NONE',  ( 1.000000000000000000, 0.000000000000000000, 0.000000000000000000 ) ) ;
#136 = PRESENTATION_STYLE_ASSIGNMENT (( #342 ) ) ;
#137 = EDGE_CURVE ( 'NONE', #918, #262, #127, .T. ) ;
#138 = LINE ( 'NONE', #452, #869 ) ;
#139 = CARTESIAN_POINT ( 'NONE',  ( -0.7999999999999992673, 3.827708763999662978, -0.6000000000000000888 ) ) ;
#140 = PLANE ( 'NONE',  #1129 ) ;
#141 = DIRECTION ( 'NONE',  ( 0.000000000000000000, 1.000000000000000000, 0.000000000000000000 ) ) ;
#142 = DIRECTION ( 'NONE',  ( 7.589415207398535968E-16, 0.000000000000000000, 1.000000000000000000 ) ) ;
#143 = EDGE_CURVE ( 'NONE', #411, #19, #419, .T. ) ;
#144 = ORIENTED_EDGE ( 'NONE', *, *, #143, .F. ) ;
#145 = VECTOR ( 'NONE', #371, 1000.000000000000000 ) ;
#146 = DIRECTION ( 'NONE',  ( 1.301042606982604729E-15, -0.000000000000000000, -1.000000000000000000 ) ) ;
#147 = FACE_OUTER_BOUND ( 'NONE', #474, .T. ) ;
#148 = PLANE ( 'NONE',  #256 ) ;
#149 = ORIENTED_EDGE ( 'NONE', *, *, #1023, .T. ) ;
#150 = ORIENTED_EDGE ( 'NONE', *, *, #1257, .T. ) ;
#151 = ADVANCED_FACE ( 'NONE', ( #44 ), #741, .F. ) ;
#152 = VECTOR ( 'NONE', #1107, 1000.000000000000000 ) ;
#153 = CARTESIAN_POINT ( 'NONE',  ( -0.3499999999999993117, 0.2500000000000000000, -1.599999999999999867 ) ) ;
#154 = AXIS2_PLACEMENT_3D ( 'NONE', #833, #803, #402 ) ;
#155 = FACE_OUTER_BOUND ( 'NONE', #796, .T. ) ;
#156 = FACE_OUTER_BOUND ( 'NONE', #1150, .T. ) ;
#157 = ORIENTED_EDGE ( 'NONE', *, *, #297, .T. ) ;
#158 = DIRECTION ( 'NONE',  ( -0.000000000000000000, -1.000000000000000000, -0.000000000000000000 ) ) ;
#159 = FACE_OUTER_BOUND ( 'NONE', #583, .T. ) ;
#160 = LINE ( 'NONE', #472, #1095 ) ;
#161 =( LENGTH_UNIT ( ) NAMED_UNIT ( * ) SI_UNIT ( .MILLI., .METRE. ) );
#162 = ORIENTED_EDGE ( 'NONE', *, *, #1126, .T. ) ;
#163 = VECTOR ( 'NONE', #1224, 1000.000000000000000 ) ;
#164 = CARTESIAN_POINT ( 'NONE',  ( -0.3499999999999993117, 3.827708763999662978, 1.599999999999999867 ) ) ;
#165 = CARTESIAN_POINT ( 'NONE',  ( -0.7999999999999997113, 0.2500000000000000000, -1.600000000000000311 ) ) ;
#166 = ORIENTED_EDGE ( 'NONE', *, *, #789, .F. ) ;
#167 = CARTESIAN_POINT ( 'NONE',  ( 0.000000000000000000, 0.000000000000000000, 0.000000000000000000 ) ) ;
#168 = EDGE_CURVE ( 'NONE', #1014, #802, #31, .T. ) ;
#169 =( LENGTH_UNIT ( ) NAMED_UNIT ( * ) SI_UNIT ( .MILLI., .METRE. ) );
#170 = DIRECTION ( 'NONE',  ( -1.000000000000000000, 0.000000000000000000, 0.000000000000000000 ) ) ;
#171 = ORIENTED_EDGE ( 'NONE', *, *, #132, .T. ) ;
#172 = ORIENTED_EDGE ( 'NONE', *, *, #6, .T. ) ;
#173 = VECTOR ( 'NONE', #393, 1000.000000000000000 ) ;
#174 = DIRECTION ( 'NONE',  ( 0.000000000000000000, 0.000000000000000000, -1.000000000000000000 ) ) ;
#175 = AXIS2_PLACEMENT_3D ( 'NONE', #890, #267, #581 ) ;
#176 = PRESENTATION_STYLE_ASSIGNMENT (( #1081 ) ) ;
#177 = ADVANCED_FACE ( 'NONE', ( #315 ), #446, .F. ) ;
#178 = CARTESIAN_POINT ( 'NONE',  ( 0.3499999999999999223, 0.000000000000000000, 1.599999999999999867 ) ) ;
#179 = ORIENTED_EDGE ( 'NONE', *, *, #798, .F. ) ;
#180 = EDGE_LOOP ( 'NONE', ( #2, #1059, #367, #429 ) ) ;
#181 = CARTESIAN_POINT ( 'NONE',  ( -0.3499999999999993117, 3.827708763999662978, 1.599999999999999867 ) ) ;
#182 = FACE_OUTER_BOUND ( 'NONE', #577, .T. ) ;
#183 = EDGE_CURVE ( 'NONE', #1196, #453, #517, .T. ) ;
#184 = LINE ( 'NONE', #496, #1211 ) ;
#185 = ORIENTED_EDGE ( 'NONE', *, *, #231, .F. ) ;
#186 = VECTOR ( 'NONE', #1258, 1000.000000000000000 ) ;
#187 = DIRECTION ( 'NONE',  ( 1.000000000000000000, 0.000000000000000000, -1.301042606982604729E-15 ) ) ;
#188 = ORIENTED_EDGE ( 'NONE', *, *, #193, .F. ) ;
#189 = MECHANICAL_DESIGN_GEOMETRIC_PRESENTATION_REPRESENTATION (  '', ( #1282 ), #1153 ) ;
#190 = CARTESIAN_POINT ( 'NONE',  ( 0.3500000000000002554, 0.000000000000000000, -0.6000000000000000888 ) ) ;
#191 =( NAMED_UNIT ( * ) SI_UNIT ( $, .STERADIAN. ) SOLID_ANGLE_UNIT ( ) );
#192 = ORIENTED_EDGE ( 'NONE', *, *, #706, .F. ) ;
#193 = EDGE_CURVE ( 'NONE', #211, #990, #1028, .T. ) ;
#194 = FACE_OUTER_BOUND ( 'NONE', #49, .T. ) ;
#195 = ORIENTED_EDGE ( 'NONE', *, *, #387, .F. ) ;
#196 = FACE_OUTER_BOUND ( 'NONE', #1194, .T. ) ;
#197 = COLOUR_RGB ( '',0.7921568627450980005, 0.8196078431372548767, 0.9333333333333333481 ) ;
#198 = VECTOR ( 'NONE', #649, 1000.000000000000000 ) ;
#199 = VECTOR ( 'NONE', #200, 1000.000000000000000 ) ;
#200 = DIRECTION ( 'NONE',  ( 0.000000000000000000, 0.000000000000000000, 1.000000000000000000 ) ) ;
#201 = ORIENTED_EDGE ( 'NONE', *, *, #966, .F. ) ;
#202 = DIRECTION ( 'NONE',  ( 0.000000000000000000, 1.000000000000000000, 0.000000000000000000 ) ) ;
#203 = ORIENTED_EDGE ( 'NONE', *, *, #871, .F. ) ;
#204 = EDGE_CURVE ( 'NONE', #386, #1071, #917, .T. ) ;
#205 = LINE ( 'NONE', #396, #633 ) ;
#206 = CARTESIAN_POINT ( 'NONE',  ( 0.3499999999999999223, 0.000000000000000000, -1.599999999999999867 ) ) ;
#207 = DIRECTION ( 'NONE',  ( -1.000000000000000000, 0.000000000000000000, 1.971276677246372012E-16 ) ) ;
#208 = ORIENTED_EDGE ( 'NONE', *, *, #1043, .F. ) ;
#209 = LINE ( 'NONE', #1115, #263 ) ;
#210 = PLANE ( 'NONE',  #501 ) ;
#211 = VERTEX_POINT ( 'NONE', #646 ) ;
#212 = VECTOR ( 'NONE', #724, 1000.000000000000000 ) ;
#213 = AXIS2_PLACEMENT_3D ( 'NONE', #723, #1216, #522 ) ;
#214 = LINE ( 'NONE', #924, #1225 ) ;
#215 = ADVANCED_FACE ( 'NONE', ( #426 ), #1231, .F. ) ;
#216 = DIRECTION ( 'NONE',  ( -1.000000000000000000, 0.000000000000000000, -7.589415207398534982E-16 ) ) ;
#217 = LINE ( 'NONE', #1235, #341 ) ;
#218 = DIRECTION ( 'NONE',  ( -0.000000000000000000, -1.000000000000000000, -0.000000000000000000 ) ) ;
#219 = VERTEX_POINT ( 'NONE', #1022 ) ;
#220 = CARTESIAN_POINT ( 'NONE',  ( -0.7999999999999997113, 0.000000000000000000, -1.600000000000000311 ) ) ;
#221 = VECTOR ( 'NONE', #732, 1000.000000000000000 ) ;
#222 = CARTESIAN_POINT ( 'NONE',  ( -0.7999999999999990452, 0.2500000000000000000, -1.100000000000000089 ) ) ;
#223 = EDGE_CURVE ( 'NONE', #349, #643, #529, .T. ) ;
#224 = VECTOR ( 'NONE', #17, 1000.000000000000000 ) ;
#225 = DIRECTION ( 'NONE',  ( 1.000000000000000000, 0.000000000000000000, -0.000000000000000000 ) ) ;
#226 = CARTESIAN_POINT ( 'NONE',  ( -0.7999999999999992673, 0.2500000000000002220, -0.6000000000000000888 ) ) ;
#227 = VERTEX_POINT ( 'NONE', #736 ) ;
#228 = DIRECTION ( 'NONE',  ( 0.000000000000000000, 0.000000000000000000, -1.000000000000000000 ) ) ;
#229 = DIRECTION ( 'NONE',  ( 4.336808689942018229E-16, 0.000000000000000000, -1.000000000000000000 ) ) ;
#230 =( NAMED_UNIT ( * ) SI_UNIT ( $, .STERADIAN. ) SOLID_ANGLE_UNIT ( ) );
#231 = EDGE_CURVE ( 'NONE', #489, #67, #639, .T. ) ;
#232 = EDGE_LOOP ( 'NONE', ( #515, #410, #1100, #144 ) ) ;
#233 = CARTESIAN_POINT ( 'NONE',  ( 0.3500000000000002554, 3.827708763999662978, -0.6000000000000000888 ) ) ;
#234 = LINE ( 'NONE', #931, #553 ) ;
#235 = CARTESIAN_POINT ( 'NONE',  ( 0.3500000000000003109, 0.000000000000000000, -1.100000000000000089 ) ) ;
#236 = ORIENTED_EDGE ( 'NONE', *, *, #1038, .T. ) ;
#237 = EDGE_CURVE ( 'NONE', #329, #19, #355, .T. ) ;
#238 = CARTESIAN_POINT ( 'NONE',  ( -0.7999999999999997113, 0.2500000000000000000, 1.599999999999999867 ) ) ;
#239 =( LENGTH_UNIT ( ) NAMED_UNIT ( * ) SI_UNIT ( .MILLI., .METRE. ) );
#240 = PLANE ( 'NONE',  #381 ) ;
#241 = CARTESIAN_POINT ( 'NONE',  ( 0.7999999999999999334, 0.000000000000000000, -0.6000000000000000888 ) ) ;
#242 = AXIS2_PLACEMENT_3D ( 'NONE', #991, #888, #320 ) ;
#243 = CARTESIAN_POINT ( 'NONE',  ( -0.3499999999999993117, 0.2500000000000000000, -1.599999999999999867 ) ) ;
#244 = VECTOR ( 'NONE', #406, 1000.000000000000000 ) ;
#245 = DIRECTION ( 'NONE',  ( 1.000000000000000000, -0.000000000000000000, 1.971276677246372012E-16 ) ) ;
#246 = EDGE_CURVE ( 'NONE', #768, #35, #671, .T. ) ;
#247 = FILL_AREA_STYLE ('',( #751 ) ) ;
#248 = EDGE_LOOP ( 'NONE', ( #1173, #157, #710, #1209 ) ) ;
#249 = ORIENTED_EDGE ( 'NONE', *, *, #326, .T. ) ;
#250 = DIRECTION ( 'NONE',  ( 0.000000000000000000, 0.000000000000000000, 1.000000000000000000 ) ) ;
#251 = DIRECTION ( 'NONE',  ( -9.637352644315586861E-16, 0.000000000000000000, 1.000000000000000000 ) ) ;
#252 = CARTESIAN_POINT ( 'NONE',  ( 0.3500000000000003109, 0.2500000000000000000, -1.100000000000000089 ) ) ;
#253 = VECTOR ( 'NONE', #1123, 1000.000000000000000 ) ;
#254 = EDGE_CURVE ( 'NONE', #435, #908, #660, .T. ) ;
#255 = VERTEX_POINT ( 'NONE', #1056 ) ;
#256 = AXIS2_PLACEMENT_3D ( 'NONE', #1175, #141, #953 ) ;
#257 = EDGE_LOOP ( 'NONE', ( #1168, #1110, #192, #459 ) ) ;
#258 = CARTESIAN_POINT ( 'NONE',  ( -0.7999999999999990452, 0.000000000000000000, -1.100000000000000089 ) ) ;
#259 = PLANE ( 'NONE',  #765 ) ;
#260 = VERTEX_POINT ( 'NONE', #343 ) ;
#261 = EDGE_CURVE ( 'NONE', #401, #1039, #676, .T. ) ;
#262 = VERTEX_POINT ( 'NONE', #47 ) ;
#263 = VECTOR ( 'NONE', #739, 1000.000000000000000 ) ;
#264 = VECTOR ( 'NONE', #135, 1000.000000000000000 ) ;
#265 = CARTESIAN_POINT ( 'NONE',  ( 0.000000000000000000, 0.2500000000000000000, 0.000000000000000000 ) ) ;
#266 = CARTESIAN_POINT ( 'NONE',  ( 0.3499999999999999223, 3.827708763999662978, -1.599999999999999867 ) ) ;
#267 = DIRECTION ( 'NONE',  ( 1.000000000000000000, 0.000000000000000000, 0.000000000000000000 ) ) ;
#268 = VERTEX_POINT ( 'NONE', #746 ) ;
#269 = EDGE_CURVE ( 'NONE', #704, #1196, #1161, .T. ) ;
#270 = PLANE ( 'NONE',  #545 ) ;
#271 = EDGE_LOOP ( 'NONE', ( #861, #1125, #1188, #969 ) ) ;
#272 = CARTESIAN_POINT ( 'NONE',  ( -0.3499999999999996447, 0.000000000000000000, -0.6000000000000000888 ) ) ;
#273 = PRESENTATION_STYLE_ASSIGNMENT (( #81 ) ) ;
#274 = EDGE_LOOP ( 'NONE', ( #834, #610, #698, #809 ) ) ;
#275 = COLOUR_RGB ( '',0.000000000000000000, 0.5019607843137254832, 0.000000000000000000 ) ;
#276 = DIRECTION ( 'NONE',  ( 4.336808689942018229E-16, 0.000000000000000000, 1.000000000000000000 ) ) ;
#277 = ORIENTED_EDGE ( 'NONE', *, *, #45, .T. ) ;
#278 = ADVANCED_FACE ( 'NONE', ( #156 ), #240, .F. ) ;
#279 = PLANE ( 'NONE',  #995 ) ;
#280 = DIRECTION ( 'NONE',  ( 1.000000000000000000, -0.000000000000000000, 0.000000000000000000 ) ) ;
#281 = PLANE ( 'NONE',  #175 ) ;
#282 = LINE ( 'NONE', #808, #585 ) ;
#283 = ORIENTED_EDGE ( 'NONE', *, *, #853, .T. ) ;
#284 = CARTESIAN_POINT ( 'NONE',  ( -0.7999999999999992673, 0.000000000000000000, -0.6000000000000000888 ) ) ;
#285 = ORIENTED_EDGE ( 'NONE', *, *, #137, .F. ) ;
#286 = AXIS2_PLACEMENT_3D ( 'NONE', #511, #615, #1 ) ;
#287 = CARTESIAN_POINT ( 'NONE',  ( -0.3499999999999996447, 0.2500000000000000000, -1.100000000000000089 ) ) ;
#288 = EDGE_CURVE ( 'NONE', #990, #1151, #752, .T. ) ;
#289 = SURFACE_STYLE_USAGE ( .BOTH. , #896 ) ;
#290 = COLOUR_RGB ( '',0.7921568627450980005, 0.8196078431372548767, 0.9333333333333333481 ) ;
#291 = UNCERTAINTY_MEASURE_WITH_UNIT (LENGTH_MEASURE( 1.000000000000000082E-05 ), #1096, 'distance_accuracy_value', 'NONE');
#292 = EDGE_CURVE ( 'NONE', #268, #1265, #160, .T. ) ;
#293 = ORIENTED_EDGE ( 'NONE', *, *, #91, .T. ) ;
#294 = ORIENTED_EDGE ( 'NONE', *, *, #678, .F. ) ;
#295 = SURFACE_SIDE_STYLE ('',( #373 ) ) ;
#296 = DIRECTION ( 'NONE',  ( 1.000000000000000000, 0.000000000000000000, -7.589415207398534982E-16 ) ) ;
#297 = EDGE_CURVE ( 'NONE', #704, #778, #865, .T. ) ;
#298 = DIRECTION ( 'NONE',  ( 0.000000000000000000, 1.000000000000000000, 0.000000000000000000 ) ) ;
#299 = EDGE_LOOP ( 'NONE', ( #1214, #57, #1135, #558 ) ) ;
#300 = VECTOR ( 'NONE', #954, 1000.000000000000000 ) ;
#301 = CARTESIAN_POINT ( 'NONE',  ( 0.7999999999999997113, 0.2500000000000002220, -1.100000000000000089 ) ) ;
#302 = ORIENTED_EDGE ( 'NONE', *, *, #123, .T. ) ;
#303 = PLANE ( 'NONE',  #242 ) ;
#304 = CARTESIAN_POINT ( 'NONE',  ( 0.3500000000000002554, 0.2500000000000000000, -0.6000000000000000888 ) ) ;
#305 = SURFACE_SIDE_STYLE ('',( #905 ) ) ;
#306 = ORIENTED_EDGE ( 'NONE', *, *, #1149, .T. ) ;
#307 = ADVANCED_FACE ( 'NONE', ( #1044 ), #574, .F. ) ;
#308 = LINE ( 'NONE', #317, #152 ) ;
#309 = CARTESIAN_POINT ( 'NONE',  ( -0.7999999999999990452, 3.827708763999662978, -1.100000000000000089 ) ) ;
#310 = VERTEX_POINT ( 'NONE', #1156 ) ;
#311 = FACE_OUTER_BOUND ( 'NONE', #73, .T. ) ;
#312 = PRODUCT_DEFINITION_FORMATION_WITH_SPECIFIED_SOURCE ( 'ANY', '', #973, .NOT_KNOWN. ) ;
#313 = AXIS2_PLACEMENT_3D ( 'NONE', #309, #913, #15 ) ;
#314 = AXIS2_PLACEMENT_3D ( 'NONE', #883, #170, #1277 ) ;
#315 = FACE_OUTER_BOUND ( 'NONE', #248, .T. ) ;
#316 = ORIENTED_EDGE ( 'NONE', *, *, #856, .F. ) ;
#317 = CARTESIAN_POINT ( 'NONE',  ( 0.7999999999999997113, 0.000000000000000000, -1.100000000000000089 ) ) ;
#318 = CARTESIAN_POINT ( 'NONE',  ( -0.7999999999999997113, 0.2500000000000000000, -1.600000000000000311 ) ) ;
#319 = ORIENTED_EDGE ( 'NONE', *, *, #801, .F. ) ;
#320 = DIRECTION ( 'NONE',  ( 0.000000000000000000, -0.000000000000000000, -1.000000000000000000 ) ) ;
#321 = CARTESIAN_POINT ( 'NONE',  ( 0.7999999999999999334, 0.2500000000000000000, -0.6000000000000000888 ) ) ;
#322 = ORIENTED_EDGE ( 'NONE', *, *, #361, .F. ) ;
#323 = LINE ( 'NONE', #1099, #95 ) ;
#324 = ORIENTED_EDGE ( 'NONE', *, *, #385, .T. ) ;
#325 = COLOUR_RGB ( '',1.000000000000000000, 1.000000000000000000, 1.000000000000000000 ) ;
#326 = EDGE_CURVE ( 'NONE', #401, #1052, #138, .T. ) ;
#327 = EDGE_LOOP ( 'NONE', ( #1157, #819, #467, #780 ) ) ;
#328 = FACE_OUTER_BOUND ( 'NONE', #984, .T. ) ;
#329 = VERTEX_POINT ( 'NONE', #760 ) ;
#330 = EDGE_CURVE ( 'NONE', #461, #97, #1244, .T. ) ;
#331 = MECHANICAL_DESIGN_GEOMETRIC_PRESENTATION_REPRESENTATION (  '', ( #392 ), #562 ) ;
#332 = CARTESIAN_POINT ( 'NONE',  ( 0.3499999999999999223, 0.2500000000000002220, -1.599999999999999867 ) ) ;
#333 = ORIENTED_EDGE ( 'NONE', *, *, #572, .F. ) ;
#334 = CARTESIAN_POINT ( 'NONE',  ( -0.3499999999999993117, 0.2500000000000002220, 1.599999999999999867 ) ) ;
#335 = DIRECTION ( 'NONE',  ( 0.000000000000000000, -0.000000000000000000, 1.000000000000000000 ) ) ;
#336 = VERTEX_POINT ( 'NONE', #252 ) ;
#337 = DIRECTION ( 'NONE',  ( -1.000000000000000000, 0.000000000000000000, -0.000000000000000000 ) ) ;
#338 = CARTESIAN_POINT ( 'NONE',  ( -0.7999999999999990452, 0.000000000000000000, -1.100000000000000089 ) ) ;
#339 = EDGE_CURVE ( 'NONE', #219, #1233, #398, .T. ) ;
#340 = MANIFOLD_SOLID_BREP ( 'Boss-Extrude3', #830 ) ;
#341 = VECTOR ( 'NONE', #1241, 1000.000000000000000 ) ;
#342 = SURFACE_STYLE_USAGE ( .BOTH. , #1238 ) ;
#343 = CARTESIAN_POINT ( 'NONE',  ( 0.3499999999999999223, 0.000000000000000000, -1.599999999999999867 ) ) ;
#344 = UNCERTAINTY_MEASURE_WITH_UNIT (LENGTH_MEASURE( 1.000000000000000082E-05 ), #451, 'distance_accuracy_value', 'NONE');
#345 = LINE ( 'NONE', #1024, #992 ) ;
#346 = ADVANCED_FACE ( 'NONE', ( #182 ), #1102, .F. ) ;
#347 = FACE_OUTER_BOUND ( 'NONE', #989, .T. ) ;
#348 = CARTESIAN_POINT ( 'NONE',  ( -0.3499999999999993117, 0.000000000000000000, -1.599999999999999867 ) ) ;
#349 = VERTEX_POINT ( 'NONE', #595 ) ;
#350 = VECTOR ( 'NONE', #1101, 1000.000000000000000 ) ;
#351 = MECHANICAL_DESIGN_GEOMETRIC_PRESENTATION_REPRESENTATION (  '', ( #820 ), #773 ) ;
#352 = DIRECTION ( 'NONE',  ( 0.000000000000000000, 0.000000000000000000, -1.000000000000000000 ) ) ;
#353 = ADVANCED_FACE ( 'NONE', ( #486 ), #102, .T. ) ;
#354 = LINE ( 'NONE', #864, #537 ) ;
#355 = LINE ( 'NONE', #60, #782 ) ;
#356 = ORIENTED_EDGE ( 'NONE', *, *, #966, .T. ) ;
#357 = ORIENTED_EDGE ( 'NONE', *, *, #659, .F. ) ;
#358 = DIRECTION ( 'NONE',  ( -0.000000000000000000, -1.000000000000000000, -0.000000000000000000 ) ) ;
#359 = CARTESIAN_POINT ( 'NONE',  ( -0.7999999999999992673, 0.2500000000000000000, -0.6000000000000000888 ) ) ;
#360 = DIRECTION ( 'NONE',  ( -0.000000000000000000, -1.000000000000000000, -0.000000000000000000 ) ) ;
#361 = EDGE_CURVE ( 'NONE', #484, #794, #806, .T. ) ;
#362 = DIRECTION ( 'NONE',  ( 1.000000000000000000, 0.000000000000000000, 0.000000000000000000 ) ) ;
#363 = VECTOR ( 'NONE', #962, 1000.000000000000000 ) ;
#364 = ORIENTED_EDGE ( 'NONE', *, *, #841, .T. ) ;
#365 = CARTESIAN_POINT ( 'NONE',  ( -0.7999999999999997113, 0.7000000000000000666, 1.599999999999999867 ) ) ;
#366 = CARTESIAN_POINT ( 'NONE',  ( -0.3499999999999996447, 0.2500000000000002220, -0.6000000000000000888 ) ) ;
#367 = ORIENTED_EDGE ( 'NONE', *, *, #193, .T. ) ;
#368 = VECTOR ( 'NONE', #412, 1000.000000000000000 ) ;
#369 = VECTOR ( 'NONE', #158, 1000.000000000000000 ) ;
#370 = PRESENTATION_LAYER_ASSIGNMENT (  '', '', ( #1145 ) ) ;
#371 = DIRECTION ( 'NONE',  ( -0.000000000000000000, -1.000000000000000000, -0.000000000000000000 ) ) ;
#372 = PRODUCT_DEFINITION_SHAPE ( 'NONE', 'NONE',  #1111 ) ;
#373 = SURFACE_STYLE_FILL_AREA ( #783 ) ;
#374 = SURFACE_SIDE_STYLE ('',( #897 ) ) ;
#375 = MANIFOLD_SOLID_BREP ( 'Boss-Extrude2', #1136 ) ;
#376 = ORIENTED_EDGE ( 'NONE', *, *, #51, .F. ) ;
#377 = EDGE_CURVE ( 'NONE', #838, #78, #791, .T. ) ;
#378 = LINE ( 'NONE', #485, #564 ) ;
#379 = EDGE_LOOP ( 'NONE', ( #28, #721, #1085, #893 ) ) ;
#380 = CARTESIAN_POINT ( 'NONE',  ( 0.3500000000000002554, 0.000000000000000000, -0.6000000000000000888 ) ) ;
#381 = AXIS2_PLACEMENT_3D ( 'NONE', #466, #549, #650 ) ;
#382 = CARTESIAN_POINT ( 'NONE',  ( -0.7999999999999990452, 0.2500000000000000000, -1.100000000000000089 ) ) ;
#383 = ORIENTED_EDGE ( 'NONE', *, *, #288, .F. ) ;
#384 = AXIS2_PLACEMENT_3D ( 'NONE', #265, #1268, #1256 ) ;
#385 = EDGE_CURVE ( 'NONE', #329, #386, #701, .T. ) ;
#386 = VERTEX_POINT ( 'NONE', #304 ) ;
#387 = EDGE_CURVE ( 'NONE', #1006, #260, #717, .T. ) ;
#388 = LINE ( 'NONE', #493, #417 ) ;
#389 = DIRECTION ( 'NONE',  ( 0.000000000000000000, 0.000000000000000000, 1.000000000000000000 ) ) ;
#390 = DIRECTION ( 'NONE',  ( 1.000000000000000000, -0.000000000000000000, -0.000000000000000000 ) ) ;
#391 = ORIENTED_EDGE ( 'NONE', *, *, #526, .T. ) ;
#392 = STYLED_ITEM ( 'NONE', ( #136 ), #1245 ) ;
#393 = DIRECTION ( 'NONE',  ( -1.000000000000000000, -0.000000000000000000, -0.000000000000000000 ) ) ;
#394 = ORIENTED_EDGE ( 'NONE', *, *, #463, .T. ) ;
#395 = AXIS2_PLACEMENT_3D ( 'NONE', #455, #352, #763 ) ;
#396 = CARTESIAN_POINT ( 'NONE',  ( -0.7999999999999997113, 4.977708763999664221, 1.599999999999999867 ) ) ;
#397 = ADVANCED_FACE ( 'NONE', ( #916 ), #620, .F. ) ;
#398 = LINE ( 'NONE', #693, #473 ) ;
#399 = SURFACE_STYLE_USAGE ( .BOTH. , #696 ) ;
#400 = CARTESIAN_POINT ( 'NONE',  ( 0.000000000000000000, 0.6999999999999999556, 0.000000000000000000 ) ) ;
#401 = VERTEX_POINT ( 'NONE', #24 ) ;
#402 = DIRECTION ( 'NONE',  ( 1.000000000000000000, 0.000000000000000000, -9.637352644315586861E-16 ) ) ;
#403 = ORIENTED_EDGE ( 'NONE', *, *, #695, .T. ) ;
#404 = FACE_OUTER_BOUND ( 'NONE', #872, .T. ) ;
#405 = DIRECTION ( 'NONE',  ( 0.000000000000000000, -1.000000000000000000, 0.000000000000000000 ) ) ;
#406 = DIRECTION ( 'NONE',  ( -1.000000000000000000, -0.000000000000000000, -0.000000000000000000 ) ) ;
#407 = EDGE_LOOP ( 'NONE', ( #1011, #1279, #508, #437 ) ) ;
#408 = LINE ( 'NONE', #810, #1266 ) ;
#409 = DIRECTION ( 'NONE',  ( -0.000000000000000000, -0.000000000000000000, -1.000000000000000000 ) ) ;
#410 = ORIENTED_EDGE ( 'NONE', *, *, #37, .F. ) ;
#411 = VERTEX_POINT ( 'NONE', #1120 ) ;
#412 = DIRECTION ( 'NONE',  ( 1.000000000000000000, -0.000000000000000000, -0.000000000000000000 ) ) ;
#413 = EDGE_CURVE ( 'NONE', #908, #990, #214, .T. ) ;
#414 = CARTESIAN_POINT ( 'NONE',  ( -0.3499999999999996447, 0.000000000000000000, -1.100000000000000089 ) ) ;
#415 = ORIENTED_EDGE ( 'NONE', *, *, #269, .T. ) ;
#416 = DIRECTION ( 'NONE',  ( 1.478457507934779132E-16, -0.000000000000000000, -1.000000000000000000 ) ) ;
#417 = VECTOR ( 'NONE', #1008, 1000.000000000000000 ) ;
#418 = AXIS2_PLACEMENT_3D ( 'NONE', #800, #296, #596 ) ;
#419 = LINE ( 'NONE', #822, #534 ) ;
#420 = LINE ( 'NONE', #338, #644 ) ;
#421 = EDGE_CURVE ( 'NONE', #1039, #906, #827, .T. ) ;
#422 = DIRECTION ( 'NONE',  ( 0.000000000000000000, -0.000000000000000000, -1.000000000000000000 ) ) ;
#423 = EDGE_LOOP ( 'NONE', ( #84, #294, #14, #975 ) ) ;
#424 = CARTESIAN_POINT ( 'NONE',  ( -0.3499999999999993117, 0.2500000000000000000, 1.599999999999999867 ) ) ;
#425 = DIRECTION ( 'NONE',  ( 1.478457507934779132E-16, -0.000000000000000000, 1.000000000000000000 ) ) ;
#426 = FACE_OUTER_BOUND ( 'NONE', #257, .T. ) ;
#427 = EDGE_LOOP ( 'NONE', ( #1164, #285, #700, #1186 ) ) ;
#428 = CARTESIAN_POINT ( 'NONE',  ( -0.3499999999999996447, 0.2500000000000002220, -1.100000000000000089 ) ) ;
#429 = ORIENTED_EDGE ( 'NONE', *, *, #288, .T. ) ;
#430 = ADVANCED_FACE ( 'NONE', ( #1068 ), #75, .F. ) ;
#431 = VECTOR ( 'NONE', #647, 1000.000000000000000 ) ;
#432 = VECTOR ( 'NONE', #110, 1000.000000000000000 ) ;
#433 = ADVANCED_FACE ( 'NONE', ( #961 ), #781, .F. ) ;
#434 = DIRECTION ( 'NONE',  ( -1.000000000000000000, 0.000000000000000000, -0.000000000000000000 ) ) ;
#435 = VERTEX_POINT ( 'NONE', #764 ) ;
#436 = FILL_AREA_STYLE ('',( #531 ) ) ;
#437 = ORIENTED_EDGE ( 'NONE', *, *, #246, .T. ) ;
#438 = CARTESIAN_POINT ( 'NONE',  ( -0.7999999999999990452, 3.827708763999662978, -1.100000000000000089 ) ) ;
#439 = EDGE_CURVE ( 'NONE', #714, #768, #560, .T. ) ;
#440 = FACE_OUTER_BOUND ( 'NONE', #423, .T. ) ;
#441 = AXIS2_PLACEMENT_3D ( 'NONE', #359, #245, #855 ) ;
#442 = DIRECTION ( 'NONE',  ( -0.000000000000000000, -1.000000000000000000, -0.000000000000000000 ) ) ;
#443 = CARTESIAN_POINT ( 'NONE',  ( -0.7999999999999990452, 0.2500000000000002220, -1.100000000000000089 ) ) ;
#444 = DIRECTION ( 'NONE',  ( -1.000000000000000000, -0.000000000000000000, -9.637352644315586861E-16 ) ) ;
#445 =( NAMED_UNIT ( * ) SI_UNIT ( $, .STERADIAN. ) SOLID_ANGLE_UNIT ( ) );
#446 = PLANE ( 'NONE',  #514 ) ;
#447 = EDGE_CURVE ( 'NONE', #310, #947, #569, .T. ) ;
#448 = LINE ( 'NONE', #829, #253 ) ;
#449 = CARTESIAN_POINT ( 'NONE',  ( 0.8000000000000003775, 4.977708763999664221, -1.600000000000000311 ) ) ;
#450 = VECTOR ( 'NONE', #925, 1000.000000000000000 ) ;
#451 =( LENGTH_UNIT ( ) NAMED_UNIT ( * ) SI_UNIT ( .MILLI., .METRE. ) );
#452 = CARTESIAN_POINT ( 'NONE',  ( -0.7999999999999992673, 0.2500000000000000000, -0.6000000000000000888 ) ) ;
#453 = VERTEX_POINT ( 'NONE', #272 ) ;
#454 = DIRECTION ( 'NONE',  ( -0.000000000000000000, -1.000000000000000000, -0.000000000000000000 ) ) ;
#455 = CARTESIAN_POINT ( 'NONE',  ( -0.3499999999999996447, 3.827708763999662978, -0.6000000000000000888 ) ) ;
#456 = APPLICATION_PROTOCOL_DEFINITION ( 'draft international standard', 'automotive_design', 1998, #1137 ) ;
#457 = LINE ( 'NONE', #857, #32 ) ;
#458 = DIRECTION ( 'NONE',  ( -0.000000000000000000, -1.000000000000000000, -0.000000000000000000 ) ) ;
#459 = ORIENTED_EDGE ( 'NONE', *, *, #601, .T. ) ;
#460 = VECTOR ( 'NONE', #873, 1000.000000000000000 ) ;
#461 = VERTEX_POINT ( 'NONE', #881 ) ;
#462 = VECTOR ( 'NONE', #582, 1000.000000000000000 ) ;
#463 = EDGE_CURVE ( 'NONE', #349, #260, #465, .T. ) ;
#464 = PLANE ( 'NONE',  #441 ) ;
#465 = LINE ( 'NONE', #776, #145 ) ;
#466 = CARTESIAN_POINT ( 'NONE',  ( 0.8000000000000003775, 0.2500000000000000000, 1.599999999999999867 ) ) ;
#467 = ORIENTED_EDGE ( 'NONE', *, *, #856, .T. ) ;
#468 = VERTEX_POINT ( 'NONE', #1160 ) ;
#469 = LINE ( 'NONE', #868, #460 ) ;
#470 = DIRECTION ( 'NONE',  ( 0.000000000000000000, -1.000000000000000000, 0.000000000000000000 ) ) ;
#471 = EDGE_CURVE ( 'NONE', #336, #895, #354, .T. ) ;
#472 = CARTESIAN_POINT ( 'NONE',  ( -0.7999999999999997113, 0.7000000000000000666, -1.600000000000000311 ) ) ;
#473 = VECTOR ( 'NONE', #494, 1000.000000000000000 ) ;
#474 = EDGE_LOOP ( 'NONE', ( #755, #1178, #965, #249 ) ) ;
#475 = FACE_OUTER_BOUND ( 'NONE', #407, .T. ) ;
#476 = DIRECTION ( 'NONE',  ( -1.478457507934779379E-16, 0.000000000000000000, 1.000000000000000000 ) ) ;
#477 = VERTEX_POINT ( 'NONE', #573 ) ;
#478 = VECTOR ( 'NONE', #3, 1000.000000000000000 ) ;
#479 = FACE_OUTER_BOUND ( 'NONE', #528, .T. ) ;
#480 = EDGE_LOOP ( 'NONE', ( #911, #708, #104, #622 ) ) ;
#481 = PLANE ( 'NONE',  #832 ) ;
#482 = ADVANCED_FACE ( 'NONE', ( #159 ), #279, .F. ) ;
#483 = DIRECTION ( 'NONE',  ( 7.589415207398534982E-16, 0.000000000000000000, 1.000000000000000000 ) ) ;
#484 = VERTEX_POINT ( 'NONE', #664 ) ;
#485 = CARTESIAN_POINT ( 'NONE',  ( 0.7999999999999997113, 0.2500000000000002220, -1.100000000000000089 ) ) ;
#486 = FACE_OUTER_BOUND ( 'NONE', #728, .T. ) ;
#487 = CARTESIAN_POINT ( 'NONE',  ( 0.3499999999999999223, 0.2500000000000002220, 1.599999999999999645 ) ) ;
#488 = DIRECTION ( 'NONE',  ( -1.478457507934779132E-16, 0.000000000000000000, 1.000000000000000000 ) ) ;
#489 = VERTEX_POINT ( 'NONE', #684 ) ;
#490 = AXIS2_PLACEMENT_3D ( 'NONE', #5, #777, #1276 ) ;
#491 = ADVANCED_FACE ( 'NONE', ( #1155 ), #259, .F. ) ;
#492 = VERTEX_POINT ( 'NONE', #1063 ) ;
#493 = CARTESIAN_POINT ( 'NONE',  ( 0.7999999999999997113, 3.827708763999662978, -1.100000000000000089 ) ) ;
#494 = DIRECTION ( 'NONE',  ( -1.478457507934779379E-16, 0.000000000000000000, 1.000000000000000000 ) ) ;
#495 = DIRECTION ( 'NONE',  ( 1.000000000000000000, 0.000000000000000000, 0.000000000000000000 ) ) ;
#496 = CARTESIAN_POINT ( 'NONE',  ( 0.3500000000000002554, 0.2500000000000000000, -0.6000000000000000888 ) ) ;
#497 = ORIENTED_EDGE ( 'NONE', *, *, #439, .F. ) ;
#498 = CARTESIAN_POINT ( 'NONE',  ( 0.000000000000000000, 0.000000000000000000, 0.000000000000000000 ) ) ;
#499 = EDGE_LOOP ( 'NONE', ( #1051, #1114, #1158, #172 ) ) ;
#500 = ADVANCED_FACE ( 'NONE', ( #155 ), #64, .T. ) ;
#501 = AXIS2_PLACEMENT_3D ( 'NONE', #1219, #1204, #1109 ) ;
#502 = FACE_OUTER_BOUND ( 'NONE', #379, .T. ) ;
#503 = UNCERTAINTY_MEASURE_WITH_UNIT (LENGTH_MEASURE( 1.000000000000000082E-05 ), #1009, 'distance_accuracy_value', 'NONE');
#504 = CARTESIAN_POINT ( 'NONE',  ( -0.3499999999999993117, 0.000000000000000000, 1.599999999999999867 ) ) ;
#505 = ORIENTED_EDGE ( 'NONE', *, *, #1289, .F. ) ;
#506 = CARTESIAN_POINT ( 'NONE',  ( -0.7999999999999992673, 0.000000000000000000, -0.6000000000000000888 ) ) ;
#507 = LINE ( 'NONE', #733, #1183 ) ;
#508 = ORIENTED_EDGE ( 'NONE', *, *, #998, .F. ) ;
#509 = LINE ( 'NONE', #190, #1042 ) ;
#510 = ADVANCED_FACE ( 'NONE', ( #579 ), #481, .F. ) ;
#511 = CARTESIAN_POINT ( 'NONE',  ( 0.3500000000000002554, 0.2500000000000000000, -0.6000000000000000888 ) ) ;
#512 = VERTEX_POINT ( 'NONE', #380 ) ;
#513 = LINE ( 'NONE', #912, #368 ) ;
#514 = AXIS2_PLACEMENT_3D ( 'NONE', #937, #1113, #112 ) ;
#515 = ORIENTED_EDGE ( 'NONE', *, *, #1255, .F. ) ;
#516 = DIRECTION ( 'NONE',  ( 1.000000000000000000, 0.000000000000000000, -0.000000000000000000 ) ) ;
#517 = LINE ( 'NONE', #634, #450 ) ;
#518 = ADVANCED_FACE ( 'NONE', ( #870 ), #148, .F. ) ;
#519 = DIRECTION ( 'NONE',  ( 7.589415207398535968E-16, 0.000000000000000000, -1.000000000000000000 ) ) ;
#520 = EDGE_LOOP ( 'NONE', ( #718, #767, #592, #956 ) ) ;
#521 = LINE ( 'NONE', #923, #771 ) ;
#522 = DIRECTION ( 'NONE',  ( 7.589415207398535968E-16, 0.000000000000000000, -1.000000000000000000 ) ) ;
#523 = VECTOR ( 'NONE', #602, 1000.000000000000000 ) ;
#524 =( GEOMETRIC_REPRESENTATION_CONTEXT ( 3 ) GLOBAL_UNCERTAINTY_ASSIGNED_CONTEXT ( ( #754 ) ) GLOBAL_UNIT_ASSIGNED_CONTEXT ( ( #161, #82, #1163 ) ) REPRESENTATION_CONTEXT ( 'NONE', 'WORKASPACE' ) );
#525 = CARTESIAN_POINT ( 'NONE',  ( -0.3499999999999993117, 0.000000000000000000, -1.599999999999999867 ) ) ;
#526 = EDGE_CURVE ( 'NONE', #4, #349, #457, .T. ) ;
#527 = DIRECTION ( 'NONE',  ( 0.000000000000000000, -0.000000000000000000, 1.000000000000000000 ) ) ;
#528 = EDGE_LOOP ( 'NONE', ( #1142, #1179, #324, #999 ) ) ;
#529 = LINE ( 'NONE', #332, #847 ) ;
#530 = PLANE ( 'NONE',  #12 ) ;
#531 = FILL_AREA_STYLE_COLOUR ( '', #197 ) ;
#532 = LINE ( 'NONE', #243, #818 ) ;
#533 = ORIENTED_EDGE ( 'NONE', *, *, #183, .T. ) ;
#534 = VECTOR ( 'NONE', #1217, 1000.000000000000000 ) ;
#535 = ADVANCED_FACE ( 'NONE', ( #1215 ), #303, .F. ) ;
#536 = DIRECTION ( 'NONE',  ( -0.000000000000000000, -1.000000000000000000, -0.000000000000000000 ) ) ;
#537 = VECTOR ( 'NONE', #70, 1000.000000000000000 ) ;
#538 = CARTESIAN_POINT ( 'NONE',  ( -0.7999999999999997113, 0.000000000000000000, -1.600000000000000311 ) ) ;
#539 = DIRECTION ( 'NONE',  ( -0.000000000000000000, -1.000000000000000000, -0.000000000000000000 ) ) ;
#540 = ORIENTED_EDGE ( 'NONE', *, *, #945, .T. ) ;
#541 = PLANE ( 'NONE',  #609 ) ;
#542 = EDGE_CURVE ( 'NONE', #1151, #512, #509, .T. ) ;
#543 =( GEOMETRIC_REPRESENTATION_CONTEXT ( 3 ) GLOBAL_UNCERTAINTY_ASSIGNED_CONTEXT ( ( #1189 ) ) GLOBAL_UNIT_ASSIGNED_CONTEXT ( ( #239, #1140, #445 ) ) REPRESENTATION_CONTEXT ( 'NONE', 'WORKASPACE' ) );
#544 = CARTESIAN_POINT ( 'NONE',  ( 0.7999999999999997113, 0.2500000000000000000, -1.100000000000000089 ) ) ;
#545 = AXIS2_PLACEMENT_3D ( 'NONE', #165, #187, #976 ) ;
#546 = UNCERTAINTY_MEASURE_WITH_UNIT (LENGTH_MEASURE( 1.000000000000000082E-05 ), #169, 'distance_accuracy_value', 'NONE');
#547 = VECTOR ( 'NONE', #390, 1000.000000000000000 ) ;
#548 = CARTESIAN_POINT ( 'NONE',  ( -0.3499999999999996447, 0.2500000000000000000, -0.6000000000000000888 ) ) ;
#549 = DIRECTION ( 'NONE',  ( 0.000000000000000000, 0.000000000000000000, -1.000000000000000000 ) ) ;
#550 = ORIENTED_EDGE ( 'NONE', *, *, #1043, .T. ) ;
#551 = CARTESIAN_POINT ( 'NONE',  ( -0.3499999999999993117, 3.827708763999662978, -1.599999999999999867 ) ) ;
#552 = APPLICATION_PROTOCOL_DEFINITION ( 'draft international standard', 'automotive_design', 1998, #65 ) ;
#553 = VECTOR ( 'NONE', #442, 1000.000000000000000 ) ;
#554 = AXIS2_PLACEMENT_3D ( 'NONE', #875, #405, #1170 ) ;
#555 = CARTESIAN_POINT ( 'NONE',  ( -0.3499999999999996447, 0.000000000000000000, -0.6000000000000000888 ) ) ;
#556 = ORIENTED_EDGE ( 'NONE', *, *, #526, .F. ) ;
#557 = EDGE_CURVE ( 'NONE', #484, #492, #987, .T. ) ;
#558 = ORIENTED_EDGE ( 'NONE', *, *, #1073, .T. ) ;
#559 = LINE ( 'NONE', #756, #1267 ) ;
#560 = LINE ( 'NONE', #54, #600 ) ;
#561 = CARTESIAN_POINT ( 'NONE',  ( -0.3499999999999993117, 0.2500000000000000000, 1.599999999999999867 ) ) ;
#562 =( GEOMETRIC_REPRESENTATION_CONTEXT ( 3 ) GLOBAL_UNCERTAINTY_ASSIGNED_CONTEXT ( ( #344 ) ) GLOBAL_UNIT_ASSIGNED_CONTEXT ( ( #451, #816, #1012 ) ) REPRESENTATION_CONTEXT ( 'NONE', 'WORKASPACE' ) );
#563 = ORIENTED_EDGE ( 'NONE', *, *, #168, .F. ) ;
#564 = VECTOR ( 'NONE', #276, 1000.000000000000000 ) ;
#565 = ORIENTED_EDGE ( 'NONE', *, *, #1264, .F. ) ;
#566 = ADVANCED_FACE ( 'NONE', ( #196 ), #588, .F. ) ;
#567 = DIRECTION ( 'NONE',  ( -1.000000000000000000, -0.000000000000000000, -0.000000000000000000 ) ) ;
#568 = ADVANCED_FACE ( 'NONE', ( #404 ), #80, .F. ) ;
#569 = LINE ( 'NONE', #366, #726 ) ;
#570 = CARTESIAN_POINT ( 'NONE',  ( -0.7999999999999997113, 0.2500000000000000000, -1.600000000000000311 ) ) ;
#571 = PLANE ( 'NONE',  #713 ) ;
#572 = EDGE_CURVE ( 'NONE', #938, #625, #388, .T. ) ;
#573 = CARTESIAN_POINT ( 'NONE',  ( -0.3499999999999996447, 0.2500000000000000000, -1.100000000000000089 ) ) ;
#574 = PLANE ( 'NONE',  #126 ) ;
#575 = FACE_OUTER_BOUND ( 'NONE', #520, .T. ) ;
#576 = CLOSED_SHELL ( 'NONE', ( #278, #101, #29, #1058, #835, #518 ) ) ;
#577 = EDGE_LOOP ( 'NONE', ( #333, #122, #236, #761 ) ) ;
#578 = ORIENTED_EDGE ( 'NONE', *, *, #447, .F. ) ;
#579 = FACE_OUTER_BOUND ( 'NONE', #668, .T. ) ;
#580 = ADVANCED_FACE ( 'NONE', ( #311 ), #108, .F. ) ;
#581 = DIRECTION ( 'NONE',  ( 0.000000000000000000, 0.000000000000000000, -1.000000000000000000 ) ) ;
#582 = DIRECTION ( 'NONE',  ( 1.000000000000000000, 0.000000000000000000, 0.000000000000000000 ) ) ;
#583 = EDGE_LOOP ( 'NONE', ( #964, #986, #497, #1066 ) ) ;
#584 = AXIS2_PLACEMENT_3D ( 'NONE', #181, #11, #1000 ) ;
#585 = VECTOR ( 'NONE', #1010, 1000.000000000000000 ) ;
#586 = DIRECTION ( 'NONE',  ( 1.000000000000000000, 0.000000000000000000, -0.000000000000000000 ) ) ;
#587 = ORIENTED_EDGE ( 'NONE', *, *, #1289, .T. ) ;
#588 = PLANE ( 'NONE',  #1005 ) ;
#589 = CARTESIAN_POINT ( 'NONE',  ( 0.000000000000000000, 0.000000000000000000, 0.000000000000000000 ) ) ;
#590 = EDGE_CURVE ( 'NONE', #838, #618, #205, .T. ) ;
#591 = CARTESIAN_POINT ( 'NONE',  ( 0.3500000000000003109, 0.000000000000000000, -1.100000000000000089 ) ) ;
#592 = ORIENTED_EDGE ( 'NONE', *, *, #1138, .T. ) ;
#593 = CARTESIAN_POINT ( 'NONE',  ( -0.3499999999999996447, 0.2500000000000000000, -0.6000000000000000888 ) ) ;
#594 = ORIENTED_EDGE ( 'NONE', *, *, #326, .F. ) ;
#595 = CARTESIAN_POINT ( 'NONE',  ( 0.3499999999999998113, 0.2500000000000002220, -1.599999999999999867 ) ) ;
#596 = DIRECTION ( 'NONE',  ( -7.589415207398534982E-16, 0.000000000000000000, -1.000000000000000000 ) ) ;
#597 = VECTOR ( 'NONE', #946, 1000.000000000000000 ) ;
#598 = CARTESIAN_POINT ( 'NONE',  ( -0.3499999999999996447, 0.2500000000000002220, -1.100000000000000089 ) ) ;
#599 = EDGE_LOOP ( 'NONE', ( #1077, #677, #364, #1070 ) ) ;
#600 = VECTOR ( 'NONE', #967, 1000.000000000000000 ) ;
#601 = EDGE_CURVE ( 'NONE', #477, #461, #797, .T. ) ;
#602 = DIRECTION ( 'NONE',  ( -0.000000000000000000, -1.000000000000000000, -0.000000000000000000 ) ) ;
#603 = ORIENTED_EDGE ( 'NONE', *, *, #254, .T. ) ;
#604 = DIRECTION ( 'NONE',  ( -0.000000000000000000, -1.000000000000000000, -0.000000000000000000 ) ) ;
#605 = FILL_AREA_STYLE_COLOUR ( '', #76 ) ;
#606 = VERTEX_POINT ( 'NONE', #1207 ) ;
#607 = COLOUR_RGB ( '',0.7921568627450980005, 0.8196078431372548767, 0.9333333333333333481 ) ;
#608 = LINE ( 'NONE', #428, #735 ) ;
#609 = AXIS2_PLACEMENT_3D ( 'NONE', #942, #1243, #722 ) ;
#610 = ORIENTED_EDGE ( 'NONE', *, *, #807, .T. ) ;
#611 = EDGE_CURVE ( 'NONE', #1201, #1260, #915, .T. ) ;
#612 = VECTOR ( 'NONE', #1054, 1000.000000000000000 ) ;
#613 = FACE_OUTER_BOUND ( 'NONE', #1037, .T. ) ;
#614 = PRESENTATION_STYLE_ASSIGNMENT (( #289 ) ) ;
#615 = DIRECTION ( 'NONE',  ( 1.000000000000000000, -0.000000000000000000, 1.478457507934779132E-16 ) ) ;
#616 = ORIENTED_EDGE ( 'NONE', *, *, #143, .T. ) ;
#617 = CARTESIAN_POINT ( 'NONE',  ( -0.3499999999999996447, 0.000000000000000000, -0.6000000000000000888 ) ) ;
#618 = VERTEX_POINT ( 'NONE', #94 ) ;
#619 = ADVANCED_FACE ( 'NONE', ( #613 ), #692, .F. ) ;
#620 = PLANE ( 'NONE',  #213 ) ;
#621 = LINE ( 'NONE', #1034, #597 ) ;
#622 = ORIENTED_EDGE ( 'NONE', *, *, #51, .T. ) ;
#623 = VECTOR ( 'NONE', #25, 1000.000000000000000 ) ;
#624 = LINE ( 'NONE', #1124, #478 ) ;
#625 = VERTEX_POINT ( 'NONE', #821 ) ;
#626 = DIRECTION ( 'NONE',  ( -0.000000000000000000, -1.000000000000000000, -0.000000000000000000 ) ) ;
#627 = ADVANCED_FACE ( 'NONE', ( #502 ), #1088, .F. ) ;
#628 = DIRECTION ( 'NONE',  ( -0.000000000000000000, -1.000000000000000000, -0.000000000000000000 ) ) ;
#629 = EDGE_CURVE ( 'NONE', #268, #489, #843, .T. ) ;
#630 = FACE_OUTER_BOUND ( 'NONE', #1117, .T. ) ;
#631 = LINE ( 'NONE', #414, #1291 ) ;
#632 = ORIENTED_EDGE ( 'NONE', *, *, #1090, .T. ) ;
#633 = VECTOR ( 'NONE', #813, 1000.000000000000000 ) ;
#634 = CARTESIAN_POINT ( 'NONE',  ( -0.3499999999999996447, 0.000000000000000000, -0.6000000000000000888 ) ) ;
#635 = VERTEX_POINT ( 'NONE', #115 ) ;
#636 = EDGE_CURVE ( 'NONE', #97, #35, #850, .T. ) ;
#637 = CARTESIAN_POINT ( 'NONE',  ( 0.8000000000000003775, 0.2500000000000000000, -1.600000000000000311 ) ) ;
#638 = ORIENTED_EDGE ( 'NONE', *, *, #998, .T. ) ;
#639 = LINE ( 'NONE', #570, #48 ) ;
#640 = FACE_OUTER_BOUND ( 'NONE', #79, .T. ) ;
#641 = EDGE_CURVE ( 'NONE', #1286, #902, #125, .T. ) ;
#642 = CARTESIAN_POINT ( 'NONE',  ( 0.3500000000000003109, 0.000000000000000000, -1.100000000000000089 ) ) ;
#643 = VERTEX_POINT ( 'NONE', #1229 ) ;
#644 = VECTOR ( 'NONE', #1029, 1000.000000000000000 ) ;
#645 = FACE_OUTER_BOUND ( 'NONE', #921, .T. ) ;
#646 = CARTESIAN_POINT ( 'NONE',  ( -0.3499999999999993117, 0.2500000000000002220, 1.599999999999999867 ) ) ;
#647 = DIRECTION ( 'NONE',  ( -0.000000000000000000, -1.000000000000000000, -0.000000000000000000 ) ) ;
#648 = FACE_OUTER_BOUND ( 'NONE', #836, .T. ) ;
#649 = DIRECTION ( 'NONE',  ( 1.000000000000000000, 0.000000000000000000, 0.000000000000000000 ) ) ;
#650 = DIRECTION ( 'NONE',  ( -1.000000000000000000, 0.000000000000000000, -0.000000000000000000 ) ) ;
#651 = VECTOR ( 'NONE', #539, 1000.000000000000000 ) ;
#652 = UNCERTAINTY_MEASURE_WITH_UNIT (LENGTH_MEASURE( 1.000000000000000082E-05 ), #1285, 'distance_accuracy_value', 'NONE');
#653 = AXIS2_PLACEMENT_3D ( 'NONE', #400, #298, #1097 ) ;
#654 = CARTESIAN_POINT ( 'NONE',  ( -0.7999999999999997113, 0.2500000000000000000, -1.600000000000000311 ) ) ;
#655 = LINE ( 'NONE', #939, #689 ) ;
#656 = CARTESIAN_POINT ( 'NONE',  ( -0.7999999999999997113, 0.000000000000000000, -1.600000000000000311 ) ) ;
#657 = PRODUCT_CONTEXT ( 'NONE', #1137, 'mechanical' ) ;
#658 = SURFACE_STYLE_USAGE ( .BOTH. , #43 ) ;
#659 = EDGE_CURVE ( 'NONE', #78, #268, #1236, .T. ) ;
#660 = LINE ( 'NONE', #555, #186 ) ;
#661 = ORIENTED_EDGE ( 'NONE', *, *, #223, .F. ) ;
#662 = ORIENTED_EDGE ( 'NONE', *, *, #706, .T. ) ;
#663 = DIRECTION ( 'NONE',  ( 1.000000000000000000, 0.000000000000000000, -0.000000000000000000 ) ) ;
#664 = CARTESIAN_POINT ( 'NONE',  ( 0.3499999999999999223, 0.2500000000000000000, 1.599999999999999867 ) ) ;
#665 = VECTOR ( 'NONE', #360, 1000.000000000000000 ) ;
#666 = ADVANCED_FACE ( 'NONE', ( #645 ), #541, .F. ) ;
#667 = ORIENTED_EDGE ( 'NONE', *, *, #542, .F. ) ;
#668 = EDGE_LOOP ( 'NONE', ( #860, #900, #880, #1033 ) ) ;
#669 = DIRECTION ( 'NONE',  ( 1.000000000000000000, 0.000000000000000000, 0.000000000000000000 ) ) ;
#670 = CARTESIAN_POINT ( 'NONE',  ( 0.3500000000000002554, 3.827708763999662978, -0.6000000000000000888 ) ) ;
#671 = LINE ( 'NONE', #1064, #950 ) ;
#672 = PRESENTATION_LAYER_ASSIGNMENT (  '', '', ( #941 ) ) ;
#673 = AXIS2_PLACEMENT_3D ( 'NONE', #498, #707, #422 ) ;
#674 = ORIENTED_EDGE ( 'NONE', *, *, #749, .F. ) ;
#675 = EDGE_CURVE ( 'NONE', #1039, #704, #42, .T. ) ;
#676 = LINE ( 'NONE', #968, #932 ) ;
#677 = ORIENTED_EDGE ( 'NONE', *, *, #339, .T. ) ;
#678 = EDGE_CURVE ( 'NONE', #895, #802, #1118, .T. ) ;
#679 = ORIENTED_EDGE ( 'NONE', *, *, #377, .T. ) ;
#680 = DIRECTION ( 'NONE',  ( -1.000000000000000000, 0.000000000000000000, -1.301042606982604729E-15 ) ) ;
#681 = FILL_AREA_STYLE ('',( #685 ) ) ;
#682 = FACE_OUTER_BOUND ( 'NONE', #740, .T. ) ;
#683 = ORIENTED_EDGE ( 'NONE', *, *, #766, .T. ) ;
#684 = CARTESIAN_POINT ( 'NONE',  ( 0.8000000000000003775, 0.2500000000000000000, -1.600000000000000311 ) ) ;
#685 = FILL_AREA_STYLE_COLOUR ( '', #325 ) ;
#686 = FILL_AREA_STYLE_COLOUR ( '', #290 ) ;
#687 = CARTESIAN_POINT ( 'NONE',  ( 0.8000000000000003775, 4.977708763999664221, 1.599999999999999867 ) ) ;
#688 = ORIENTED_EDGE ( 'NONE', *, *, #237, .F. ) ;
#689 = VECTOR ( 'NONE', #358, 1000.000000000000000 ) ;
#690 = VECTOR ( 'NONE', #786, 1000.000000000000000 ) ;
#691 = ORIENTED_EDGE ( 'NONE', *, *, #737, .F. ) ;
#692 = PLANE ( 'NONE',  #584 ) ;
#693 = CARTESIAN_POINT ( 'NONE',  ( 0.3500000000000002554, 0.2500000000000002220, -0.6000000000000000888 ) ) ;
#694 = PLANE ( 'NONE',  #418 ) ;
#695 = EDGE_CURVE ( 'NONE', #227, #477, #521, .T. ) ;
#696 = SURFACE_SIDE_STYLE ('',( #792 ) ) ;
#697 = CARTESIAN_POINT ( 'NONE',  ( 0.3500000000000002554, 0.000000000000000000, -0.6000000000000000888 ) ) ;
#698 = ORIENTED_EDGE ( 'NONE', *, *, #611, .T. ) ;
#699 = LINE ( 'NONE', #1093, #1105 ) ;
#700 = ORIENTED_EDGE ( 'NONE', *, *, #853, .F. ) ;
#701 = LINE ( 'NONE', #889, #785 ) ;
#702 = FILL_AREA_STYLE ('',( #1190 ) ) ;
#703 = CARTESIAN_POINT ( 'NONE',  ( 0.3499999999999999223, 0.000000000000000000, -1.599999999999999867 ) ) ;
#704 = VERTEX_POINT ( 'NONE', #424 ) ;
#705 = MECHANICAL_DESIGN_GEOMETRIC_PRESENTATION_REPRESENTATION (  '', ( #50 ), #1053 ) ;
#706 = EDGE_CURVE ( 'NONE', #477, #714, #1222, .T. ) ;
#707 = DIRECTION ( 'NONE',  ( 0.000000000000000000, -1.000000000000000000, 0.000000000000000000 ) ) ;
#708 = ORIENTED_EDGE ( 'NONE', *, *, #1271, .T. ) ;
#709 = CARTESIAN_POINT ( 'NONE',  ( 0.7999999999999999334, 0.000000000000000000, -0.6000000000000000888 ) ) ;
#710 = ORIENTED_EDGE ( 'NONE', *, *, #13, .T. ) ;
#711 = MECHANICAL_DESIGN_GEOMETRIC_PRESENTATION_REPRESENTATION (  '', ( #941 ), #876 ) ;
#712 = DIRECTION ( 'NONE',  ( -1.971276677246372012E-16, -0.000000000000000000, -1.000000000000000000 ) ) ;
#713 = AXIS2_PLACEMENT_3D ( 'NONE', #970, #69, #1086 ) ;
#714 = VERTEX_POINT ( 'NONE', #1143 ) ;
#715 = MECHANICAL_DESIGN_GEOMETRIC_PRESENTATION_REPRESENTATION (  '', ( #1027 ), #543 ) ;
#716 = DIRECTION ( 'NONE',  ( 1.478457507934779132E-16, 0.000000000000000000, 1.000000000000000000 ) ) ;
#717 = LINE ( 'NONE', #206, #432 ) ;
#718 = ORIENTED_EDGE ( 'NONE', *, *, #904, .F. ) ;
#719 = CARTESIAN_POINT ( 'NONE',  ( -0.7999999999999997113, 0.7000000000000000666, -1.600000000000000311 ) ) ;
#720 = CARTESIAN_POINT ( 'NONE',  ( -0.7999999999999990452, 0.000000000000000000, -1.100000000000000089 ) ) ;
#721 = ORIENTED_EDGE ( 'NONE', *, *, #636, .F. ) ;
#722 = DIRECTION ( 'NONE',  ( 1.000000000000000000, 0.000000000000000000, -0.000000000000000000 ) ) ;
#723 = CARTESIAN_POINT ( 'NONE',  ( -0.3499999999999996447, 3.827708763999662978, -1.100000000000000089 ) ) ;
#724 = DIRECTION ( 'NONE',  ( -0.000000000000000000, -1.000000000000000000, -0.000000000000000000 ) ) ;
#725 = ORIENTED_EDGE ( 'NONE', *, *, #1119, .F. ) ;
#726 = VECTOR ( 'NONE', #59, 1000.000000000000000 ) ;
#727 = PLANE ( 'NONE',  #134 ) ;
#728 = EDGE_LOOP ( 'NONE', ( #977, #940, #179, #1026 ) ) ;
#729 = ADVANCED_FACE ( 'NONE', ( #147 ), #464, .F. ) ;
#730 = CARTESIAN_POINT ( 'NONE',  ( 0.7999999999999997113, 0.000000000000000000, -1.100000000000000089 ) ) ;
#731 = DIRECTION ( 'NONE',  ( 0.000000000000000000, 0.000000000000000000, 1.000000000000000000 ) ) ;
#732 = DIRECTION ( 'NONE',  ( -1.478457507934779379E-16, 0.000000000000000000, -1.000000000000000000 ) ) ;
#733 = CARTESIAN_POINT ( 'NONE',  ( 0.8000000000000003775, 0.2500000000000000000, 1.599999999999999867 ) ) ;
#734 = ORIENTED_EDGE ( 'NONE', *, *, #223, .T. ) ;
#735 = VECTOR ( 'NONE', #519, 1000.000000000000000 ) ;
#736 = CARTESIAN_POINT ( 'NONE',  ( -0.7999999999999990452, 0.2500000000000000000, -1.100000000000000089 ) ) ;
#737 = EDGE_CURVE ( 'NONE', #262, #1057, #1154, .T. ) ;
#738 = DIRECTION ( 'NONE',  ( 0.000000000000000000, -0.000000000000000000, 1.000000000000000000 ) ) ;
#739 = DIRECTION ( 'NONE',  ( 4.336808689942018229E-16, 0.000000000000000000, -1.000000000000000000 ) ) ;
#740 = EDGE_LOOP ( 'NONE', ( #357, #306, #356, #86 ) ) ;
#741 = PLANE ( 'NONE',  #30 ) ;
#742 = DIRECTION ( 'NONE',  ( 1.000000000000000000, 0.000000000000000000, -0.000000000000000000 ) ) ;
#743 = EDGE_CURVE ( 'NONE', #35, #1288, #53, .T. ) ;
#744 = VECTOR ( 'NONE', #39, 1000.000000000000000 ) ;
#745 = SURFACE_STYLE_FILL_AREA ( #702 ) ;
#746 = CARTESIAN_POINT ( 'NONE',  ( 0.8000000000000003775, 0.7000000000000000666, -1.600000000000000311 ) ) ;
#747 = CARTESIAN_POINT ( 'NONE',  ( 0.8000000000000003775, 0.7000000000000000666, 1.599999999999999867 ) ) ;
#748 = CARTESIAN_POINT ( 'NONE',  ( 0.8000000000000003775, 0.000000000000000000, -1.600000000000000311 ) ) ;
#749 = EDGE_CURVE ( 'NONE', #1233, #211, #1254, .T. ) ;
#750 = DIRECTION ( 'NONE',  ( 7.589415207398534982E-16, -0.000000000000000000, -1.000000000000000000 ) ) ;
#751 = FILL_AREA_STYLE_COLOUR ( '', #607 ) ;
#752 = LINE ( 'NONE', #55, #1121 ) ;
#753 = VECTOR ( 'NONE', #626, 1000.000000000000000 ) ;
#754 = UNCERTAINTY_MEASURE_WITH_UNIT (LENGTH_MEASURE( 1.000000000000000082E-05 ), #161, 'distance_accuracy_value', 'NONE');
#755 = ORIENTED_EDGE ( 'NONE', *, *, #1247, .T. ) ;
#756 = CARTESIAN_POINT ( 'NONE',  ( -0.3499999999999993117, 0.000000000000000000, -1.599999999999999867 ) ) ;
#757 = ADVANCED_FACE ( 'NONE', ( #1248 ), #862, .F. ) ;
#758 = DIRECTION ( 'NONE',  ( 0.000000000000000000, -0.000000000000000000, -1.000000000000000000 ) ) ;
#759 = EDGE_CURVE ( 'NONE', #1288, #461, #959, .T. ) ;
#760 = CARTESIAN_POINT ( 'NONE',  ( 0.7999999999999999334, 0.2500000000000000000, -0.6000000000000000888 ) ) ;
#761 = ORIENTED_EDGE ( 'NONE', *, *, #1264, .T. ) ;
#762 = ORIENTED_EDGE ( 'NONE', *, *, #385, .F. ) ;
#763 = DIRECTION ( 'NONE',  ( -1.000000000000000000, 0.000000000000000000, -0.000000000000000000 ) ) ;
#764 = CARTESIAN_POINT ( 'NONE',  ( -0.7999999999999992673, 0.000000000000000000, -0.6000000000000000888 ) ) ;
#765 = AXIS2_PLACEMENT_3D ( 'NONE', #670, #1074, #476 ) ;
#766 = EDGE_CURVE ( 'NONE', #260, #255, #559, .T. ) ;
#767 = ORIENTED_EDGE ( 'NONE', *, *, #826, .T. ) ;
#768 = VERTEX_POINT ( 'NONE', #1061 ) ;
#769 = CARTESIAN_POINT ( 'NONE',  ( -0.3499999999999996447, 0.2500000000000000000, -0.6000000000000000888 ) ) ;
#770 = PRESENTATION_LAYER_ASSIGNMENT (  '', '', ( #392 ) ) ;
#771 = VECTOR ( 'NONE', #23, 1000.000000000000000 ) ;
#772 = ADVANCED_FACE ( 'NONE', ( #347 ), #140, .F. ) ;
#773 =( GEOMETRIC_REPRESENTATION_CONTEXT ( 3 ) GLOBAL_UNCERTAINTY_ASSIGNED_CONTEXT ( ( #291 ) ) GLOBAL_UNIT_ASSIGNED_CONTEXT ( ( #1096, #1182, #994 ) ) REPRESENTATION_CONTEXT ( 'NONE', 'WORKASPACE' ) );
#774 = VERTEX_POINT ( 'NONE', #1167 ) ;
#775 = DIRECTION ( 'NONE',  ( -1.000000000000000000, 0.000000000000000000, -0.000000000000000000 ) ) ;
#776 = CARTESIAN_POINT ( 'NONE',  ( 0.3499999999999999223, 3.827708763999662978, -1.599999999999999867 ) ) ;
#777 = DIRECTION ( 'NONE',  ( -1.000000000000000000, 0.000000000000000000, 4.336808689942018229E-16 ) ) ;
#778 = VERTEX_POINT ( 'NONE', #593 ) ;
#779 = PRODUCT_RELATED_PRODUCT_CATEGORY ( 'part', '', ( #973 ) ) ;
#780 = ORIENTED_EDGE ( 'NONE', *, *, #871, .T. ) ;
#781 = PLANE ( 'NONE',  #384 ) ;
#782 = VECTOR ( 'NONE', #1263, 1000.000000000000000 ) ;
#783 = FILL_AREA_STYLE ('',( #979 ) ) ;
#784 = PLANE ( 'NONE',  #314 ) ;
#785 = VECTOR ( 'NONE', #1181, 1000.000000000000000 ) ;
#786 = DIRECTION ( 'NONE',  ( 7.589415207398534982E-16, 0.000000000000000000, 1.000000000000000000 ) ) ;
#787 = ORIENTED_EDGE ( 'NONE', *, *, #204, .F. ) ;
#788 = ORIENTED_EDGE ( 'NONE', *, *, #297, .F. ) ;
#789 = EDGE_CURVE ( 'NONE', #310, #908, #1273, .T. ) ;
#790 = CARTESIAN_POINT ( 'NONE',  ( -0.7999999999999992673, 0.2500000000000000000, -0.6000000000000000888 ) ) ;
#791 = LINE ( 'NONE', #799, #1262 ) ;
#792 = SURFACE_STYLE_FILL_AREA ( #436 ) ;
#793 = LINE ( 'NONE', #703, #859 ) ;
#794 = VERTEX_POINT ( 'NONE', #894 ) ;
#795 = VECTOR ( 'NONE', #604, 1000.000000000000000 ) ;
#796 = EDGE_LOOP ( 'NONE', ( #383, #106, #1146, #376, #725, #203, #1259, #195, #1076, #565, #128, #667 ) ) ;
#797 = LINE ( 'NONE', #287, #795 ) ;
#798 = EDGE_CURVE ( 'NONE', #453, #1052, #1287, .T. ) ;
#799 = CARTESIAN_POINT ( 'NONE',  ( -0.7999999999999997113, 0.7000000000000000666, 1.599999999999999867 ) ) ;
#800 = CARTESIAN_POINT ( 'NONE',  ( 0.3499999999999999223, 0.2500000000000000000, -1.599999999999999867 ) ) ;
#801 = EDGE_CURVE ( 'NONE', #938, #606, #378, .T. ) ;
#802 = VERTEX_POINT ( 'NONE', #1187 ) ;
#803 = DIRECTION ( 'NONE',  ( 9.637352644315586861E-16, -0.000000000000000000, 1.000000000000000000 ) ) ;
#804 = ORIENTED_EDGE ( 'NONE', *, *, #826, .F. ) ;
#805 = DIRECTION ( 'NONE',  ( 0.000000000000000000, 1.000000000000000000, 0.000000000000000000 ) ) ;
#806 = LINE ( 'NONE', #1080, #891 ) ;
#807 = EDGE_CURVE ( 'NONE', #1286, #1201, #699, .T. ) ;
#808 = CARTESIAN_POINT ( 'NONE',  ( 0.7999999999999999334, 0.2500000000000002220, -0.6000000000000000888 ) ) ;
#809 = ORIENTED_EDGE ( 'NONE', *, *, #1119, .T. ) ;
#810 = CARTESIAN_POINT ( 'NONE',  ( 0.8000000000000003775, 0.2500000000000000000, -1.600000000000000311 ) ) ;
#811 = FACE_OUTER_BOUND ( 'NONE', #274, .T. ) ;
#812 = ORIENTED_EDGE ( 'NONE', *, *, #1067, .F. ) ;
#813 = DIRECTION ( 'NONE',  ( -0.000000000000000000, -1.000000000000000000, -0.000000000000000000 ) ) ;
#814 = EDGE_LOOP ( 'NONE', ( #90, #812, #319, #1281, #661, #556, #825, #62, #1127, #578, #505, #674 ) ) ;
#815 = ADVANCED_FACE ( 'NONE', ( #475 ), #270, .F. ) ;
#816 =( NAMED_UNIT ( * ) PLANE_ANGLE_UNIT ( ) SI_UNIT ( $, .RADIAN. ) );
#817 = CARTESIAN_POINT ( 'NONE',  ( -0.3499999999999993117, 0.000000000000000000, 1.599999999999999867 ) ) ;
#818 = VECTOR ( 'NONE', #957, 1000.000000000000000 ) ;
#819 = ORIENTED_EDGE ( 'NONE', *, *, #927, .T. ) ;
#820 = STYLED_ITEM ( 'NONE', ( #176 ), #1237 ) ;
#821 = CARTESIAN_POINT ( 'NONE',  ( 0.7999999999999997113, 0.000000000000000000, -1.100000000000000089 ) ) ;
#822 = CARTESIAN_POINT ( 'NONE',  ( 0.7999999999999999334, 0.000000000000000000, -0.6000000000000000888 ) ) ;
#823 = PLANE ( 'NONE',  #68 ) ;
#824 = DIRECTION ( 'NONE',  ( 1.301042606982604729E-15, 0.000000000000000000, 1.000000000000000000 ) ) ;
#825 = ORIENTED_EDGE ( 'NONE', *, *, #927, .F. ) ;
#826 = EDGE_CURVE ( 'NONE', #1265, #67, #72, .T. ) ;
#827 = LINE ( 'NONE', #1223, #665 ) ;
#828 = DIRECTION ( 'NONE',  ( -7.589415207398534982E-16, 0.000000000000000000, 1.000000000000000000 ) ) ;
#829 = CARTESIAN_POINT ( 'NONE',  ( -0.7999999999999992673, 0.2500000000000000000, -0.6000000000000000888 ) ) ;
#830 = CLOSED_SHELL ( 'NONE', ( #1230, #510, #1212, #63, #1007, #1203 ) ) ;
#831 =( NAMED_UNIT ( * ) PLANE_ANGLE_UNIT ( ) SI_UNIT ( $, .RADIAN. ) );
#832 = AXIS2_PLACEMENT_3D ( 'NONE', #978, #1275, #1055 ) ;
#833 = CARTESIAN_POINT ( 'NONE',  ( 0.8000000000000003775, 0.2500000000000000000, -1.600000000000000311 ) ) ;
#834 = ORIENTED_EDGE ( 'NONE', *, *, #641, .F. ) ;
#835 = ADVANCED_FACE ( 'NONE', ( #479 ), #571, .T. ) ;
#836 = EDGE_LOOP ( 'NONE', ( #866, #185, #201, #99 ) ) ;
#837 =( LENGTH_UNIT ( ) NAMED_UNIT ( * ) SI_UNIT ( .MILLI., .METRE. ) );
#838 = VERTEX_POINT ( 'NONE', #365 ) ;
#839 = VECTOR ( 'NONE', #824, 1000.000000000000000 ) ;
#840 = DIRECTION ( 'NONE',  ( 1.971276677246372012E-16, 0.000000000000000000, 1.000000000000000000 ) ) ;
#841 = EDGE_CURVE ( 'NONE', #1233, #1151, #469, .T. ) ;
#842 = ORIENTED_EDGE ( 'NONE', *, *, #1255, .T. ) ;
#843 = LINE ( 'NONE', #449, #920 ) ;
#844 = UNCERTAINTY_MEASURE_WITH_UNIT (LENGTH_MEASURE( 1.000000000000000082E-05 ), #837, 'distance_accuracy_value', 'NONE');
#845 = CARTESIAN_POINT ( 'NONE',  ( 0.7999999999999999334, 0.2500000000000000000, -0.6000000000000000888 ) ) ;
#846 = ADVANCED_FACE ( 'NONE', ( #194 ), #210, .F. ) ;
#847 = VECTOR ( 'NONE', #930, 1000.000000000000000 ) ;
#848 = CARTESIAN_POINT ( 'NONE',  ( 0.000000000000000000, 0.2500000000000000000, 0.000000000000000000 ) ) ;
#849 = CLOSED_SHELL ( 'NONE', ( #430, #863, #1221, #111, #433, #958 ) ) ;
#850 = LINE ( 'NONE', #220, #981 ) ;
#851 = DIRECTION ( 'NONE',  ( -0.000000000000000000, -1.000000000000000000, -0.000000000000000000 ) ) ;
#852 = ORIENTED_EDGE ( 'NONE', *, *, #237, .T. ) ;
#853 = EDGE_CURVE ( 'NONE', #895, #918, #624, .T. ) ;
#854 = FACE_OUTER_BOUND ( 'NONE', #180, .T. ) ;
#855 = DIRECTION ( 'NONE',  ( 1.971276677246372012E-16, 0.000000000000000000, -1.000000000000000000 ) ) ;
#856 = EDGE_CURVE ( 'NONE', #4, #255, #114, .T. ) ;
#857 = CARTESIAN_POINT ( 'NONE',  ( -0.3499999999999993117, 0.2500000000000002220, -1.599999999999999867 ) ) ;
#858 = AXIS2_PLACEMENT_3D ( 'NONE', #164, #1159, #775 ) ;
#859 = VECTOR ( 'NONE', #483, 1000.000000000000000 ) ;
#860 = ORIENTED_EDGE ( 'NONE', *, *, #377, .F. ) ;
#861 = ORIENTED_EDGE ( 'NONE', *, *, #737, .T. ) ;
#862 = PLANE ( 'NONE',  #395 ) ;
#863 = ADVANCED_FACE ( 'NONE', ( #27 ), #21, .F. ) ;
#864 = CARTESIAN_POINT ( 'NONE',  ( 0.7999999999999997113, 0.2500000000000000000, -1.100000000000000089 ) ) ;
#865 = LINE ( 'NONE', #769, #1261 ) ;
#866 = ORIENTED_EDGE ( 'NONE', *, *, #1138, .F. ) ;
#867 = EDGE_LOOP ( 'NONE', ( #93, #734, #550, #1252 ) ) ;
#868 = CARTESIAN_POINT ( 'NONE',  ( 0.3499999999999999223, 3.827708763999662978, 1.599999999999999867 ) ) ;
#869 = VECTOR ( 'NONE', #851, 1000.000000000000000 ) ;
#870 = FACE_OUTER_BOUND ( 'NONE', #232, .T. ) ;
#871 = EDGE_CURVE ( 'NONE', #255, #1260, #631, .T. ) ;
#872 = EDGE_LOOP ( 'NONE', ( #533, #1019, #788, #415 ) ) ;
#873 = DIRECTION ( 'NONE',  ( -0.000000000000000000, -1.000000000000000000, -0.000000000000000000 ) ) ;
#874 = CARTESIAN_POINT ( 'NONE',  ( 0.8000000000000003775, 0.2500000000000000000, -1.600000000000000311 ) ) ;
#875 = CARTESIAN_POINT ( 'NONE',  ( 0.000000000000000000, 0.000000000000000000, 0.000000000000000000 ) ) ;
#876 =( GEOMETRIC_REPRESENTATION_CONTEXT ( 3 ) GLOBAL_UNCERTAINTY_ASSIGNED_CONTEXT ( ( #652 ) ) GLOBAL_UNIT_ASSIGNED_CONTEXT ( ( #1285, #1192, #191 ) ) REPRESENTATION_CONTEXT ( 'NONE', 'WORKASPACE' ) );
#877 = VECTOR ( 'NONE', #907, 1000.000000000000000 ) ;
#878 = VECTOR ( 'NONE', #83, 1000.000000000000000 ) ;
#879 = ORIENTED_EDGE ( 'NONE', *, *, #675, .F. ) ;
#880 = ORIENTED_EDGE ( 'NONE', *, *, #1098, .T. ) ;
#881 = CARTESIAN_POINT ( 'NONE',  ( -0.3499999999999996447, 0.000000000000000000, -1.100000000000000089 ) ) ;
#882 =( NAMED_UNIT ( * ) SI_UNIT ( $, .STERADIAN. ) SOLID_ANGLE_UNIT ( ) );
#883 = CARTESIAN_POINT ( 'NONE',  ( 0.8000000000000003775, 4.977708763999664221, -1.600000000000000311 ) ) ;
#884 = LINE ( 'NONE', #687, #982 ) ;
#885 = ORIENTED_EDGE ( 'NONE', *, *, #37, .T. ) ;
#886 = ADVANCED_FACE ( 'NONE', ( #328 ), #727, .T. ) ;
#887 = CARTESIAN_POINT ( 'NONE',  ( -0.7999999999999997113, 4.977708763999664221, -1.600000000000000311 ) ) ;
#888 = DIRECTION ( 'NONE',  ( 0.000000000000000000, -1.000000000000000000, 0.000000000000000000 ) ) ;
#889 = CARTESIAN_POINT ( 'NONE',  ( 0.7999999999999999334, 0.2500000000000000000, -0.6000000000000000888 ) ) ;
#890 = CARTESIAN_POINT ( 'NONE',  ( -0.7999999999999997113, 4.977708763999664221, -1.600000000000000311 ) ) ;
#891 = VECTOR ( 'NONE', #1269, 1000.000000000000000 ) ;
#892 = LINE ( 'NONE', #382, #20 ) ;
#893 = ORIENTED_EDGE ( 'NONE', *, *, #759, .F. ) ;
#894 = CARTESIAN_POINT ( 'NONE',  ( 0.3499999999999999223, 0.000000000000000000, 1.599999999999999867 ) ) ;
#895 = VERTEX_POINT ( 'NONE', #928 ) ;
#896 = SURFACE_SIDE_STYLE ('',( #1283 ) ) ;
#897 = SURFACE_STYLE_FILL_AREA ( #1284 ) ;
#898 = PRESENTATION_STYLE_ASSIGNMENT (( #399 ) ) ;
#899 = PLANE ( 'NONE',  #653 ) ;
#900 = ORIENTED_EDGE ( 'NONE', *, *, #590, .T. ) ;
#901 = VECTOR ( 'NONE', #935, 1000.000000000000000 ) ;
#902 = VERTEX_POINT ( 'NONE', #720 ) ;
#903 = DIRECTION ( 'NONE',  ( 1.000000000000000000, 0.000000000000000000, -0.000000000000000000 ) ) ;
#904 = EDGE_CURVE ( 'NONE', #1265, #838, #98, .T. ) ;
#905 = SURFACE_STYLE_FILL_AREA ( #1002 ) ;
#906 = VERTEX_POINT ( 'NONE', #1195 ) ;
#907 = DIRECTION ( 'NONE',  ( 0.000000000000000000, 0.000000000000000000, 1.000000000000000000 ) ) ;
#908 = VERTEX_POINT ( 'NONE', #617 ) ;
#909 = CARTESIAN_POINT ( 'NONE',  ( -0.3499999999999996447, 3.827708763999662978, -1.100000000000000089 ) ) ;
#910 = VECTOR ( 'NONE', #628, 1000.000000000000000 ) ;
#911 = ORIENTED_EDGE ( 'NONE', *, *, #91, .F. ) ;
#912 = CARTESIAN_POINT ( 'NONE',  ( 0.8000000000000003775, 0.000000000000000000, 1.599999999999999867 ) ) ;
#913 = DIRECTION ( 'NONE',  ( 0.000000000000000000, 0.000000000000000000, 1.000000000000000000 ) ) ;
#914 = ORIENTED_EDGE ( 'NONE', *, *, #231, .T. ) ;
#915 = LINE ( 'NONE', #909, #224 ) ;
#916 = FACE_OUTER_BOUND ( 'NONE', #327, .T. ) ;
#917 = LINE ( 'NONE', #38, #212 ) ;
#918 = VERTEX_POINT ( 'NONE', #637 ) ;
#919 = CARTESIAN_POINT ( 'NONE',  ( 0.7999999999999999334, 0.2500000000000000000, -0.6000000000000000888 ) ) ;
#920 = VECTOR ( 'NONE', #536, 1000.000000000000000 ) ;
#921 = EDGE_LOOP ( 'NONE', ( #208, #120, #929, #1205 ) ) ;
#922 = PRESENTATION_LAYER_ASSIGNMENT (  '', '', ( #820 ) ) ;
#923 = CARTESIAN_POINT ( 'NONE',  ( -0.7999999999999990452, 0.2500000000000000000, -1.100000000000000089 ) ) ;
#924 = CARTESIAN_POINT ( 'NONE',  ( -0.3499999999999993117, 0.000000000000000000, 1.599999999999999867 ) ) ;
#925 = DIRECTION ( 'NONE',  ( -1.478457507934779132E-16, -0.000000000000000000, -1.000000000000000000 ) ) ;
#926 = CARTESIAN_POINT ( 'NONE',  ( -0.3499999999999993117, 0.2500000000000002220, -1.599999999999999867 ) ) ;
#927 = EDGE_CURVE ( 'NONE', #1201, #4, #608, .T. ) ;
#928 = CARTESIAN_POINT ( 'NONE',  ( 0.7999999999999997113, 0.2500000000000000000, -1.100000000000000089 ) ) ;
#929 = ORIENTED_EDGE ( 'NONE', *, *, #572, .T. ) ;
#930 = DIRECTION ( 'NONE',  ( 7.589415207398535968E-16, 0.000000000000000000, 1.000000000000000000 ) ) ;
#931 = CARTESIAN_POINT ( 'NONE',  ( 0.3499999999999999223, 0.2500000000000000000, -1.599999999999999867 ) ) ;
#932 = VECTOR ( 'NONE', #1069, 1000.000000000000000 ) ;
#933 = LINE ( 'NONE', #1036, #651 ) ;
#934 = ORIENTED_EDGE ( 'NONE', *, *, #269, .F. ) ;
#935 = DIRECTION ( 'NONE',  ( -0.000000000000000000, -1.000000000000000000, -0.000000000000000000 ) ) ;
#936 = EDGE_CURVE ( 'NONE', #492, #329, #92, .T. ) ;
#937 = CARTESIAN_POINT ( 'NONE',  ( 0.000000000000000000, 0.2500000000000000000, 0.000000000000000000 ) ) ;
#938 = VERTEX_POINT ( 'NONE', #301 ) ;
#939 = CARTESIAN_POINT ( 'NONE',  ( 0.7999999999999999334, 3.827708763999662978, -0.6000000000000000888 ) ) ;
#940 = ORIENTED_EDGE ( 'NONE', *, *, #1247, .F. ) ;
#941 = STYLED_ITEM ( 'NONE', ( #898 ), #1062 ) ;
#942 = CARTESIAN_POINT ( 'NONE',  ( 0.3500000000000003109, 3.827708763999662978, -1.100000000000000089 ) ) ;
#943 = VECTOR ( 'NONE', #669, 1000.000000000000000 ) ;
#944 = SURFACE_STYLE_FILL_AREA ( #247 ) ;
#945 = EDGE_CURVE ( 'NONE', #492, #411, #507, .T. ) ;
#946 = DIRECTION ( 'NONE',  ( -1.000000000000000000, 0.000000000000000000, 0.000000000000000000 ) ) ;
#947 = VERTEX_POINT ( 'NONE', #226 ) ;
#948 = PRESENTATION_STYLE_ASSIGNMENT (( #658 ) ) ;
#949 = LINE ( 'NONE', #139, #431 ) ;
#950 = VECTOR ( 'NONE', #458, 1000.000000000000000 ) ;
#951 = AXIS2_PLACEMENT_3D ( 'NONE', #874, #680, #1250 ) ;
#952 = DIRECTION ( 'NONE',  ( -1.000000000000000000, 0.000000000000000000, 0.000000000000000000 ) ) ;
#953 = DIRECTION ( 'NONE',  ( 0.000000000000000000, -0.000000000000000000, 1.000000000000000000 ) ) ;
#954 = DIRECTION ( 'NONE',  ( 7.589415207398534982E-16, -0.000000000000000000, -1.000000000000000000 ) ) ;
#955 = ORIENTED_EDGE ( 'NONE', *, *, #945, .F. ) ;
#956 = ORIENTED_EDGE ( 'NONE', *, *, #590, .F. ) ;
#957 = DIRECTION ( 'NONE',  ( -0.000000000000000000, -1.000000000000000000, -0.000000000000000000 ) ) ;
#958 = ADVANCED_FACE ( 'NONE', ( #10 ), #1116, .T. ) ;
#959 = LINE ( 'NONE', #258, #943 ) ;
#960 = VECTOR ( 'NONE', #1004, 1000.000000000000000 ) ;
#961 = FACE_OUTER_BOUND ( 'NONE', #46, .T. ) ;
#962 = DIRECTION ( 'NONE',  ( -0.000000000000000000, -1.000000000000000000, -0.000000000000000000 ) ) ;
#963 = VECTOR ( 'NONE', #1148, 1000.000000000000000 ) ;
#964 = ORIENTED_EDGE ( 'NONE', *, *, #636, .T. ) ;
#965 = ORIENTED_EDGE ( 'NONE', *, *, #261, .F. ) ;
#966 = EDGE_CURVE ( 'NONE', #774, #489, #323, .T. ) ;
#967 = DIRECTION ( 'NONE',  ( -1.000000000000000000, -0.000000000000000000, -9.637352644315586861E-16 ) ) ;
#968 = CARTESIAN_POINT ( 'NONE',  ( -0.7999999999999992673, 0.2500000000000000000, -0.6000000000000000888 ) ) ;
#969 = ORIENTED_EDGE ( 'NONE', *, *, #137, .T. ) ;
#970 = CARTESIAN_POINT ( 'NONE',  ( 0.000000000000000000, 0.2500000000000000000, 0.000000000000000000 ) ) ;
#971 = CLOSED_SHELL ( 'NONE', ( #815, #151, #215, #482, #886, #627 ) ) ;
#972 = DIRECTION ( 'NONE',  ( 1.000000000000000000, 0.000000000000000000, 9.637352644315586861E-16 ) ) ;
#973 = PRODUCT ( 'KRL3216T4A-M-R001-G-T1', 'KRL3216T4A-M-R001-G-T1', '', ( #657 ) ) ;
#974 = DIRECTION ( 'NONE',  ( -1.000000000000000000, 0.000000000000000000, 7.589415207398535968E-16 ) ) ;
#975 = ORIENTED_EDGE ( 'NONE', *, *, #1016, .T. ) ;
#976 = DIRECTION ( 'NONE',  ( -1.301042606982604729E-15, 0.000000000000000000, -1.000000000000000000 ) ) ;
#977 = ORIENTED_EDGE ( 'NONE', *, *, #1023, .F. ) ;
#978 = CARTESIAN_POINT ( 'NONE',  ( -0.7999999999999997113, 4.977708763999664221, 1.599999999999999867 ) ) ;
#979 = FILL_AREA_STYLE_COLOUR ( '', #275 ) ;
#980 = ADVANCED_FACE ( 'NONE', ( #811 ), #105, .F. ) ;
#981 = VECTOR ( 'NONE', #444, 1000.000000000000000 ) ;
#982 = VECTOR ( 'NONE', #988, 1000.000000000000000 ) ;
#983 = LINE ( 'NONE', #709, #547 ) ;
#984 = EDGE_LOOP ( 'NONE', ( #638, #403, #662, #1003 ) ) ;
#985 = CARTESIAN_POINT ( 'NONE',  ( -0.3499999999999996447, 3.827708763999662978, -0.6000000000000000888 ) ) ;
#986 = ORIENTED_EDGE ( 'NONE', *, *, #246, .F. ) ;
#987 = LINE ( 'NONE', #1112, #350 ) ;
#988 = DIRECTION ( 'NONE',  ( -0.000000000000000000, -1.000000000000000000, -0.000000000000000000 ) ) ;
#989 = EDGE_LOOP ( 'NONE', ( #316, #391, #394, #683 ) ) ;
#990 = VERTEX_POINT ( 'NONE', #817 ) ;
#991 = CARTESIAN_POINT ( 'NONE',  ( 0.000000000000000000, 0.2500000000000000000, 0.000000000000000000 ) ) ;
#992 = VECTOR ( 'NONE', #742, 1000.000000000000000 ) ;
#993 =( NAMED_UNIT ( * ) PLANE_ANGLE_UNIT ( ) SI_UNIT ( $, .RADIAN. ) );
#994 =( NAMED_UNIT ( * ) SI_UNIT ( $, .STERADIAN. ) SOLID_ANGLE_UNIT ( ) );
#995 = AXIS2_PLACEMENT_3D ( 'NONE', #1169, #251, #972 ) ;
#996 = DIRECTION ( 'NONE',  ( -0.000000000000000000, -1.000000000000000000, -0.000000000000000000 ) ) ;
#997 = ORIENTED_EDGE ( 'NONE', *, *, #204, .T. ) ;
#998 = EDGE_CURVE ( 'NONE', #768, #227, #1213, .T. ) ;
#999 = ORIENTED_EDGE ( 'NONE', *, *, #1191, .T. ) ;
#1000 = DIRECTION ( 'NONE',  ( -1.478457507934779379E-16, 0.000000000000000000, -1.000000000000000000 ) ) ;
#1001 = AXIS2_PLACEMENT_3D ( 'NONE', #589, #389, #495 ) ;
#1002 = FILL_AREA_STYLE ('',( #605 ) ) ;
#1003 = ORIENTED_EDGE ( 'NONE', *, *, #439, .T. ) ;
#1004 = DIRECTION ( 'NONE',  ( -1.971276677246372012E-16, 0.000000000000000000, 1.000000000000000000 ) ) ;
#1005 = AXIS2_PLACEMENT_3D ( 'NONE', #1078, #174, #1015 ) ;
#1006 = VERTEX_POINT ( 'NONE', #235 ) ;
#1007 = ADVANCED_FACE ( 'NONE', ( #648 ), #1253, .F. ) ;
#1008 = DIRECTION ( 'NONE',  ( -0.000000000000000000, -1.000000000000000000, -0.000000000000000000 ) ) ;
#1009 =( LENGTH_UNIT ( ) NAMED_UNIT ( * ) SI_UNIT ( .MILLI., .METRE. ) );
#1010 = DIRECTION ( 'NONE',  ( -1.000000000000000000, 0.000000000000000000, 0.000000000000000000 ) ) ;
#1011 = ORIENTED_EDGE ( 'NONE', *, *, #743, .T. ) ;
#1012 =( NAMED_UNIT ( * ) SI_UNIT ( $, .STERADIAN. ) SOLID_ANGLE_UNIT ( ) );
#1013 = CARTESIAN_POINT ( 'NONE',  ( -0.3499999999999993117, 3.827708763999662978, -1.599999999999999867 ) ) ;
#1014 = VERTEX_POINT ( 'NONE', #642 ) ;
#1015 = DIRECTION ( 'NONE',  ( -1.000000000000000000, 0.000000000000000000, -0.000000000000000000 ) ) ;
#1016 = EDGE_CURVE ( 'NONE', #336, #1014, #933, .T. ) ;
#1017 = CARTESIAN_POINT ( 'NONE',  ( 0.8000000000000003775, 0.2500000000000000000, -1.600000000000000311 ) ) ;
#1018 = PRESENTATION_LAYER_ASSIGNMENT (  '', '', ( #50 ) ) ;
#1019 = ORIENTED_EDGE ( 'NONE', *, *, #45, .F. ) ;
#1020 = CARTESIAN_POINT ( 'NONE',  ( -0.7999999999999997113, 0.7000000000000000666, -1.600000000000000311 ) ) ;
#1021 = ORIENTED_EDGE ( 'NONE', *, *, #1079, .F. ) ;
#1022 = CARTESIAN_POINT ( 'NONE',  ( 0.3500000000000002554, 0.2500000000000002220, -0.6000000000000000888 ) ) ;
#1023 = EDGE_CURVE ( 'NONE', #906, #1196, #1040, .T. ) ;
#1024 = CARTESIAN_POINT ( 'NONE',  ( 0.3500000000000003109, 0.2500000000000002220, -1.100000000000000089 ) ) ;
#1025 = VECTOR ( 'NONE', #750, 1000.000000000000000 ) ;
#1026 = ORIENTED_EDGE ( 'NONE', *, *, #183, .F. ) ;
#1027 = STYLED_ITEM ( 'NONE', ( #948 ), #1240 ) ;
#1028 = LINE ( 'NONE', #1134, #623 ) ;
#1029 = DIRECTION ( 'NONE',  ( -4.336808689942017736E-16, 0.000000000000000000, 1.000000000000000000 ) ) ;
#1030 = EDGE_CURVE ( 'NONE', #802, #262, #1031, .T. ) ;
#1031 = LINE ( 'NONE', #748, #74 ) ;
#1032 = EDGE_CURVE ( 'NONE', #714, #97, #532, .T. ) ;
#1033 = ORIENTED_EDGE ( 'NONE', *, *, #1149, .F. ) ;
#1034 = CARTESIAN_POINT ( 'NONE',  ( 0.7999999999999999334, 0.000000000000000000, -0.6000000000000000888 ) ) ;
#1035 = PLANE ( 'NONE',  #1280 ) ;
#1036 = CARTESIAN_POINT ( 'NONE',  ( 0.3500000000000003109, 0.2500000000000000000, -1.100000000000000089 ) ) ;
#1037 = EDGE_LOOP ( 'NONE', ( #188, #587, #1092, #1185 ) ) ;
#1038 = EDGE_CURVE ( 'NONE', #606, #635, #655, .T. ) ;
#1039 = VERTEX_POINT ( 'NONE', #1046 ) ;
#1040 = LINE ( 'NONE', #1147, #264 ) ;
#1041 = CARTESIAN_POINT ( 'NONE',  ( 0.7999999999999997113, 0.2500000000000000000, -1.100000000000000089 ) ) ;
#1042 = VECTOR ( 'NONE', #416, 1000.000000000000000 ) ;
#1043 = EDGE_CURVE ( 'NONE', #643, #1006, #1152, .T. ) ;
#1044 = FACE_OUTER_BOUND ( 'NONE', #867, .T. ) ;
#1045 = DIRECTION ( 'NONE',  ( 1.000000000000000000, -0.000000000000000000, 4.336808689942018229E-16 ) ) ;
#1046 = CARTESIAN_POINT ( 'NONE',  ( -0.7999999999999997113, 0.2500000000000000000, 1.599999999999999867 ) ) ;
#1047 = CARTESIAN_POINT ( 'NONE',  ( -0.3499999999999993117, 0.2500000000000002220, 1.599999999999999867 ) ) ;
#1048 = SHAPE_DEFINITION_REPRESENTATION ( #372, #1062 ) ;
#1049 = DIRECTION ( 'NONE',  ( -1.478457507934779132E-16, -0.000000000000000000, -1.000000000000000000 ) ) ;
#1050 = ADVANCED_FACE ( 'NONE', ( #854 ), #1165, .F. ) ;
#1051 = ORIENTED_EDGE ( 'NONE', *, *, #1079, .T. ) ;
#1052 = VERTEX_POINT ( 'NONE', #1060 ) ;
#1053 =( GEOMETRIC_REPRESENTATION_CONTEXT ( 3 ) GLOBAL_UNCERTAINTY_ASSIGNED_CONTEXT ( ( #503 ) ) GLOBAL_UNIT_ASSIGNED_CONTEXT ( ( #1009, #1089, #1199 ) ) REPRESENTATION_CONTEXT ( 'NONE', 'WORKASPACE' ) );
#1054 = DIRECTION ( 'NONE',  ( -1.000000000000000000, 0.000000000000000000, 9.637352644315586861E-16 ) ) ;
#1055 = DIRECTION ( 'NONE',  ( -1.000000000000000000, 0.000000000000000000, -0.000000000000000000 ) ) ;
#1056 = CARTESIAN_POINT ( 'NONE',  ( -0.3499999999999993117, 0.000000000000000000, -1.599999999999999867 ) ) ;
#1057 = VERTEX_POINT ( 'NONE', #1091 ) ;
#1058 = ADVANCED_FACE ( 'NONE', ( #1193 ), #1278, .F. ) ;
#1059 = ORIENTED_EDGE ( 'NONE', *, *, #749, .T. ) ;
#1060 = CARTESIAN_POINT ( 'NONE',  ( -0.7999999999999992673, 0.000000000000000000, -0.6000000000000000888 ) ) ;
#1061 = CARTESIAN_POINT ( 'NONE',  ( -0.7999999999999997113, 0.2500000000000000000, -1.600000000000000311 ) ) ;
#1062 = ADVANCED_BREP_SHAPE_REPRESENTATION ( 'KRL3216T4A-M-R001-G-T1', ( #1206, #1237, #1245, #1240, #375, #340, #1001 ), #1103 ) ;
#1063 = CARTESIAN_POINT ( 'NONE',  ( 0.8000000000000003775, 0.2500000000000000000, 1.599999999999999867 ) ) ;
#1064 = CARTESIAN_POINT ( 'NONE',  ( -0.7999999999999997113, 0.2500000000000000000, -1.600000000000000311 ) ) ;
#1065 = VECTOR ( 'NONE', #712, 1000.000000000000000 ) ;
#1066 = ORIENTED_EDGE ( 'NONE', *, *, #1032, .T. ) ;
#1067 = EDGE_CURVE ( 'NONE', #606, #219, #282, .T. ) ;
#1068 = FACE_OUTER_BOUND ( 'NONE', #427, .T. ) ;
#1069 = DIRECTION ( 'NONE',  ( -1.971276677246372012E-16, 0.000000000000000000, 1.000000000000000000 ) ) ;
#1070 = ORIENTED_EDGE ( 'NONE', *, *, #542, .T. ) ;
#1071 = VERTEX_POINT ( 'NONE', #697 ) ;
#1072 = VECTOR ( 'NONE', #1131, 1000.000000000000000 ) ;
#1073 = EDGE_CURVE ( 'NONE', #227, #1288, #892, .T. ) ;
#1074 = DIRECTION ( 'NONE',  ( -1.000000000000000000, 0.000000000000000000, -1.478457507934779379E-16 ) ) ;
#1075 = SURFACE_STYLE_USAGE ( .BOTH. , #305 ) ;
#1076 = ORIENTED_EDGE ( 'NONE', *, *, #1166, .F. ) ;
#1077 = ORIENTED_EDGE ( 'NONE', *, *, #132, .F. ) ;
#1078 = CARTESIAN_POINT ( 'NONE',  ( 0.7999999999999999334, 3.827708763999662978, -0.6000000000000000888 ) ) ;
#1079 = EDGE_CURVE ( 'NONE', #1057, #1014, #793, .T. ) ;
#1080 = CARTESIAN_POINT ( 'NONE',  ( 0.3499999999999999223, 0.2500000000000000000, 1.599999999999999867 ) ) ;
#1081 = SURFACE_STYLE_USAGE ( .BOTH. , #374 ) ;
#1082 = AXIS2_PLACEMENT_3D ( 'NONE', #88, #1290, #716 ) ;
#1083 = MECHANICAL_DESIGN_GEOMETRIC_PRESENTATION_REPRESENTATION (  '', ( #1145 ), #524 ) ;
#1084 = CARTESIAN_POINT ( 'NONE',  ( 0.3499999999999999223, 0.2500000000000000000, -1.599999999999999867 ) ) ;
#1085 = ORIENTED_EDGE ( 'NONE', *, *, #330, .F. ) ;
#1086 = DIRECTION ( 'NONE',  ( 0.000000000000000000, -0.000000000000000000, 1.000000000000000000 ) ) ;
#1087 = EDGE_LOOP ( 'NONE', ( #166, #61, #293, #603 ) ) ;
#1088 = PLANE ( 'NONE',  #1162 ) ;
#1089 =( NAMED_UNIT ( * ) PLANE_ANGLE_UNIT ( ) SI_UNIT ( $, .RADIAN. ) );
#1090 = EDGE_CURVE ( 'NONE', #468, #336, #77, .T. ) ;
#1091 = CARTESIAN_POINT ( 'NONE',  ( 0.3499999999999999223, 0.000000000000000000, -1.599999999999999867 ) ) ;
#1092 = ORIENTED_EDGE ( 'NONE', *, *, #789, .T. ) ;
#1093 = CARTESIAN_POINT ( 'NONE',  ( -0.7999999999999990452, 0.2500000000000002220, -1.100000000000000089 ) ) ;
#1094 = ORIENTED_EDGE ( 'NONE', *, *, #1030, .F. ) ;
#1095 = VECTOR ( 'NONE', #66, 1000.000000000000000 ) ;
#1096 =( LENGTH_UNIT ( ) NAMED_UNIT ( * ) SI_UNIT ( .MILLI., .METRE. ) );
#1097 = DIRECTION ( 'NONE',  ( 0.000000000000000000, -0.000000000000000000, 1.000000000000000000 ) ) ;
#1098 = EDGE_CURVE ( 'NONE', #618, #774, #103, .T. ) ;
#1099 = CARTESIAN_POINT ( 'NONE',  ( 0.8000000000000003775, 0.2500000000000000000, -1.600000000000000311 ) ) ;
#1100 = ORIENTED_EDGE ( 'NONE', *, *, #123, .F. ) ;
#1101 = DIRECTION ( 'NONE',  ( 1.000000000000000000, -0.000000000000000000, -0.000000000000000000 ) ) ;
#1102 = PLANE ( 'NONE',  #490 ) ;
#1103 =( GEOMETRIC_REPRESENTATION_CONTEXT ( 3 ) GLOBAL_UNCERTAINTY_ASSIGNED_CONTEXT ( ( #844 ) ) GLOBAL_UNIT_ASSIGNED_CONTEXT ( ( #837, #831, #230 ) ) REPRESENTATION_CONTEXT ( 'NONE', 'WORKASPACE' ) );
#1104 = CARTESIAN_POINT ( 'NONE',  ( -0.7999999999999997113, 0.2500000000000000000, -1.600000000000000311 ) ) ;
#1105 = VECTOR ( 'NONE', #586, 1000.000000000000000 ) ;
#1106 = ORIENTED_EDGE ( 'NONE', *, *, #471, .T. ) ;
#1107 = DIRECTION ( 'NONE',  ( -4.336808689942017736E-16, -0.000000000000000000, -1.000000000000000000 ) ) ;
#1108 = PRESENTATION_LAYER_ASSIGNMENT (  '', '', ( #1027 ) ) ;
#1109 = DIRECTION ( 'NONE',  ( -1.000000000000000000, 0.000000000000000000, -0.000000000000000000 ) ) ;
#1110 = ORIENTED_EDGE ( 'NONE', *, *, #1032, .F. ) ;
#1111 = PRODUCT_DEFINITION ( 'UNKNOWN', '', #312, #1141 ) ;
#1112 = CARTESIAN_POINT ( 'NONE',  ( 0.8000000000000003775, 0.2500000000000000000, 1.599999999999999867 ) ) ;
#1113 = DIRECTION ( 'NONE',  ( 0.000000000000000000, -1.000000000000000000, 0.000000000000000000 ) ) ;
#1114 = ORIENTED_EDGE ( 'NONE', *, *, #1016, .F. ) ;
#1115 = CARTESIAN_POINT ( 'NONE',  ( -0.7999999999999990452, 0.2500000000000002220, -1.100000000000000089 ) ) ;
#1116 = PLANE ( 'NONE',  #673 ) ;
#1117 = EDGE_LOOP ( 'NONE', ( #1251, #8, #914, #804 ) ) ;
#1118 = LINE ( 'NONE', #1041, #753 ) ;
#1119 = EDGE_CURVE ( 'NONE', #1260, #902, #1177, .T. ) ;
#1120 = CARTESIAN_POINT ( 'NONE',  ( 0.8000000000000003775, 0.000000000000000000, 1.599999999999999867 ) ) ;
#1121 = VECTOR ( 'NONE', #362, 1000.000000000000000 ) ;
#1122 = CARTESIAN_POINT ( 'NONE',  ( -0.3499999999999993117, 0.2500000000000000000, -1.599999999999999867 ) ) ;
#1123 = DIRECTION ( 'NONE',  ( -1.000000000000000000, -0.000000000000000000, -0.000000000000000000 ) ) ;
#1124 = CARTESIAN_POINT ( 'NONE',  ( 0.8000000000000003775, 0.2500000000000000000, -1.600000000000000311 ) ) ;
#1125 = ORIENTED_EDGE ( 'NONE', *, *, #6, .F. ) ;
#1126 = EDGE_CURVE ( 'NONE', #512, #635, #983, .T. ) ;
#1127 = ORIENTED_EDGE ( 'NONE', *, *, #1271, .F. ) ;
#1128 = DIRECTION ( 'NONE',  ( -0.000000000000000000, -1.000000000000000000, -0.000000000000000000 ) ) ;
#1129 = AXIS2_PLACEMENT_3D ( 'NONE', #551, #250, #663 ) ;
#1130 = ORIENTED_EDGE ( 'NONE', *, *, #361, .T. ) ;
#1131 = DIRECTION ( 'NONE',  ( 1.000000000000000000, -0.000000000000000000, -0.000000000000000000 ) ) ;
#1132 = PLANE ( 'NONE',  #1242 ) ;
#1133 = ORIENTED_EDGE ( 'NONE', *, *, #659, .T. ) ;
#1134 = CARTESIAN_POINT ( 'NONE',  ( -0.3499999999999993117, 3.827708763999662978, 1.599999999999999867 ) ) ;
#1135 = ORIENTED_EDGE ( 'NONE', *, *, #695, .F. ) ;
#1136 = CLOSED_SHELL ( 'NONE', ( #500, #619, #757, #85, #980, #397, #772, #307, #666, #346, #566, #491, #1050, #535 ) ) ;
#1137 = APPLICATION_CONTEXT ( 'automotive_design' ) ;
#1138 = EDGE_CURVE ( 'NONE', #67, #618, #1200, .T. ) ;
#1139 = DIRECTION ( 'NONE',  ( 0.000000000000000000, 0.000000000000000000, -1.000000000000000000 ) ) ;
#1140 =( NAMED_UNIT ( * ) PLANE_ANGLE_UNIT ( ) SI_UNIT ( $, .RADIAN. ) );
#1141 = PRODUCT_DEFINITION_CONTEXT ( 'detailed design', #65, 'design' ) ;
#1142 = ORIENTED_EDGE ( 'NONE', *, *, #557, .T. ) ;
#1143 = CARTESIAN_POINT ( 'NONE',  ( -0.3499999999999993117, 0.2500000000000000000, -1.599999999999999867 ) ) ;
#1144 = AXIS2_PLACEMENT_3D ( 'NONE', #790, #1180, #516 ) ;
#1145 = STYLED_ITEM ( 'NONE', ( #1171 ), #1206 ) ;
#1146 = ORIENTED_EDGE ( 'NONE', *, *, #254, .F. ) ;
#1147 = CARTESIAN_POINT ( 'NONE',  ( -0.7999999999999997113, 0.000000000000000000, 1.599999999999999867 ) ) ;
#1148 = DIRECTION ( 'NONE',  ( 1.301042606982604729E-15, 0.000000000000000000, 1.000000000000000000 ) ) ;
#1149 = EDGE_CURVE ( 'NONE', #78, #774, #884, .T. ) ;
#1150 = EDGE_LOOP ( 'NONE', ( #842, #955, #113, #1130 ) ) ;
#1151 = VERTEX_POINT ( 'NONE', #178 ) ;
#1152 = LINE ( 'NONE', #52, #117 ) ;
#1153 =( GEOMETRIC_REPRESENTATION_CONTEXT ( 3 ) GLOBAL_UNCERTAINTY_ASSIGNED_CONTEXT ( ( #546 ) ) GLOBAL_UNIT_ASSIGNED_CONTEXT ( ( #169, #993, #882 ) ) REPRESENTATION_CONTEXT ( 'NONE', 'WORKASPACE' ) );
#1154 = LINE ( 'NONE', #58, #612 ) ;
#1155 = FACE_OUTER_BOUND ( 'NONE', #599, .T. ) ;
#1156 = CARTESIAN_POINT ( 'NONE',  ( -0.3499999999999996447, 0.2500000000000002220, -0.6000000000000000888 ) ) ;
#1157 = ORIENTED_EDGE ( 'NONE', *, *, #611, .F. ) ;
#1158 = ORIENTED_EDGE ( 'NONE', *, *, #1090, .F. ) ;
#1159 = DIRECTION ( 'NONE',  ( 0.000000000000000000, 0.000000000000000000, -1.000000000000000000 ) ) ;
#1160 = CARTESIAN_POINT ( 'NONE',  ( 0.3499999999999999223, 0.2500000000000000000, -1.599999999999999867 ) ) ;
#1161 = LINE ( 'NONE', #561, #363 ) ;
#1162 = AXIS2_PLACEMENT_3D ( 'NONE', #100, #805, #1197 ) ;
#1163 =( NAMED_UNIT ( * ) SI_UNIT ( $, .STERADIAN. ) SOLID_ANGLE_UNIT ( ) );
#1164 = ORIENTED_EDGE ( 'NONE', *, *, #1030, .T. ) ;
#1165 = PLANE ( 'NONE',  #858 ) ;
#1166 = EDGE_CURVE ( 'NONE', #625, #1006, #1184, .T. ) ;
#1167 = CARTESIAN_POINT ( 'NONE',  ( 0.8000000000000003775, 0.2500000000000000000, 1.599999999999999867 ) ) ;
#1168 = ORIENTED_EDGE ( 'NONE', *, *, #330, .T. ) ;
#1169 = CARTESIAN_POINT ( 'NONE',  ( -0.7999999999999997113, 0.2500000000000000000, -1.600000000000000311 ) ) ;
#1170 = DIRECTION ( 'NONE',  ( 0.000000000000000000, -0.000000000000000000, -1.000000000000000000 ) ) ;
#1171 = PRESENTATION_STYLE_ASSIGNMENT (( #1075 ) ) ;
#1172 = EDGE_LOOP ( 'NONE', ( #302, #787, #762, #852 ) ) ;
#1173 = ORIENTED_EDGE ( 'NONE', *, *, #675, .T. ) ;
#1174 = PRESENTATION_LAYER_ASSIGNMENT (  '', '', ( #1282 ) ) ;
#1175 = CARTESIAN_POINT ( 'NONE',  ( 0.000000000000000000, 0.000000000000000000, 0.000000000000000000 ) ) ;
#1176 = FACE_OUTER_BOUND ( 'NONE', #499, .T. ) ;
#1177 = LINE ( 'NONE', #7, #244 ) ;
#1178 = ORIENTED_EDGE ( 'NONE', *, *, #421, .F. ) ;
#1179 = ORIENTED_EDGE ( 'NONE', *, *, #936, .T. ) ;
#1180 = DIRECTION ( 'NONE',  ( 0.000000000000000000, 0.000000000000000000, 1.000000000000000000 ) ) ;
#1181 = DIRECTION ( 'NONE',  ( -1.000000000000000000, 0.000000000000000000, 0.000000000000000000 ) ) ;
#1182 =( NAMED_UNIT ( * ) PLANE_ANGLE_UNIT ( ) SI_UNIT ( $, .RADIAN. ) );
#1183 = VECTOR ( 'NONE', #1128, 1000.000000000000000 ) ;
#1184 = LINE ( 'NONE', #591, #878 ) ;
#1185 = ORIENTED_EDGE ( 'NONE', *, *, #413, .T. ) ;
#1186 = ORIENTED_EDGE ( 'NONE', *, *, #678, .T. ) ;
#1187 = CARTESIAN_POINT ( 'NONE',  ( 0.7999999999999997113, 0.000000000000000000, -1.100000000000000089 ) ) ;
#1188 = ORIENTED_EDGE ( 'NONE', *, *, #1257, .F. ) ;
#1189 = UNCERTAINTY_MEASURE_WITH_UNIT (LENGTH_MEASURE( 1.000000000000000082E-05 ), #239, 'distance_accuracy_value', 'NONE');
#1190 = FILL_AREA_STYLE_COLOUR ( '', #1270 ) ;
#1191 = EDGE_CURVE ( 'NONE', #386, #484, #184, .T. ) ;
#1192 =( NAMED_UNIT ( * ) PLANE_ANGLE_UNIT ( ) SI_UNIT ( $, .RADIAN. ) );
#1193 = FACE_OUTER_BOUND ( 'NONE', #22, .T. ) ;
#1194 = EDGE_LOOP ( 'NONE', ( #124, #1226, #171, #162 ) ) ;
#1195 = CARTESIAN_POINT ( 'NONE',  ( -0.7999999999999997113, 0.000000000000000000, 1.599999999999999867 ) ) ;
#1196 = VERTEX_POINT ( 'NONE', #504 ) ;
#1197 = DIRECTION ( 'NONE',  ( 0.000000000000000000, -0.000000000000000000, 1.000000000000000000 ) ) ;
#1198 = CLOSED_SHELL ( 'NONE', ( #846, #568, #580, #729, #177, #353 ) ) ;
#1199 =( NAMED_UNIT ( * ) SI_UNIT ( $, .STERADIAN. ) SOLID_ANGLE_UNIT ( ) );
#1200 = LINE ( 'NONE', #1104, #199 ) ;
#1201 = VERTEX_POINT ( 'NONE', #598 ) ;
#1202 = CARTESIAN_POINT ( 'NONE',  ( -0.3499999999999996447, 0.000000000000000000, -1.100000000000000089 ) ) ;
#1203 = ADVANCED_FACE ( 'NONE', ( #89 ), #899, .T. ) ;
#1204 = DIRECTION ( 'NONE',  ( 0.000000000000000000, 0.000000000000000000, -1.000000000000000000 ) ) ;
#1205 = ORIENTED_EDGE ( 'NONE', *, *, #1166, .T. ) ;
#1206 = MANIFOLD_SOLID_BREP ( 'Boss-Extrude1[1]', #849 ) ;
#1207 = CARTESIAN_POINT ( 'NONE',  ( 0.7999999999999999334, 0.2500000000000002220, -0.6000000000000000888 ) ) ;
#1208 = AXIS2_PLACEMENT_3D ( 'NONE', #848, #130, #335 ) ;
#1209 = ORIENTED_EDGE ( 'NONE', *, *, #261, .T. ) ;
#1210 = DIRECTION ( 'NONE',  ( -1.000000000000000000, 0.000000000000000000, 9.637352644315586861E-16 ) ) ;
#1211 = VECTOR ( 'NONE', #488, 1000.000000000000000 ) ;
#1212 = ADVANCED_FACE ( 'NONE', ( #682 ), #784, .F. ) ;
#1213 = LINE ( 'NONE', #318, #839 ) ;
#1214 = ORIENTED_EDGE ( 'NONE', *, *, #759, .T. ) ;
#1215 = FACE_OUTER_BOUND ( 'NONE', #814, .T. ) ;
#1216 = DIRECTION ( 'NONE',  ( 1.000000000000000000, -0.000000000000000000, 7.589415207398535968E-16 ) ) ;
#1217 = DIRECTION ( 'NONE',  ( -1.971276677246372012E-16, -0.000000000000000000, -1.000000000000000000 ) ) ;
#1218 = DIRECTION ( 'NONE',  ( 1.000000000000000000, 0.000000000000000000, -0.000000000000000000 ) ) ;
#1219 = CARTESIAN_POINT ( 'NONE',  ( -0.7999999999999997113, 0.2500000000000000000, 1.599999999999999867 ) ) ;
#1220 = ORIENTED_EDGE ( 'NONE', *, *, #421, .T. ) ;
#1221 = ADVANCED_FACE ( 'NONE', ( #1176 ), #694, .F. ) ;
#1222 = LINE ( 'NONE', #153, #1025 ) ;
#1223 = CARTESIAN_POINT ( 'NONE',  ( -0.7999999999999997113, 0.2500000000000000000, 1.599999999999999867 ) ) ;
#1224 = DIRECTION ( 'NONE',  ( -0.000000000000000000, -1.000000000000000000, -0.000000000000000000 ) ) ;
#1225 = VECTOR ( 'NONE', #425, 1000.000000000000000 ) ;
#1226 = ORIENTED_EDGE ( 'NONE', *, *, #1067, .T. ) ;
#1227 = DIRECTION ( 'NONE',  ( -7.589415207398534982E-16, -0.000000000000000000, 1.000000000000000000 ) ) ;
#1228 = EDGE_LOOP ( 'NONE', ( #1274, #131, #679, #1133 ) ) ;
#1229 = CARTESIAN_POINT ( 'NONE',  ( 0.3500000000000003109, 0.2500000000000002220, -1.100000000000000311 ) ) ;
#1230 = ADVANCED_FACE ( 'NONE', ( #575 ), #281, .F. ) ;
#1231 = PLANE ( 'NONE',  #107 ) ;
#1232 = FACE_OUTER_BOUND ( 'NONE', #480, .T. ) ;
#1233 = VERTEX_POINT ( 'NONE', #487 ) ;
#1234 = PLANE ( 'NONE',  #109 ) ;
#1235 = CARTESIAN_POINT ( 'NONE',  ( 0.3500000000000002554, 0.000000000000000000, -0.6000000000000000888 ) ) ;
#1236 = LINE ( 'NONE', #36, #18 ) ;
#1237 = MANIFOLD_SOLID_BREP ( 'Boss-Extrude1[2]', #1198 ) ;
#1238 = SURFACE_SIDE_STYLE ('',( #944 ) ) ;
#1239 = DIRECTION ( 'NONE',  ( -1.000000000000000000, -0.000000000000000000, -0.000000000000000000 ) ) ;
#1240 = MANIFOLD_SOLID_BREP ( 'Boss-Extrude1[4]', #576 ) ;
#1241 = DIRECTION ( 'NONE',  ( -1.478457507934779132E-16, 0.000000000000000000, 1.000000000000000000 ) ) ;
#1242 = AXIS2_PLACEMENT_3D ( 'NONE', #118, #1045, #229 ) ;
#1243 = DIRECTION ( 'NONE',  ( 0.000000000000000000, 0.000000000000000000, 1.000000000000000000 ) ) ;
#1244 = LINE ( 'NONE', #348, #300 ) ;
#1245 = MANIFOLD_SOLID_BREP ( 'Boss-Extrude1[3]', #971 ) ;
#1246 = ORIENTED_EDGE ( 'NONE', *, *, #1191, .F. ) ;
#1247 = EDGE_CURVE ( 'NONE', #1052, #906, #9, .T. ) ;
#1248 = FACE_OUTER_BOUND ( 'NONE', #1087, .T. ) ;
#1249 = VECTOR ( 'NONE', #218, 1000.000000000000000 ) ;
#1250 = DIRECTION ( 'NONE',  ( -1.301042606982604729E-15, 0.000000000000000000, 1.000000000000000000 ) ) ;
#1251 = ORIENTED_EDGE ( 'NONE', *, *, #292, .F. ) ;
#1252 = ORIENTED_EDGE ( 'NONE', *, *, #387, .T. ) ;
#1253 = PLANE ( 'NONE',  #1208 ) ;
#1254 = LINE ( 'NONE', #1047, #40 ) ;
#1255 = EDGE_CURVE ( 'NONE', #794, #411, #513, .T. ) ;
#1256 = DIRECTION ( 'NONE',  ( 0.000000000000000000, -0.000000000000000000, -1.000000000000000000 ) ) ;
#1257 = EDGE_CURVE ( 'NONE', #918, #468, #408, .T. ) ;
#1258 = DIRECTION ( 'NONE',  ( 1.000000000000000000, -0.000000000000000000, -0.000000000000000000 ) ) ;
#1259 = ORIENTED_EDGE ( 'NONE', *, *, #766, .F. ) ;
#1260 = VERTEX_POINT ( 'NONE', #1202 ) ;
#1261 = VECTOR ( 'NONE', #1049, 1000.000000000000000 ) ;
#1262 = VECTOR ( 'NONE', #280, 1000.000000000000000 ) ;
#1263 = DIRECTION ( 'NONE',  ( -0.000000000000000000, -1.000000000000000000, -0.000000000000000000 ) ) ;
#1264 = EDGE_CURVE ( 'NONE', #635, #625, #308, .T. ) ;
#1265 = VERTEX_POINT ( 'NONE', #719 ) ;
#1266 = VECTOR ( 'NONE', #1210, 1000.000000000000000 ) ;
#1267 = VECTOR ( 'NONE', #567, 1000.000000000000000 ) ;
#1268 = DIRECTION ( 'NONE',  ( 0.000000000000000000, -1.000000000000000000, 0.000000000000000000 ) ) ;
#1269 = DIRECTION ( 'NONE',  ( -0.000000000000000000, -1.000000000000000000, -0.000000000000000000 ) ) ;
#1270 = COLOUR_RGB ( '',0.7921568627450980005, 0.8196078431372548767, 0.9333333333333333481 ) ;
#1271 = EDGE_CURVE ( 'NONE', #947, #1286, #209, .T. ) ;
#1272 = ORIENTED_EDGE ( 'NONE', *, *, #13, .F. ) ;
#1273 = LINE ( 'NONE', #985, #369 ) ;
#1274 = ORIENTED_EDGE ( 'NONE', *, *, #292, .T. ) ;
#1275 = DIRECTION ( 'NONE',  ( 0.000000000000000000, 0.000000000000000000, -1.000000000000000000 ) ) ;
#1276 = DIRECTION ( 'NONE',  ( 4.336808689942018229E-16, 0.000000000000000000, 1.000000000000000000 ) ) ;
#1277 = DIRECTION ( 'NONE',  ( 0.000000000000000000, 0.000000000000000000, 1.000000000000000000 ) ) ;
#1278 = PLANE ( 'NONE',  #286 ) ;
#1279 = ORIENTED_EDGE ( 'NONE', *, *, #1073, .F. ) ;
#1280 = AXIS2_PLACEMENT_3D ( 'NONE', #321, #207, #840 ) ;
#1281 = ORIENTED_EDGE ( 'NONE', *, *, #71, .F. ) ;
#1282 = STYLED_ITEM ( 'NONE', ( #273 ), #375 ) ;
#1283 = SURFACE_STYLE_FILL_AREA ( #681 ) ;
#1284 = FILL_AREA_STYLE ('',( #686 ) ) ;
#1285 =( LENGTH_UNIT ( ) NAMED_UNIT ( * ) SI_UNIT ( .MILLI., .METRE. ) );
#1286 = VERTEX_POINT ( 'NONE', #443 ) ;
#1287 = LINE ( 'NONE', #284, #173 ) ;
#1288 = VERTEX_POINT ( 'NONE', #129 ) ;
#1289 = EDGE_CURVE ( 'NONE', #211, #310, #34, .T. ) ;
#1290 = DIRECTION ( 'NONE',  ( -1.000000000000000000, 0.000000000000000000, 1.478457507934779132E-16 ) ) ;
#1291 = VECTOR ( 'NONE', #1227, 1000.000000000000000 ) ;
ENDSEC;
END-ISO-10303-21;
