(footprint "Connector_B2B_JAE_KX14-40K5D1" (version 20221018) (generator pcbnew)
  (layer "F.Cu")
  (attr smd)
  (fp_text reference "REF**" (at 0 -14.6 unlocked) (layer "F.SilkS")
      (effects (font (size 1 1) (thickness 0.15)))
    (tstamp ff9f5846-d89e-4805-a701-5dff6299d7bd)
  )
  (fp_text value "Connector_B2B_JAE_KX14-40K5D1" (at -0.8 0 90 unlocked) (layer "F.Fab")
      (effects (font (size 1 1) (thickness 0.15)))
    (tstamp 021ce14c-68d6-4614-82d5-cd223a31b646)
  )
  (fp_text user "${REFERENCE}" (at 0.7 0 90 unlocked) (layer "F.Fab")
      (effects (font (size 1 1) (thickness 0.15)))
    (tstamp 251c9a05-8259-428f-9808-6bfdca2b2ce0)
  )
  (fp_line (start -4.75 -5.45) (end -4.75 -8.85)
    (stroke (width 0.12) (type default)) (layer "F.SilkS") (tstamp 7a5ac09c-9a56-411c-a0a3-002ecbf0baae))
  (fp_line (start -4.75 5.45) (end -4.75 8.85)
    (stroke (width 0.12) (type default)) (layer "F.SilkS") (tstamp c0899ae5-f463-47e1-81a5-38154b9619af))
  (fp_line (start -1.35 8.85) (end -4.75 8.85)
    (stroke (width 0.12) (type default)) (layer "F.SilkS") (tstamp ba36a215-1686-43e1-9249-f6eba22fbf1b))
  (fp_line (start 1.35 -8.85) (end 4.75 -8.85)
    (stroke (width 0.12) (type default)) (layer "F.SilkS") (tstamp 18a1c2db-cb7f-44bb-9922-5bf66b8a8468))
  (fp_line (start 1.35 8.85) (end 4.75 8.85)
    (stroke (width 0.12) (type default)) (layer "F.SilkS") (tstamp 85ae3985-6434-422c-bc98-150ae84bb38b))
  (fp_line (start 4.75 -5.45) (end 4.75 -8.85)
    (stroke (width 0.12) (type default)) (layer "F.SilkS") (tstamp c852ca2c-8551-41b9-af3d-fcc60c0e23d3))
  (fp_line (start 4.75 5.45) (end 4.75 8.85)
    (stroke (width 0.12) (type default)) (layer "F.SilkS") (tstamp 8a605cb5-1ba7-4b49-abe4-cc9ea7acb0b5))
  (fp_rect (start -4.95 -13.95) (end 4.95 13.95)
    (stroke (width 0.05) (type default)) (fill none) (layer "F.CrtYd") (tstamp aa29ac8e-d5d4-414c-8b4c-c91a08b81f63))
  (pad "" np_thru_hole circle (at 0 -8.35) (size 0.7 0.7) (drill 0.7) (layers "F&B.Cu" "*.Mask") (tstamp f25a80bc-096e-4a89-b98f-66ddded3b97c))
  (pad "" np_thru_hole circle (at 0 8.35) (size 0.9 0.9) (drill 0.9) (layers "F&B.Cu" "*.Mask") (tstamp 6f01a78f-5d81-41a0-b8ec-f89c4cd96858))
  (pad "1" smd roundrect (at -2.55 -7.6 90) (size 0.5 2.4) (layers "F.Cu" "F.Paste" "F.Mask") (roundrect_rratio 0.15)
    (thermal_bridge_angle 45) (tstamp f75a0bf0-288e-4dac-9451-538a6a4856e9))
  (pad "2" smd roundrect (at 2.55 -7.6 90) (size 0.5 2.4) (layers "F.Cu" "F.Paste" "F.Mask") (roundrect_rratio 0.15)
    (thermal_bridge_angle 45) (tstamp 47604cc6-d0f2-4604-aca0-f59c70d40b00))
  (pad "3" smd roundrect (at -2.55 -6.8 90) (size 0.5 2.4) (layers "F.Cu" "F.Paste" "F.Mask") (roundrect_rratio 0.15)
    (thermal_bridge_angle 45) (tstamp 3206192b-6c70-4367-b0c7-764a2c42ad83))
  (pad "4" smd roundrect (at 2.55 -6.8 90) (size 0.5 2.4) (layers "F.Cu" "F.Paste" "F.Mask") (roundrect_rratio 0.15)
    (thermal_bridge_angle 45) (tstamp c99626ce-8817-41cf-84f5-fdc22e3c07c0))
  (pad "5" smd roundrect (at -2.55 -6 90) (size 0.5 2.4) (layers "F.Cu" "F.Paste" "F.Mask") (roundrect_rratio 0.15)
    (thermal_bridge_angle 45) (tstamp c17ffca7-93da-4d52-afe2-6b7767e507da))
  (pad "6" smd roundrect (at 2.55 -6 90) (size 0.5 2.4) (layers "F.Cu" "F.Paste" "F.Mask") (roundrect_rratio 0.15)
    (thermal_bridge_angle 45) (tstamp 6ee10b0f-ff91-4d5c-b9c0-1816a0fbf38e))
  (pad "7" smd roundrect (at -2.55 -5.2 90) (size 0.5 2.4) (layers "F.Cu" "F.Paste" "F.Mask") (roundrect_rratio 0.15)
    (thermal_bridge_angle 45) (tstamp e3c5dc19-360f-4ee5-bdac-94dd898789cb))
  (pad "8" smd roundrect (at 2.55 -5.2 90) (size 0.5 2.4) (layers "F.Cu" "F.Paste" "F.Mask") (roundrect_rratio 0.15)
    (thermal_bridge_angle 45) (tstamp d8f0f507-f998-4acd-91c7-0715e48deaa1))
  (pad "9" smd roundrect (at -2.55 -4.4 90) (size 0.5 2.4) (layers "F.Cu" "F.Paste" "F.Mask") (roundrect_rratio 0.15)
    (thermal_bridge_angle 45) (tstamp 27ad3663-107a-4219-b7dd-a82473ed2d68))
  (pad "10" smd roundrect (at 2.55 -4.4 90) (size 0.5 2.4) (layers "F.Cu" "F.Paste" "F.Mask") (roundrect_rratio 0.15)
    (thermal_bridge_angle 45) (tstamp e9681944-c2f2-4260-91be-9f006c54727c))
  (pad "11" smd roundrect (at -2.55 -3.6 90) (size 0.5 2.4) (layers "F.Cu" "F.Paste" "F.Mask") (roundrect_rratio 0.15)
    (thermal_bridge_angle 45) (tstamp 31ee4cf7-b362-40f6-b4ce-21ee67d4863a))
  (pad "12" smd roundrect (at 2.55 -3.6 90) (size 0.5 2.4) (layers "F.Cu" "F.Paste" "F.Mask") (roundrect_rratio 0.15)
    (thermal_bridge_angle 45) (tstamp d790979e-9d8a-4570-8382-bc5309945c50))
  (pad "13" smd roundrect (at -2.55 -2.8 90) (size 0.5 2.4) (layers "F.Cu" "F.Paste" "F.Mask") (roundrect_rratio 0.15)
    (thermal_bridge_angle 45) (tstamp 1bef84bc-136a-44f0-8a5b-8328f6b1be4d))
  (pad "14" smd roundrect (at 2.55 -2.8 90) (size 0.5 2.4) (layers "F.Cu" "F.Paste" "F.Mask") (roundrect_rratio 0.15)
    (thermal_bridge_angle 45) (tstamp 0fbb3e89-0ea6-4bcd-b762-167fb369e3fa))
  (pad "15" smd roundrect (at -2.55 -2 90) (size 0.5 2.4) (layers "F.Cu" "F.Paste" "F.Mask") (roundrect_rratio 0.15)
    (thermal_bridge_angle 45) (tstamp 6b966127-4315-4428-a3fd-792561c80ab8))
  (pad "16" smd roundrect (at 2.55 -2 90) (size 0.5 2.4) (layers "F.Cu" "F.Paste" "F.Mask") (roundrect_rratio 0.15)
    (thermal_bridge_angle 45) (tstamp 80ad9f93-9185-481d-b960-aee52733db51))
  (pad "17" smd roundrect (at -2.55 -1.2 90) (size 0.5 2.4) (layers "F.Cu" "F.Paste" "F.Mask") (roundrect_rratio 0.15)
    (thermal_bridge_angle 45) (tstamp 8e91b8fc-f850-4f69-b6cc-f9810a4eb163))
  (pad "18" smd roundrect (at 2.55 -1.2 90) (size 0.5 2.4) (layers "F.Cu" "F.Paste" "F.Mask") (roundrect_rratio 0.15)
    (thermal_bridge_angle 45) (tstamp 8153118b-0a9a-4be0-aa16-2c5b21d05181))
  (pad "19" smd roundrect (at -2.55 -0.4 90) (size 0.5 2.4) (layers "F.Cu" "F.Paste" "F.Mask") (roundrect_rratio 0.15)
    (thermal_bridge_angle 45) (tstamp a8e85746-73e8-4559-a246-47e1822404ea))
  (pad "20" smd roundrect (at 2.55 -0.4 90) (size 0.5 2.4) (layers "F.Cu" "F.Paste" "F.Mask") (roundrect_rratio 0.15)
    (thermal_bridge_angle 45) (tstamp a43a3393-59c9-4893-af01-83be3e05abe7))
  (pad "21" smd roundrect (at -2.55 0.4 90) (size 0.5 2.4) (layers "F.Cu" "F.Paste" "F.Mask") (roundrect_rratio 0.15)
    (thermal_bridge_angle 45) (tstamp d2f77115-24ab-4d12-bc8b-86862fcbe2d0))
  (pad "22" smd roundrect (at 2.55 0.4 90) (size 0.5 2.4) (layers "F.Cu" "F.Paste" "F.Mask") (roundrect_rratio 0.15)
    (thermal_bridge_angle 45) (tstamp e43ea9f3-1915-41f2-99da-38bc2094db28))
  (pad "23" smd roundrect (at -2.55 1.2 90) (size 0.5 2.4) (layers "F.Cu" "F.Paste" "F.Mask") (roundrect_rratio 0.15)
    (thermal_bridge_angle 45) (tstamp 8ef8aae3-398d-4fc0-93c9-f67cffd8cafd))
  (pad "24" smd roundrect (at 2.55 1.2 90) (size 0.5 2.4) (layers "F.Cu" "F.Paste" "F.Mask") (roundrect_rratio 0.15)
    (thermal_bridge_angle 45) (tstamp bcf0d87a-cec3-4e78-8b18-f31844760c2e))
  (pad "25" smd roundrect (at -2.55 2 90) (size 0.5 2.4) (layers "F.Cu" "F.Paste" "F.Mask") (roundrect_rratio 0.15)
    (thermal_bridge_angle 45) (tstamp c097f432-6ac4-4802-814d-56f94a46d561))
  (pad "26" smd roundrect (at 2.55 2 90) (size 0.5 2.4) (layers "F.Cu" "F.Paste" "F.Mask") (roundrect_rratio 0.15)
    (thermal_bridge_angle 45) (tstamp b1bbdd29-c697-4503-bd03-0323fe548829))
  (pad "27" smd roundrect (at -2.55 2.8 90) (size 0.5 2.4) (layers "F.Cu" "F.Paste" "F.Mask") (roundrect_rratio 0.15)
    (thermal_bridge_angle 45) (tstamp 411c59a6-ca1c-4f5e-9144-e3fe762916df))
  (pad "28" smd roundrect (at 2.55 2.8 90) (size 0.5 2.4) (layers "F.Cu" "F.Paste" "F.Mask") (roundrect_rratio 0.15)
    (thermal_bridge_angle 45) (tstamp e338ea63-4a20-464d-b135-5848c77869aa))
  (pad "29" smd roundrect (at -2.55 3.6 90) (size 0.5 2.4) (layers "F.Cu" "F.Paste" "F.Mask") (roundrect_rratio 0.15)
    (thermal_bridge_angle 45) (tstamp 1f6e1d34-c0e5-4c89-b0a7-d1d89f572bb2))
  (pad "30" smd roundrect (at 2.55 3.6 90) (size 0.5 2.4) (layers "F.Cu" "F.Paste" "F.Mask") (roundrect_rratio 0.15)
    (thermal_bridge_angle 45) (tstamp 2c8c7c6d-ab1d-4f73-8f7c-92c9921a5ea2))
  (pad "31" smd roundrect (at -2.55 4.4 90) (size 0.5 2.4) (layers "F.Cu" "F.Paste" "F.Mask") (roundrect_rratio 0.15)
    (thermal_bridge_angle 45) (tstamp 8f052bcc-8392-42c8-973c-9b50708da015))
  (pad "32" smd roundrect (at 2.55 4.4 90) (size 0.5 2.4) (layers "F.Cu" "F.Paste" "F.Mask") (roundrect_rratio 0.15)
    (thermal_bridge_angle 45) (tstamp 3bc9dabe-f14b-474e-bad9-a199002caad5))
  (pad "33" smd roundrect (at -2.55 5.2 90) (size 0.5 2.4) (layers "F.Cu" "F.Paste" "F.Mask") (roundrect_rratio 0.15)
    (thermal_bridge_angle 45) (tstamp b9b65941-406b-4ff9-8ea1-2283b3df4a7d))
  (pad "34" smd roundrect (at 2.55 5.2 90) (size 0.5 2.4) (layers "F.Cu" "F.Paste" "F.Mask") (roundrect_rratio 0.15)
    (thermal_bridge_angle 45) (tstamp 13ad8bd7-e78e-4d42-ba58-ed5dc8331235))
  (pad "35" smd roundrect (at -2.55 6 90) (size 0.5 2.4) (layers "F.Cu" "F.Paste" "F.Mask") (roundrect_rratio 0.15)
    (thermal_bridge_angle 45) (tstamp 6ecc864b-333c-4016-b7b8-e0a887d3f6ae))
  (pad "36" smd roundrect (at 2.55 6 90) (size 0.5 2.4) (layers "F.Cu" "F.Paste" "F.Mask") (roundrect_rratio 0.15)
    (thermal_bridge_angle 45) (tstamp 4577af39-fab4-46bb-b0a6-f42e42f838f3))
  (pad "37" smd roundrect (at -2.55 6.8 90) (size 0.5 2.4) (layers "F.Cu" "F.Paste" "F.Mask") (roundrect_rratio 0.15)
    (thermal_bridge_angle 45) (tstamp 49643099-3144-42af-8e5a-754302fccf4e))
  (pad "38" smd roundrect (at 2.55 6.8 90) (size 0.5 2.4) (layers "F.Cu" "F.Paste" "F.Mask") (roundrect_rratio 0.15)
    (thermal_bridge_angle 45) (tstamp d274c2ef-2642-40cd-94a5-a11125cca557))
  (pad "39" smd roundrect (at -2.55 7.6 90) (size 0.5 2.4) (layers "F.Cu" "F.Paste" "F.Mask") (roundrect_rratio 0.15)
    (thermal_bridge_angle 45) (tstamp 3d176323-9358-4e01-b229-dac0edce91ad))
  (pad "40" smd roundrect (at 2.55 7.6 90) (size 0.5 2.4) (layers "F.Cu" "F.Paste" "F.Mask") (roundrect_rratio 0.15)
    (thermal_bridge_angle 45) (tstamp a9ccb3cc-6231-45d5-9594-5ad02e736290))
  (pad "MP" smd roundrect (at 0 -12.1 180) (size 3 2.5) (layers "F.Cu" "F.Paste" "F.Mask") (roundrect_rratio 0.1)
    (thermal_bridge_angle 45) (tstamp a42db3ef-e2a2-4a66-875a-d13d757b6217))
  (pad "MP" smd roundrect (at 0 12.1 180) (size 3 2.5) (layers "F.Cu" "F.Paste" "F.Mask") (roundrect_rratio 0.1)
    (thermal_bridge_angle 45) (tstamp e12cd2df-c734-4db5-92a4-ae2ea035cb89))
)
