(footprint "Connector_B2B_Hirose_DF40C-80DS-0.4V(51)"
	(version 20240108)
	(generator "pcbnew")
	(generator_version "8.0")
	(layer "F.Cu")
	(property "Reference" "REF**"
		(at 0 -2.8 0)
		(layer "F.SilkS")
		(uuid "943345d7-faa1-46dd-a73c-7a0942965b0e")
		(effects
			(font
				(size 1 1)
				(thickness 0.15)
			)
		)
	)
	(property "Value" "DF40C-100DP-0.4V(51)"
		(at 0 0 0)
		(layer "F.Fab")
		(hide yes)
		(uuid "5f671bc9-5482-4d29-9d9b-d01fa6ff0678")
		(effects
			(font
				(size 1 1)
				(thickness 0.15)
			)
		)
	)
	(property "Footprint" ""
		(at 0.5 -6.345 0)
		(layer "F.Fab")
		(hide yes)
		(uuid "f07c8e57-c68f-415f-b491-4f9538d95096")
		(effects
			(font
				(size 1.27 1.27)
				(thickness 0.15)
			)
		)
	)
	(property "Datasheet" ""
		(at 0.5 -6.345 0)
		(layer "F.Fab")
		(hide yes)
		(uuid "f0dd37de-c28f-4c01-bcbd-6d9ea9b04e25")
		(effects
			(font
				(size 1.27 1.27)
				(thickness 0.15)
			)
		)
	)
	(property "Description" ""
		(at 0.5 -6.345 0)
		(layer "F.Fab")
		(hide yes)
		(uuid "74233369-54b3-4495-802f-30df396bf94d")
		(effects
			(font
				(size 1.27 1.27)
				(thickness 0.15)
			)
		)
	)
	(attr smd)
	(fp_line
		(start -9.30107 -1.69081)
		(end -9.30107 1.69081)
		(stroke
			(width 0.1)
			(type solid)
		)
		(layer "F.SilkS")
		(uuid "dbc657ee-df4a-454f-8d72-0d6ce27cb7e8")
	)
	(fp_line
		(start -9.30107 1.69081)
		(end -8.25042 1.69081)
		(stroke
			(width 0.1)
			(type solid)
		)
		(layer "F.SilkS")
		(uuid "bd057834-b046-4ea9-b18a-602f008acbf7")
	)
	(fp_line
		(start -8.25042 -1.69081)
		(end -9.30107 -1.69081)
		(stroke
			(width 0.1)
			(type solid)
		)
		(layer "F.SilkS")
		(uuid "b0a11004-8813-446c-a377-3290f0d6b2ae")
	)
	(fp_line
		(start -8 -2.4)
		(end -7.8 -2.2)
		(stroke
			(width 0.2)
			(type default)
		)
		(layer "F.SilkS")
		(uuid "3aae7829-f95d-41b0-b6ca-e9a091848af8")
	)
	(fp_line
		(start -7.8 -2.2)
		(end -7.6 -2.4)
		(stroke
			(width 0.2)
			(type default)
		)
		(layer "F.SilkS")
		(uuid "dd0cbda2-3086-4657-9e60-6ff15dd8bae1")
	)
	(fp_line
		(start -7.6 -2.4)
		(end -8 -2.4)
		(stroke
			(width 0.2)
			(type default)
		)
		(layer "F.SilkS")
		(uuid "a6b09288-1c65-4d54-9e82-fd421f86c158")
	)
	(fp_line
		(start 8.25085 1.69083)
		(end 9.29944 1.69083)
		(stroke
			(width 0.1)
			(type solid)
		)
		(layer "F.SilkS")
		(uuid "184c98cc-3871-4eb1-b6c5-7eb87717e5b7")
	)
	(fp_line
		(start 9.29944 -1.69081)
		(end 8.25042 -1.69081)
		(stroke
			(width 0.1)
			(type solid)
		)
		(layer "F.SilkS")
		(uuid "bb15ca22-7452-45b0-be0a-13072ce9d96a")
	)
	(fp_line
		(start 9.29944 1.69083)
		(end 9.29944 -1.69081)
		(stroke
			(width 0.1)
			(type solid)
		)
		(layer "F.SilkS")
		(uuid "a2af4d9d-e162-4fc7-a05c-f59922ba30a2")
	)
	(fp_rect
		(start -9.6 -2)
		(end 9.6 2)
		(stroke
			(width 0.05)
			(type default)
		)
		(fill none)
		(layer "F.CrtYd")
		(uuid "58cf59fe-eb66-4303-aa66-f4098a3492a1")
	)
	(fp_line
		(start -8.25042 1.69081)
		(end 8.25085 1.69081)
		(stroke
			(width 0.1)
			(type solid)
		)
		(layer "F.Fab")
		(uuid "41b5a671-c4c1-405d-8232-38a909b570c5")
	)
	(fp_line
		(start 8.25042 -1.69081)
		(end -8.25042 -1.69081)
		(stroke
			(width 0.1)
			(type solid)
		)
		(layer "F.Fab")
		(uuid "38bafa30-ff96-42ee-966a-b0b1d5949da5")
	)
	(fp_line
		(start 8.25085 1.69081)
		(end 8.25085 1.69083)
		(stroke
			(width 0.1)
			(type solid)
		)
		(layer "F.Fab")
		(uuid "aee42460-86f9-4734-8f1e-cdb7bad2b2e0")
	)
	(pad "1" smd roundrect
		(at -7.8 -1.54)
		(size 0.2 0.7)
		(layers "F.Cu" "F.Paste" "F.Mask")
		(roundrect_rratio 0.25)
		(uuid "4911e2c5-8ccd-46ac-a6fc-346875fe9ac3")
	)
	(pad "2" smd roundrect
		(at -7.8 1.54)
		(size 0.2 0.7)
		(layers "F.Cu" "F.Paste" "F.Mask")
		(roundrect_rratio 0.25)
		(uuid "c7713a5f-a564-446e-8880-1fc33d53f78c")
	)
	(pad "3" smd roundrect
		(at -7.4 -1.54)
		(size 0.2 0.7)
		(layers "F.Cu" "F.Paste" "F.Mask")
		(roundrect_rratio 0.25)
		(uuid "2e618ebb-1822-4064-9e1c-4dc73aec2fd5")
	)
	(pad "4" smd roundrect
		(at -7.4 1.54)
		(size 0.2 0.7)
		(layers "F.Cu" "F.Paste" "F.Mask")
		(roundrect_rratio 0.25)
		(uuid "e77350e7-01b0-4356-8c8b-6fa2e0a0c9df")
	)
	(pad "5" smd roundrect
		(at -7 -1.54)
		(size 0.2 0.7)
		(layers "F.Cu" "F.Paste" "F.Mask")
		(roundrect_rratio 0.25)
		(uuid "61431e1c-edf8-480a-82cb-63ca6a816474")
	)
	(pad "6" smd roundrect
		(at -7 1.54)
		(size 0.2 0.7)
		(layers "F.Cu" "F.Paste" "F.Mask")
		(roundrect_rratio 0.25)
		(uuid "be569d70-9fe0-4006-99f3-552d3782bf5b")
	)
	(pad "7" smd roundrect
		(at -6.6 -1.54)
		(size 0.2 0.7)
		(layers "F.Cu" "F.Paste" "F.Mask")
		(roundrect_rratio 0.25)
		(uuid "9a410558-acf5-4f98-9928-5360cd154deb")
	)
	(pad "8" smd roundrect
		(at -6.6 1.54)
		(size 0.2 0.7)
		(layers "F.Cu" "F.Paste" "F.Mask")
		(roundrect_rratio 0.25)
		(uuid "71e3c16b-5e15-4019-99b2-02e0b3b10689")
	)
	(pad "9" smd roundrect
		(at -6.2 -1.54)
		(size 0.2 0.7)
		(layers "F.Cu" "F.Paste" "F.Mask")
		(roundrect_rratio 0.25)
		(uuid "fc930a4f-ec4a-424b-816d-9ad0008e0607")
	)
	(pad "10" smd roundrect
		(at -6.2 1.54)
		(size 0.2 0.7)
		(layers "F.Cu" "F.Paste" "F.Mask")
		(roundrect_rratio 0.25)
		(uuid "4cf1f0a6-a08d-4c78-9358-4157cd571042")
	)
	(pad "11" smd roundrect
		(at -5.8 -1.54)
		(size 0.2 0.7)
		(layers "F.Cu" "F.Paste" "F.Mask")
		(roundrect_rratio 0.25)
		(uuid "2b40442f-b638-4aa9-a0dc-11d10875256e")
	)
	(pad "12" smd roundrect
		(at -5.8 1.54)
		(size 0.2 0.7)
		(layers "F.Cu" "F.Paste" "F.Mask")
		(roundrect_rratio 0.25)
		(uuid "b5d0adc0-d537-4104-90d6-7d57f1e49322")
	)
	(pad "13" smd roundrect
		(at -5.4 -1.54)
		(size 0.2 0.7)
		(layers "F.Cu" "F.Paste" "F.Mask")
		(roundrect_rratio 0.25)
		(uuid "97370e0c-4567-45b8-8499-8c3421e3d8ca")
	)
	(pad "14" smd roundrect
		(at -5.4 1.54)
		(size 0.2 0.7)
		(layers "F.Cu" "F.Paste" "F.Mask")
		(roundrect_rratio 0.25)
		(uuid "ccf14545-b68f-4ff7-a2d7-98155760d993")
	)
	(pad "15" smd roundrect
		(at -5 -1.54)
		(size 0.2 0.7)
		(layers "F.Cu" "F.Paste" "F.Mask")
		(roundrect_rratio 0.25)
		(uuid "8d84a29e-0d9e-48da-ad9f-a1c2ada5359b")
	)
	(pad "16" smd roundrect
		(at -5 1.54)
		(size 0.2 0.7)
		(layers "F.Cu" "F.Paste" "F.Mask")
		(roundrect_rratio 0.25)
		(uuid "37dbdee7-df2a-4106-959c-1632c921ec98")
	)
	(pad "17" smd roundrect
		(at -4.6 -1.54)
		(size 0.2 0.7)
		(layers "F.Cu" "F.Paste" "F.Mask")
		(roundrect_rratio 0.25)
		(uuid "e4255d3e-0664-4fb6-a21b-cf2a3f4bc70a")
	)
	(pad "18" smd roundrect
		(at -4.6 1.54)
		(size 0.2 0.7)
		(layers "F.Cu" "F.Paste" "F.Mask")
		(roundrect_rratio 0.25)
		(uuid "89316470-2d88-4dfe-a777-26d644bb09a8")
	)
	(pad "19" smd roundrect
		(at -4.2 -1.54)
		(size 0.2 0.7)
		(layers "F.Cu" "F.Paste" "F.Mask")
		(roundrect_rratio 0.25)
		(uuid "add49402-3c15-40c5-8cc8-e1e06c72d08d")
	)
	(pad "20" smd roundrect
		(at -4.2 1.54)
		(size 0.2 0.7)
		(layers "F.Cu" "F.Paste" "F.Mask")
		(roundrect_rratio 0.25)
		(uuid "b12913a5-649a-4202-8e1c-65ce0d0a0c01")
	)
	(pad "21" smd roundrect
		(at -3.8 -1.54)
		(size 0.2 0.7)
		(layers "F.Cu" "F.Paste" "F.Mask")
		(roundrect_rratio 0.25)
		(uuid "bca33bf7-e57d-4cc5-8f52-da5414105fe0")
	)
	(pad "22" smd roundrect
		(at -3.8 1.54)
		(size 0.2 0.7)
		(layers "F.Cu" "F.Paste" "F.Mask")
		(roundrect_rratio 0.25)
		(uuid "0f576bcc-7c37-412e-8ee5-9a0abde70df2")
	)
	(pad "23" smd roundrect
		(at -3.4 -1.54)
		(size 0.2 0.7)
		(layers "F.Cu" "F.Paste" "F.Mask")
		(roundrect_rratio 0.25)
		(uuid "0f08e82d-f993-4b0b-81d6-05796436934a")
	)
	(pad "24" smd roundrect
		(at -3.4 1.54)
		(size 0.2 0.7)
		(layers "F.Cu" "F.Paste" "F.Mask")
		(roundrect_rratio 0.25)
		(uuid "22f25ed0-769a-4741-b4e8-3ae8a4ff0915")
	)
	(pad "25" smd roundrect
		(at -3 -1.54)
		(size 0.2 0.7)
		(layers "F.Cu" "F.Paste" "F.Mask")
		(roundrect_rratio 0.25)
		(uuid "6f329208-628b-466b-b452-00b6f5626e6b")
	)
	(pad "26" smd roundrect
		(at -3 1.54)
		(size 0.2 0.7)
		(layers "F.Cu" "F.Paste" "F.Mask")
		(roundrect_rratio 0.25)
		(uuid "a1497faf-8266-4b3a-bf76-4b94583fd15d")
	)
	(pad "27" smd roundrect
		(at -2.6 -1.54)
		(size 0.2 0.7)
		(layers "F.Cu" "F.Paste" "F.Mask")
		(roundrect_rratio 0.25)
		(uuid "70b8f25e-e3eb-493f-9177-f50fe86ad16a")
	)
	(pad "28" smd roundrect
		(at -2.6 1.54)
		(size 0.2 0.7)
		(layers "F.Cu" "F.Paste" "F.Mask")
		(roundrect_rratio 0.25)
		(uuid "3cdb24c4-5204-4f74-aedc-dca1573dd081")
	)
	(pad "29" smd roundrect
		(at -2.2 -1.54)
		(size 0.2 0.7)
		(layers "F.Cu" "F.Paste" "F.Mask")
		(roundrect_rratio 0.25)
		(uuid "49666bb0-aff8-4adf-bc71-e26652e29e4e")
	)
	(pad "30" smd roundrect
		(at -2.2 1.54)
		(size 0.2 0.7)
		(layers "F.Cu" "F.Paste" "F.Mask")
		(roundrect_rratio 0.25)
		(uuid "e4a9b34e-5675-4833-8da4-3a6faaebc666")
	)
	(pad "31" smd roundrect
		(at -1.8 -1.54)
		(size 0.2 0.7)
		(layers "F.Cu" "F.Paste" "F.Mask")
		(roundrect_rratio 0.25)
		(uuid "cbe81545-c352-4fc2-8dc6-c41c29cd7391")
	)
	(pad "32" smd roundrect
		(at -1.8 1.54)
		(size 0.2 0.7)
		(layers "F.Cu" "F.Paste" "F.Mask")
		(roundrect_rratio 0.25)
		(uuid "cdc89f31-1e76-4258-94d9-6b4a79528266")
	)
	(pad "33" smd roundrect
		(at -1.4 -1.54)
		(size 0.2 0.7)
		(layers "F.Cu" "F.Paste" "F.Mask")
		(roundrect_rratio 0.25)
		(uuid "47b1bae2-3cdc-4f1f-ba9c-0ccdb9fc34fb")
	)
	(pad "34" smd roundrect
		(at -1.4 1.54)
		(size 0.2 0.7)
		(layers "F.Cu" "F.Paste" "F.Mask")
		(roundrect_rratio 0.25)
		(uuid "71674f7f-8965-41d1-9eb8-4b7461586500")
	)
	(pad "35" smd roundrect
		(at -1 -1.54)
		(size 0.2 0.7)
		(layers "F.Cu" "F.Paste" "F.Mask")
		(roundrect_rratio 0.25)
		(uuid "751583da-c933-488e-b4e8-43faa91ebcbd")
	)
	(pad "36" smd roundrect
		(at -1 1.54)
		(size 0.2 0.7)
		(layers "F.Cu" "F.Paste" "F.Mask")
		(roundrect_rratio 0.25)
		(uuid "e7a94e8a-5f32-4455-960e-a447c0e4d3b1")
	)
	(pad "37" smd roundrect
		(at -0.6 -1.54)
		(size 0.2 0.7)
		(layers "F.Cu" "F.Paste" "F.Mask")
		(roundrect_rratio 0.25)
		(uuid "7bfa5c97-f86f-4a16-92dd-901651f74c07")
	)
	(pad "38" smd roundrect
		(at -0.6 1.54)
		(size 0.2 0.7)
		(layers "F.Cu" "F.Paste" "F.Mask")
		(roundrect_rratio 0.25)
		(uuid "5d1693c7-01cb-4485-872a-bd7b5092e798")
	)
	(pad "39" smd roundrect
		(at -0.2 -1.54)
		(size 0.2 0.7)
		(layers "F.Cu" "F.Paste" "F.Mask")
		(roundrect_rratio 0.25)
		(uuid "53d5917f-a4ff-4c78-a26e-95aec364219d")
	)
	(pad "40" smd roundrect
		(at -0.2 1.54)
		(size 0.2 0.7)
		(layers "F.Cu" "F.Paste" "F.Mask")
		(roundrect_rratio 0.25)
		(uuid "bcc18f2a-f88a-4f2c-bfa1-76ad99507efd")
	)
	(pad "41" smd roundrect
		(at 0.2 -1.54)
		(size 0.2 0.7)
		(layers "F.Cu" "F.Paste" "F.Mask")
		(roundrect_rratio 0.25)
		(uuid "348c8e48-5543-4c5b-95bb-72244917189d")
	)
	(pad "42" smd roundrect
		(at 0.2 1.54)
		(size 0.2 0.7)
		(layers "F.Cu" "F.Paste" "F.Mask")
		(roundrect_rratio 0.25)
		(uuid "aa3ca9de-a3f4-4a0e-8732-ae822fd3580f")
	)
	(pad "43" smd roundrect
		(at 0.6 -1.54)
		(size 0.2 0.7)
		(layers "F.Cu" "F.Paste" "F.Mask")
		(roundrect_rratio 0.25)
		(uuid "03c1da5b-9dd0-4eec-8b7d-d03e18edd2c9")
	)
	(pad "44" smd roundrect
		(at 0.6 1.54)
		(size 0.2 0.7)
		(layers "F.Cu" "F.Paste" "F.Mask")
		(roundrect_rratio 0.25)
		(uuid "dde82f12-e2b9-440c-be1e-17c0b8ec4ef2")
	)
	(pad "45" smd roundrect
		(at 1 -1.54)
		(size 0.2 0.7)
		(layers "F.Cu" "F.Paste" "F.Mask")
		(roundrect_rratio 0.25)
		(uuid "62d444fa-ff22-49e0-aa31-c55e38f478c7")
	)
	(pad "46" smd roundrect
		(at 1 1.54)
		(size 0.2 0.7)
		(layers "F.Cu" "F.Paste" "F.Mask")
		(roundrect_rratio 0.25)
		(uuid "4f397004-180d-4c84-89bc-54cb897f92a2")
	)
	(pad "47" smd roundrect
		(at 1.4 -1.54)
		(size 0.2 0.7)
		(layers "F.Cu" "F.Paste" "F.Mask")
		(roundrect_rratio 0.25)
		(uuid "1f6185ed-7c7d-461e-822c-76f3cf962876")
	)
	(pad "48" smd roundrect
		(at 1.4 1.54)
		(size 0.2 0.7)
		(layers "F.Cu" "F.Paste" "F.Mask")
		(roundrect_rratio 0.25)
		(uuid "e07595eb-2442-4aaf-80cf-da0df6664266")
	)
	(pad "49" smd roundrect
		(at 1.8 -1.54)
		(size 0.2 0.7)
		(layers "F.Cu" "F.Paste" "F.Mask")
		(roundrect_rratio 0.25)
		(uuid "a92ebb14-a9cd-4e98-a5f5-b82b46289d8e")
	)
	(pad "50" smd roundrect
		(at 1.8 1.54)
		(size 0.2 0.7)
		(layers "F.Cu" "F.Paste" "F.Mask")
		(roundrect_rratio 0.25)
		(uuid "987ab4c6-4301-4be0-ba17-afaaaa78c988")
	)
	(pad "51" smd roundrect
		(at 2.2 -1.54)
		(size 0.2 0.7)
		(layers "F.Cu" "F.Paste" "F.Mask")
		(roundrect_rratio 0.25)
		(uuid "ed99bfdf-3019-4746-a95a-4182e362ed80")
	)
	(pad "52" smd roundrect
		(at 2.2 1.54)
		(size 0.2 0.7)
		(layers "F.Cu" "F.Paste" "F.Mask")
		(roundrect_rratio 0.25)
		(uuid "b26afe7c-18b2-4779-8f13-29cfba2e7034")
	)
	(pad "53" smd roundrect
		(at 2.6 -1.54)
		(size 0.2 0.7)
		(layers "F.Cu" "F.Paste" "F.Mask")
		(roundrect_rratio 0.25)
		(uuid "5e99ef9b-6c90-4114-ac6b-770ae8fec6ad")
	)
	(pad "54" smd roundrect
		(at 2.6 1.54)
		(size 0.2 0.7)
		(layers "F.Cu" "F.Paste" "F.Mask")
		(roundrect_rratio 0.25)
		(uuid "7f788233-f98b-4da2-9905-a4d213f4f74a")
	)
	(pad "55" smd roundrect
		(at 3 -1.54)
		(size 0.2 0.7)
		(layers "F.Cu" "F.Paste" "F.Mask")
		(roundrect_rratio 0.25)
		(uuid "31eda30e-3d2f-4d9e-a053-31301918a2c5")
	)
	(pad "56" smd roundrect
		(at 3 1.54)
		(size 0.2 0.7)
		(layers "F.Cu" "F.Paste" "F.Mask")
		(roundrect_rratio 0.25)
		(uuid "617bd158-c02b-45c4-8440-7cd73c1952a6")
	)
	(pad "57" smd roundrect
		(at 3.4 -1.54)
		(size 0.2 0.7)
		(layers "F.Cu" "F.Paste" "F.Mask")
		(roundrect_rratio 0.25)
		(uuid "56a09c0b-ac4b-480a-ba5d-0232aa475c0d")
	)
	(pad "58" smd roundrect
		(at 3.4 1.54)
		(size 0.2 0.7)
		(layers "F.Cu" "F.Paste" "F.Mask")
		(roundrect_rratio 0.25)
		(uuid "66354ea5-b9f5-4beb-9374-b013117ac128")
	)
	(pad "59" smd roundrect
		(at 3.8 -1.54)
		(size 0.2 0.7)
		(layers "F.Cu" "F.Paste" "F.Mask")
		(roundrect_rratio 0.25)
		(uuid "992b317b-1954-4f46-8d00-334f92469762")
	)
	(pad "60" smd roundrect
		(at 3.8 1.54)
		(size 0.2 0.7)
		(layers "F.Cu" "F.Paste" "F.Mask")
		(roundrect_rratio 0.25)
		(uuid "0de20c6e-d5a3-4199-86a1-696287e366f4")
	)
	(pad "61" smd roundrect
		(at 4.2 -1.54)
		(size 0.2 0.7)
		(layers "F.Cu" "F.Paste" "F.Mask")
		(roundrect_rratio 0.25)
		(uuid "8137d33d-3e72-4323-b4b4-940d99b13a62")
	)
	(pad "62" smd roundrect
		(at 4.2 1.54)
		(size 0.2 0.7)
		(layers "F.Cu" "F.Paste" "F.Mask")
		(roundrect_rratio 0.25)
		(uuid "15f60cdd-b7be-4d01-b3bb-7aab6ffe113b")
	)
	(pad "63" smd roundrect
		(at 4.6 -1.54)
		(size 0.2 0.7)
		(layers "F.Cu" "F.Paste" "F.Mask")
		(roundrect_rratio 0.25)
		(uuid "90602790-a69a-4631-865a-14e2c4dea52d")
	)
	(pad "64" smd roundrect
		(at 4.6 1.54)
		(size 0.2 0.7)
		(layers "F.Cu" "F.Paste" "F.Mask")
		(roundrect_rratio 0.25)
		(uuid "ba336e3f-7a4f-4fd9-a56d-f217138a8f29")
	)
	(pad "65" smd roundrect
		(at 5 -1.54)
		(size 0.2 0.7)
		(layers "F.Cu" "F.Paste" "F.Mask")
		(roundrect_rratio 0.25)
		(uuid "72a0d8d7-bd89-44fb-8cdc-b60b7c769304")
	)
	(pad "66" smd roundrect
		(at 5 1.54)
		(size 0.2 0.7)
		(layers "F.Cu" "F.Paste" "F.Mask")
		(roundrect_rratio 0.25)
		(uuid "704fa905-db0a-44af-b706-770f26f30678")
	)
	(pad "67" smd roundrect
		(at 5.4 -1.54)
		(size 0.2 0.7)
		(layers "F.Cu" "F.Paste" "F.Mask")
		(roundrect_rratio 0.25)
		(uuid "ae3e2aa4-e319-45bd-9bad-2fcfa240d998")
	)
	(pad "68" smd roundrect
		(at 5.4 1.54)
		(size 0.2 0.7)
		(layers "F.Cu" "F.Paste" "F.Mask")
		(roundrect_rratio 0.25)
		(uuid "74200f89-a302-482f-87f7-8dc2669ddb07")
	)
	(pad "69" smd roundrect
		(at 5.8 -1.54)
		(size 0.2 0.7)
		(layers "F.Cu" "F.Paste" "F.Mask")
		(roundrect_rratio 0.25)
		(uuid "8e160fc0-aec3-42eb-b2b7-83e4efb71e2c")
	)
	(pad "70" smd roundrect
		(at 5.8 1.54)
		(size 0.2 0.7)
		(layers "F.Cu" "F.Paste" "F.Mask")
		(roundrect_rratio 0.25)
		(uuid "619fe4a3-38d2-4ece-bfd6-615729a34d1a")
	)
	(pad "71" smd roundrect
		(at 6.2 -1.54)
		(size 0.2 0.7)
		(layers "F.Cu" "F.Paste" "F.Mask")
		(roundrect_rratio 0.25)
		(uuid "f5c7b7d4-7c35-42bc-b488-2d7d16ab6a73")
	)
	(pad "72" smd roundrect
		(at 6.2 1.54)
		(size 0.2 0.7)
		(layers "F.Cu" "F.Paste" "F.Mask")
		(roundrect_rratio 0.25)
		(uuid "f1d67a79-8295-4945-b7f6-859653592d78")
	)
	(pad "73" smd roundrect
		(at 6.6 -1.54)
		(size 0.2 0.7)
		(layers "F.Cu" "F.Paste" "F.Mask")
		(roundrect_rratio 0.25)
		(uuid "7dca1db7-9d94-4d1e-a8d8-73babdf05c63")
	)
	(pad "74" smd roundrect
		(at 6.6 1.54)
		(size 0.2 0.7)
		(layers "F.Cu" "F.Paste" "F.Mask")
		(roundrect_rratio 0.25)
		(uuid "610f2c69-0fc5-4f49-9bb0-e4fd9532e098")
	)
	(pad "75" smd roundrect
		(at 7 -1.54)
		(size 0.2 0.7)
		(layers "F.Cu" "F.Paste" "F.Mask")
		(roundrect_rratio 0.25)
		(uuid "b6d446d3-3196-412f-a838-9aa5e5679b76")
	)
	(pad "76" smd roundrect
		(at 7 1.54)
		(size 0.2 0.7)
		(layers "F.Cu" "F.Paste" "F.Mask")
		(roundrect_rratio 0.25)
		(uuid "cc81a52d-01db-4220-ae33-321ebb2debe3")
	)
	(pad "77" smd roundrect
		(at 7.4 -1.54)
		(size 0.2 0.7)
		(layers "F.Cu" "F.Paste" "F.Mask")
		(roundrect_rratio 0.25)
		(uuid "19884638-a261-4270-8b5c-c9603bda9b1d")
	)
	(pad "78" smd roundrect
		(at 7.4 1.54)
		(size 0.2 0.7)
		(layers "F.Cu" "F.Paste" "F.Mask")
		(roundrect_rratio 0.25)
		(uuid "c2399772-8ab6-484b-807e-6bbf9f0bf9e6")
	)
	(pad "79" smd roundrect
		(at 7.8 -1.54)
		(size 0.2 0.7)
		(layers "F.Cu" "F.Paste" "F.Mask")
		(roundrect_rratio 0.25)
		(uuid "f47a22de-3fea-461d-a828-3977fca38772")
	)
	(pad "80" smd roundrect
		(at 7.8 1.54)
		(size 0.2 0.7)
		(layers "F.Cu" "F.Paste" "F.Mask")
		(roundrect_rratio 0.25)
		(uuid "9f2de81c-a647-4bb0-8cff-ce7c9c9e19ea")
	)
	(model "${KIPRJMOD}/kicad-libraries/3dmodels/DF40C-80DS.stp"
		(offset
			(xyz -4.11 0 0)
		)
		(scale
			(xyz 1 1 1)
		)
		(rotate
			(xyz -90 0 90)
		)
	)
)
