(footprint "Connector_Molex_1726480102"
	(version 20240108)
	(generator "pcbnew")
	(generator_version "8.0")
	(layer "F.Cu")
	(property "Reference" "REF**"
		(at 0 -10.3 0)
		(unlocked yes)
		(layer "F.SilkS")
		(uuid "43792ddc-247f-4d61-aa65-402cc1a7a498")
		(effects
			(font
				(size 1 1)
				(thickness 0.1)
			)
		)
	)
	(property "Value" "Connector_Molex_1726480102"
		(at -1 -4.4 90)
		(unlocked yes)
		(layer "F.Fab")
		(uuid "a1b6f270-2e23-43ff-a35f-f5585e016e92")
		(effects
			(font
				(size 1 1)
				(thickness 0.15)
			)
		)
	)
	(property "Footprint" ""
		(at 0 0 0)
		(unlocked yes)
		(layer "F.Fab")
		(hide yes)
		(uuid "d33e04e2-7845-4013-8094-d662d273a08b")
		(effects
			(font
				(size 1 1)
				(thickness 0.15)
			)
		)
	)
	(property "Datasheet" ""
		(at 0 0 0)
		(unlocked yes)
		(layer "F.Fab")
		(hide yes)
		(uuid "ea90839c-f6ff-4b31-bec2-6ede6ae5efd8")
		(effects
			(font
				(size 1 1)
				(thickness 0.15)
			)
		)
	)
	(property "Description" ""
		(at 0 0 0)
		(unlocked yes)
		(layer "F.Fab")
		(hide yes)
		(uuid "60323534-5a18-4881-8897-47833b3198f2")
		(effects
			(font
				(size 1 1)
				(thickness 0.15)
			)
		)
	)
	(attr through_hole)
	(fp_rect
		(start -5.1 -9)
		(end 5.1 6.9)
		(stroke
			(width 0.05)
			(type default)
		)
		(fill none)
		(layer "F.CrtYd")
		(uuid "62d1d80e-4c97-4cc1-99ea-3a6512a7f8ba")
	)
	(fp_line
		(start -4.8 -6.2)
		(end -4.8 6.6)
		(stroke
			(width 0.1)
			(type default)
		)
		(layer "F.Fab")
		(uuid "2cd55750-6aab-42dc-bbf9-04d5b33a467e")
	)
	(fp_line
		(start -4.8 -6.2)
		(end 4.8 -6.2)
		(stroke
			(width 0.1)
			(type default)
		)
		(layer "F.Fab")
		(uuid "084d5d9f-9314-4875-88f0-830a6bb9ec87")
	)
	(fp_line
		(start -4.8 6.6)
		(end 4.8 6.6)
		(stroke
			(width 0.1)
			(type default)
		)
		(layer "F.Fab")
		(uuid "a3a52aab-dde9-4db9-a72a-16a4ceea2f23")
	)
	(fp_line
		(start 4.8 6.6)
		(end 4.8 -6.2)
		(stroke
			(width 0.1)
			(type default)
		)
		(layer "F.Fab")
		(uuid "04408953-b426-4540-a536-b4d12f4cbaab")
	)
	(fp_text user "${REFERENCE}"
		(at 1 -4.4 90)
		(unlocked yes)
		(layer "F.Fab")
		(uuid "7d7e3ac6-b14c-400c-bf9f-0daa97ed3b4a")
		(effects
			(font
				(size 1 1)
				(thickness 0.15)
			)
		)
	)
	(pad "" np_thru_hole circle
		(at 0 0)
		(size 3 3)
		(drill 3)
		(layers "F&B.Cu" "*.Mask")
		(uuid "e5bfeee4-b2c9-4f72-913b-a05a0ce6e7ed")
	)
	(pad "1" thru_hole roundrect
		(at 2.1 -7.3)
		(size 3 3)
		(drill 1.8)
		(layers "*.Cu" "*.Mask")
		(remove_unused_layers no)
		(roundrect_rratio 0.08333333333)
		(uuid "d58bb4cb-7da9-4ad9-9087-ee36428e16ea")
	)
	(pad "2" thru_hole circle
		(at -2.1 -7.3)
		(size 3 3)
		(drill 1.8)
		(layers "*.Cu" "*.Mask")
		(remove_unused_layers no)
		(uuid "9f293c06-2c5e-449d-bc48-6ce841cc52f4")
	)
	(model "${KIPRJMOD}/kicad-libraries/3dmodels/1726480102.stp"
		(offset
			(xyz 0 -6.6 0)
		)
		(scale
			(xyz 1 1 1)
		)
		(rotate
			(xyz -90 0 0)
		)
	)
)
