(footprint "Connector_B2B_Hirose_DF40C-100DP-0.4V(51)" (version 20221018) (generator pcbnew)
  (layer "F.Cu")
  (attr smd)
  (fp_text reference "REF**" (at -8.95 -2.975) (layer "F.SilkS")
      (effects (font (size 1 1) (thickness 0.15)))
    (tstamp 943345d7-faa1-46dd-a73c-7a0942965b0e)
  )
  (fp_text value "DF40C-100DP-0.4V(51)" (at 0 0) (layer "F.Fab")
      (effects (font (size 1 1) (thickness 0.15)))
    (tstamp 5f671bc9-5482-4d29-9d9b-d01fa6ff0678)
  )
  (fp_line (start -10.76 0.925) (end -10.76 -0.925)
    (stroke (width 0.127) (type solid)) (layer "F.SilkS") (tstamp 5323fc83-d6be-496f-b472-019b45841e23))
  (fp_line (start 10.76 -0.925) (end 10.76 0.925)
    (stroke (width 0.127) (type solid)) (layer "F.SilkS") (tstamp 6ef3cd13-80af-42fc-a74f-d36234f6272e))
  (fp_circle (center -9.8 -2.065) (end -9.74 -2.065)
    (stroke (width 0.12) (type solid)) (fill none) (layer "F.SilkS") (tstamp dc720d2e-8bc4-42ac-bafc-10bc5e9ef004))
  (fp_line (start -11.01 -1.935) (end 11.01 -1.935)
    (stroke (width 0.05) (type solid)) (layer "F.CrtYd") (tstamp 5daee424-d022-4a54-983c-1b851de533c1))
  (fp_line (start -11.01 1.935) (end -11.01 -1.935)
    (stroke (width 0.05) (type solid)) (layer "F.CrtYd") (tstamp 99eecd65-6853-47b8-b17a-673581ddae70))
  (fp_line (start 11.01 -1.935) (end 11.01 1.935)
    (stroke (width 0.05) (type solid)) (layer "F.CrtYd") (tstamp 87698e15-f55b-45c8-b129-c01af7b5ae7a))
  (fp_line (start 11.01 1.935) (end -11.01 1.935)
    (stroke (width 0.05) (type solid)) (layer "F.CrtYd") (tstamp 0d85fd1a-1b4d-4749-9400-1ee438007432))
  (fp_line (start -10.76 -0.925) (end 10.76 -0.925)
    (stroke (width 0.127) (type solid)) (layer "F.Fab") (tstamp 36c11b09-4a59-40b9-89b2-372f127749c0))
  (fp_line (start -10.76 0.925) (end -10.76 -0.925)
    (stroke (width 0.127) (type solid)) (layer "F.Fab") (tstamp b65f7838-e8eb-44db-9e3c-42b1ee77f2eb))
  (fp_line (start 10.76 -0.925) (end 10.76 0.925)
    (stroke (width 0.127) (type solid)) (layer "F.Fab") (tstamp 1c634ad9-f8a6-4995-a8ed-03a60ace8d4f))
  (fp_line (start 10.76 0.925) (end -10.76 0.925)
    (stroke (width 0.127) (type solid)) (layer "F.Fab") (tstamp 704a6e7d-3669-455e-9407-57f25363316e))
  (fp_circle (center -9.8 -2.065) (end -9.74 -2.065)
    (stroke (width 0.12) (type solid)) (fill none) (layer "F.Fab") (tstamp be6a650b-7001-492d-932a-389a31549a45))
  (pad "1" smd rect (at -9.8 -1.355) (size 0.23 0.66) (layers "F.Cu" "F.Paste" "F.Mask") (tstamp 248df9ac-5d97-437d-b51f-d9cb98132ace))
  (pad "2" smd rect (at -9.8 1.355) (size 0.23 0.66) (layers "F.Cu" "F.Paste" "F.Mask") (tstamp 69338193-5eaf-4fae-be1b-a32ba482ae3b))
  (pad "3" smd rect (at -9.4 -1.355) (size 0.23 0.66) (layers "F.Cu" "F.Paste" "F.Mask") (tstamp 4238cba2-f8fa-4357-9627-fca79fbd1f34))
  (pad "4" smd rect (at -9.4 1.355) (size 0.23 0.66) (layers "F.Cu" "F.Paste" "F.Mask") (tstamp 11bba075-ca36-425b-a54f-2dd38b0ca36e))
  (pad "5" smd rect (at -9 -1.355) (size 0.23 0.66) (layers "F.Cu" "F.Paste" "F.Mask") (tstamp 9b237d2e-fd8e-47a7-956e-b5036599034d))
  (pad "6" smd rect (at -9 1.355) (size 0.23 0.66) (layers "F.Cu" "F.Paste" "F.Mask") (tstamp a429b732-e87e-4b4f-9e08-88ff562a292d))
  (pad "7" smd rect (at -8.6 -1.355) (size 0.23 0.66) (layers "F.Cu" "F.Paste" "F.Mask") (tstamp e1c44d7b-4339-4e5b-bb4f-872fd69f73b6))
  (pad "8" smd rect (at -8.6 1.355) (size 0.23 0.66) (layers "F.Cu" "F.Paste" "F.Mask") (tstamp 07986bcb-b7cb-4829-9db3-5bd967f3e817))
  (pad "9" smd rect (at -8.2 -1.355) (size 0.23 0.66) (layers "F.Cu" "F.Paste" "F.Mask") (tstamp 807113a2-da3f-4bd8-b708-b1903c98d04c))
  (pad "10" smd rect (at -8.2 1.355) (size 0.23 0.66) (layers "F.Cu" "F.Paste" "F.Mask") (tstamp 08da3fe7-91ae-4aa4-aaab-82e6b48e0749))
  (pad "11" smd rect (at -7.8 -1.355) (size 0.23 0.66) (layers "F.Cu" "F.Paste" "F.Mask") (tstamp 5e694c0c-b8bf-4fd1-800b-ecbb53dc8bfa))
  (pad "12" smd rect (at -7.8 1.355) (size 0.23 0.66) (layers "F.Cu" "F.Paste" "F.Mask") (tstamp 905ad161-629d-4307-a873-d56804df0474))
  (pad "13" smd rect (at -7.4 -1.355) (size 0.23 0.66) (layers "F.Cu" "F.Paste" "F.Mask") (tstamp c4f6c84d-0c65-4896-898c-00092eac9f16))
  (pad "14" smd rect (at -7.4 1.355) (size 0.23 0.66) (layers "F.Cu" "F.Paste" "F.Mask") (tstamp e11fc98f-89c6-480a-b460-dbc4787bf441))
  (pad "15" smd rect (at -7 -1.355) (size 0.23 0.66) (layers "F.Cu" "F.Paste" "F.Mask") (tstamp 8b10c5c2-6cb3-4a04-a084-4b4d905a95f4))
  (pad "16" smd rect (at -7 1.355) (size 0.23 0.66) (layers "F.Cu" "F.Paste" "F.Mask") (tstamp fa52fe5e-63a6-4769-88dc-1a035262810c))
  (pad "17" smd rect (at -6.6 -1.355) (size 0.23 0.66) (layers "F.Cu" "F.Paste" "F.Mask") (tstamp 82374bee-a600-472e-a8fb-a6b305f23561))
  (pad "18" smd rect (at -6.6 1.355) (size 0.23 0.66) (layers "F.Cu" "F.Paste" "F.Mask") (tstamp 844edf46-62aa-44c5-b4de-939c8e890e29))
  (pad "19" smd rect (at -6.2 -1.355) (size 0.23 0.66) (layers "F.Cu" "F.Paste" "F.Mask") (tstamp e4f8ec95-1668-4b1a-a64d-adc8095332fa))
  (pad "20" smd rect (at -6.2 1.355) (size 0.23 0.66) (layers "F.Cu" "F.Paste" "F.Mask") (tstamp b1265395-b7ac-4809-9afc-5f24dbc02480))
  (pad "21" smd rect (at -5.8 -1.355) (size 0.23 0.66) (layers "F.Cu" "F.Paste" "F.Mask") (tstamp 51fe2f29-704f-4824-af4a-ea00ecb67e1b))
  (pad "22" smd rect (at -5.8 1.355) (size 0.23 0.66) (layers "F.Cu" "F.Paste" "F.Mask") (tstamp 8e5def15-6f6f-491c-a653-d65c6d57a890))
  (pad "23" smd rect (at -5.4 -1.355) (size 0.23 0.66) (layers "F.Cu" "F.Paste" "F.Mask") (tstamp 32b23c7f-470b-4f61-83ea-b256d36ca65e))
  (pad "24" smd rect (at -5.4 1.355) (size 0.23 0.66) (layers "F.Cu" "F.Paste" "F.Mask") (tstamp e94dd671-7ea7-411c-abf7-c195ed75e8f3))
  (pad "25" smd rect (at -5 -1.355) (size 0.23 0.66) (layers "F.Cu" "F.Paste" "F.Mask") (tstamp f886a009-2e11-419a-a1f6-8f49281f6c6f))
  (pad "26" smd rect (at -5 1.355) (size 0.23 0.66) (layers "F.Cu" "F.Paste" "F.Mask") (tstamp 1594b284-8bea-4561-ad0a-5f1e05004224))
  (pad "27" smd rect (at -4.6 -1.355) (size 0.23 0.66) (layers "F.Cu" "F.Paste" "F.Mask") (tstamp 07949b55-4c65-4459-a41b-627f8458480d))
  (pad "28" smd rect (at -4.6 1.355) (size 0.23 0.66) (layers "F.Cu" "F.Paste" "F.Mask") (tstamp e0616cd5-4172-452d-9aed-8302a4571870))
  (pad "29" smd rect (at -4.2 -1.355) (size 0.23 0.66) (layers "F.Cu" "F.Paste" "F.Mask") (tstamp e2c5817d-3aa1-451b-8063-4a98c29b01b7))
  (pad "30" smd rect (at -4.2 1.355) (size 0.23 0.66) (layers "F.Cu" "F.Paste" "F.Mask") (tstamp 6d2bca36-0eeb-4f5f-bcd2-ecff061f2089))
  (pad "31" smd rect (at -3.8 -1.355) (size 0.23 0.66) (layers "F.Cu" "F.Paste" "F.Mask") (tstamp 6bc67aa3-f255-4b79-bd3a-4aee30ab6e82))
  (pad "32" smd rect (at -3.8 1.355) (size 0.23 0.66) (layers "F.Cu" "F.Paste" "F.Mask") (tstamp d307a832-cfc8-4946-95b7-5a16c42466a9))
  (pad "33" smd rect (at -3.4 -1.355) (size 0.23 0.66) (layers "F.Cu" "F.Paste" "F.Mask") (tstamp d451e95a-0733-4aff-879e-095427b58f2c))
  (pad "34" smd rect (at -3.4 1.355) (size 0.23 0.66) (layers "F.Cu" "F.Paste" "F.Mask") (tstamp eb9931a6-7f07-402c-a45b-1e8fcd9f5d07))
  (pad "35" smd rect (at -3 -1.355) (size 0.23 0.66) (layers "F.Cu" "F.Paste" "F.Mask") (tstamp 4114b1c9-c1f3-443d-84a9-0c836af995b3))
  (pad "36" smd rect (at -3 1.355) (size 0.23 0.66) (layers "F.Cu" "F.Paste" "F.Mask") (tstamp bf9cf0aa-3954-4028-a37e-617a54abe875))
  (pad "37" smd rect (at -2.6 -1.355) (size 0.23 0.66) (layers "F.Cu" "F.Paste" "F.Mask") (tstamp 55a1ccab-8ad0-4b6d-90d8-60d4ede3c8b5))
  (pad "38" smd rect (at -2.6 1.355) (size 0.23 0.66) (layers "F.Cu" "F.Paste" "F.Mask") (tstamp b01c4c09-97bf-4854-b777-02912f4808f1))
  (pad "39" smd rect (at -2.2 -1.355) (size 0.23 0.66) (layers "F.Cu" "F.Paste" "F.Mask") (tstamp 6da61007-a558-4218-b51f-f0362f33e33c))
  (pad "40" smd rect (at -2.2 1.355) (size 0.23 0.66) (layers "F.Cu" "F.Paste" "F.Mask") (tstamp 0b2bce25-d4ae-47be-bd9c-52de3cafff66))
  (pad "41" smd rect (at -1.8 -1.355) (size 0.23 0.66) (layers "F.Cu" "F.Paste" "F.Mask") (tstamp b69e44ec-e118-4567-bbcf-9fd9c7e187db))
  (pad "42" smd rect (at -1.8 1.355) (size 0.23 0.66) (layers "F.Cu" "F.Paste" "F.Mask") (tstamp 7c01460f-596e-42a3-bbf3-4346d996550b))
  (pad "43" smd rect (at -1.4 -1.355) (size 0.23 0.66) (layers "F.Cu" "F.Paste" "F.Mask") (tstamp 82468847-3715-4b47-8c55-abb13d828343))
  (pad "44" smd rect (at -1.4 1.355) (size 0.23 0.66) (layers "F.Cu" "F.Paste" "F.Mask") (tstamp 46f53c0d-83ee-498f-be83-e31f4b488943))
  (pad "45" smd rect (at -1 -1.355) (size 0.23 0.66) (layers "F.Cu" "F.Paste" "F.Mask") (tstamp 56f81084-ebcb-4fe7-899f-42e7c3ac6e21))
  (pad "46" smd rect (at -1 1.355) (size 0.23 0.66) (layers "F.Cu" "F.Paste" "F.Mask") (tstamp acabe04f-af87-4dff-9655-e75e186ca010))
  (pad "47" smd rect (at -0.6 -1.355) (size 0.23 0.66) (layers "F.Cu" "F.Paste" "F.Mask") (tstamp 8b61ad73-c00d-4ed0-8388-24b601054497))
  (pad "48" smd rect (at -0.6 1.355) (size 0.23 0.66) (layers "F.Cu" "F.Paste" "F.Mask") (tstamp 47ced153-0858-4d4c-b625-b12a14a01e76))
  (pad "49" smd rect (at -0.2 -1.355) (size 0.23 0.66) (layers "F.Cu" "F.Paste" "F.Mask") (tstamp ffcabafe-7e25-4bef-842a-2e6f71792ac6))
  (pad "50" smd rect (at -0.2 1.355) (size 0.23 0.66) (layers "F.Cu" "F.Paste" "F.Mask") (tstamp a51abd8a-3bb4-4ad7-b48a-389ec3e526df))
  (pad "51" smd rect (at 0.2 -1.355) (size 0.23 0.66) (layers "F.Cu" "F.Paste" "F.Mask") (tstamp 6ba4836a-7808-4ef9-a393-fe104cd48af6))
  (pad "52" smd rect (at 0.2 1.355) (size 0.23 0.66) (layers "F.Cu" "F.Paste" "F.Mask") (tstamp a57114ba-efd6-45e1-b0f7-368571d1b5a5))
  (pad "53" smd rect (at 0.6 -1.355) (size 0.23 0.66) (layers "F.Cu" "F.Paste" "F.Mask") (tstamp f46c15b3-8196-41c7-b526-eb2ae53e4e9c))
  (pad "54" smd rect (at 0.6 1.355) (size 0.23 0.66) (layers "F.Cu" "F.Paste" "F.Mask") (tstamp 3e5b8f60-e32e-4546-aff7-3c66bf573b89))
  (pad "55" smd rect (at 1 -1.355) (size 0.23 0.66) (layers "F.Cu" "F.Paste" "F.Mask") (tstamp 97cc970d-1750-4810-83b0-c62e20c6173d))
  (pad "56" smd rect (at 1 1.355) (size 0.23 0.66) (layers "F.Cu" "F.Paste" "F.Mask") (tstamp 6a9a1c78-89c6-4af7-8408-1786665fbe3a))
  (pad "57" smd rect (at 1.4 -1.355) (size 0.23 0.66) (layers "F.Cu" "F.Paste" "F.Mask") (tstamp 6271a358-6e0c-412a-b1ab-bce516519150))
  (pad "58" smd rect (at 1.4 1.355) (size 0.23 0.66) (layers "F.Cu" "F.Paste" "F.Mask") (tstamp a739d831-1f96-480d-ad98-fe32655d0591))
  (pad "59" smd rect (at 1.8 -1.355) (size 0.23 0.66) (layers "F.Cu" "F.Paste" "F.Mask") (tstamp 468235da-f976-47e8-8973-7ef2acca998e))
  (pad "60" smd rect (at 1.8 1.355) (size 0.23 0.66) (layers "F.Cu" "F.Paste" "F.Mask") (tstamp 596d960e-a0b5-42ce-bb55-97437de590dc))
  (pad "61" smd rect (at 2.2 -1.355) (size 0.23 0.66) (layers "F.Cu" "F.Paste" "F.Mask") (tstamp fd5b7da7-da16-4f7d-bc08-0e5326adc5a8))
  (pad "62" smd rect (at 2.2 1.355) (size 0.23 0.66) (layers "F.Cu" "F.Paste" "F.Mask") (tstamp 4cc7f415-313a-45b1-b79f-3deba09c38fb))
  (pad "63" smd rect (at 2.6 -1.355) (size 0.23 0.66) (layers "F.Cu" "F.Paste" "F.Mask") (tstamp 46929d6b-845e-4ce5-8c86-6f1b201f2eb9))
  (pad "64" smd rect (at 2.6 1.355) (size 0.23 0.66) (layers "F.Cu" "F.Paste" "F.Mask") (tstamp 338b0c91-d03c-4d48-914e-03cb5ad9c793))
  (pad "65" smd rect (at 3 -1.355) (size 0.23 0.66) (layers "F.Cu" "F.Paste" "F.Mask") (tstamp 308f26f5-d920-4a07-9012-549b0ce64df5))
  (pad "66" smd rect (at 3 1.355) (size 0.23 0.66) (layers "F.Cu" "F.Paste" "F.Mask") (tstamp 9887d4b8-3bf2-4abd-8154-3404f6f9ce7f))
  (pad "67" smd rect (at 3.4 -1.355) (size 0.23 0.66) (layers "F.Cu" "F.Paste" "F.Mask") (tstamp 744eb58e-d826-46bc-b143-cf9ead52411b))
  (pad "68" smd rect (at 3.4 1.355) (size 0.23 0.66) (layers "F.Cu" "F.Paste" "F.Mask") (tstamp 024aa946-e16b-4105-849c-f0f612aef4b6))
  (pad "69" smd rect (at 3.8 -1.355) (size 0.23 0.66) (layers "F.Cu" "F.Paste" "F.Mask") (tstamp 568aa5db-a27b-4563-ab66-ae3fdc770337))
  (pad "70" smd rect (at 3.8 1.355) (size 0.23 0.66) (layers "F.Cu" "F.Paste" "F.Mask") (tstamp b69011ab-3d3e-4e31-a88c-53320cdb5d5d))
  (pad "71" smd rect (at 4.2 -1.355) (size 0.23 0.66) (layers "F.Cu" "F.Paste" "F.Mask") (tstamp cd1dba93-dfb4-4658-8859-19450eb89a07))
  (pad "72" smd rect (at 4.2 1.355) (size 0.23 0.66) (layers "F.Cu" "F.Paste" "F.Mask") (tstamp 241a2d2c-9599-42d3-a45b-a3a924afdc77))
  (pad "73" smd rect (at 4.6 -1.355) (size 0.23 0.66) (layers "F.Cu" "F.Paste" "F.Mask") (tstamp e254c458-9da0-4788-99a8-5a03de3a501a))
  (pad "74" smd rect (at 4.6 1.355) (size 0.23 0.66) (layers "F.Cu" "F.Paste" "F.Mask") (tstamp b121e60c-ea66-4516-a88a-b988f1a5fdf0))
  (pad "75" smd rect (at 5 -1.355) (size 0.23 0.66) (layers "F.Cu" "F.Paste" "F.Mask") (tstamp 3ff3544c-dc5c-4702-a579-a872e698be5b))
  (pad "76" smd rect (at 5 1.355) (size 0.23 0.66) (layers "F.Cu" "F.Paste" "F.Mask") (tstamp ed3713c4-77e9-465f-b83e-97f596c3c867))
  (pad "77" smd rect (at 5.4 -1.355) (size 0.23 0.66) (layers "F.Cu" "F.Paste" "F.Mask") (tstamp 1f8d4c21-37c3-4c3c-8648-a3eb1eb99393))
  (pad "78" smd rect (at 5.4 1.355) (size 0.23 0.66) (layers "F.Cu" "F.Paste" "F.Mask") (tstamp bfb3a78c-f0cc-4d94-a383-b1819cce0088))
  (pad "79" smd rect (at 5.8 -1.355) (size 0.23 0.66) (layers "F.Cu" "F.Paste" "F.Mask") (tstamp 192b0036-d89d-495e-a96d-42360b3086ee))
  (pad "80" smd rect (at 5.8 1.355) (size 0.23 0.66) (layers "F.Cu" "F.Paste" "F.Mask") (tstamp f07c95d4-4b14-4fb5-961a-d31987afac4a))
  (pad "81" smd rect (at 6.2 -1.355) (size 0.23 0.66) (layers "F.Cu" "F.Paste" "F.Mask") (tstamp 972df638-5764-4582-a742-d845e8d03fea))
  (pad "82" smd rect (at 6.2 1.355) (size 0.23 0.66) (layers "F.Cu" "F.Paste" "F.Mask") (tstamp 0cb9c61c-9e38-4dfb-8713-c95a3ad2ea6d))
  (pad "83" smd rect (at 6.6 -1.355) (size 0.23 0.66) (layers "F.Cu" "F.Paste" "F.Mask") (tstamp 6250d161-a28f-448f-ac4c-55f0a560d1c5))
  (pad "84" smd rect (at 6.6 1.355) (size 0.23 0.66) (layers "F.Cu" "F.Paste" "F.Mask") (tstamp 035e1844-444d-412c-a294-e18e97f6d7e3))
  (pad "85" smd rect (at 7 -1.355) (size 0.23 0.66) (layers "F.Cu" "F.Paste" "F.Mask") (tstamp 11e6a880-3583-4854-966b-19660ba1a089))
  (pad "86" smd rect (at 7 1.355) (size 0.23 0.66) (layers "F.Cu" "F.Paste" "F.Mask") (tstamp 5874e189-c4bb-49ac-9ac4-919c810cc675))
  (pad "87" smd rect (at 7.4 -1.355) (size 0.23 0.66) (layers "F.Cu" "F.Paste" "F.Mask") (tstamp b3a4114f-6c5c-4e9f-9e18-1bfa05923358))
  (pad "88" smd rect (at 7.4 1.355) (size 0.23 0.66) (layers "F.Cu" "F.Paste" "F.Mask") (tstamp 98ee561e-da00-450f-95da-c458eba82a52))
  (pad "89" smd rect (at 7.8 -1.355) (size 0.23 0.66) (layers "F.Cu" "F.Paste" "F.Mask") (tstamp 26b1bbc6-72d3-44e9-a5ce-0e6ac2fc7cf4))
  (pad "90" smd rect (at 7.8 1.355) (size 0.23 0.66) (layers "F.Cu" "F.Paste" "F.Mask") (tstamp 57e87858-872e-422d-b165-393264229e50))
  (pad "91" smd rect (at 8.2 -1.355) (size 0.23 0.66) (layers "F.Cu" "F.Paste" "F.Mask") (tstamp bb095af8-1b7c-4899-9e35-338838ab0bac))
  (pad "92" smd rect (at 8.2 1.355) (size 0.23 0.66) (layers "F.Cu" "F.Paste" "F.Mask") (tstamp b52d3d3f-e556-4fbd-b7c7-caeaa648e8dc))
  (pad "93" smd rect (at 8.6 -1.355) (size 0.23 0.66) (layers "F.Cu" "F.Paste" "F.Mask") (tstamp 9c97bb84-c8eb-4825-ac10-46530eb60cc8))
  (pad "94" smd rect (at 8.6 1.355) (size 0.23 0.66) (layers "F.Cu" "F.Paste" "F.Mask") (tstamp dca0843e-07de-46e5-905e-5daed5d278ed))
  (pad "95" smd rect (at 9 -1.355) (size 0.23 0.66) (layers "F.Cu" "F.Paste" "F.Mask") (tstamp 10ae14fd-32ab-4f81-9faf-557f2c2128a7))
  (pad "96" smd rect (at 9 1.355) (size 0.23 0.66) (layers "F.Cu" "F.Paste" "F.Mask") (tstamp 162a9844-5393-4cf7-8996-e27edcc0e391))
  (pad "97" smd rect (at 9.4 -1.355) (size 0.23 0.66) (layers "F.Cu" "F.Paste" "F.Mask") (tstamp 7b80d9b8-aeca-47ba-a9eb-77451272e7e2))
  (pad "98" smd rect (at 9.4 1.355) (size 0.23 0.66) (layers "F.Cu" "F.Paste" "F.Mask") (tstamp d2db84a6-97c3-4cff-97b8-fe13fdbb13ed))
  (pad "99" smd rect (at 9.8 -1.355) (size 0.23 0.66) (layers "F.Cu" "F.Paste" "F.Mask") (tstamp 4f6e7dad-ee82-46c4-816f-314644f4e077))
  (pad "100" smd rect (at 9.8 1.355) (size 0.23 0.66) (layers "F.Cu" "F.Paste" "F.Mask") (tstamp 4c82e69a-f0f0-4456-ba16-7f6cf77f0b19))
  (pad "MP" smd rect (at -10.275 -1.355) (size 0.35 0.66) (layers "F.Cu" "F.Paste" "F.Mask") (tstamp 325bf149-fd26-4bd6-9213-723aa6ab6e04))
  (pad "MP" smd rect (at -10.275 1.355) (size 0.35 0.66) (layers "F.Cu" "F.Paste" "F.Mask") (tstamp 318afa5c-dfca-4f6f-a34c-4af167c6da8d))
  (pad "MP" smd rect (at 10.275 -1.355) (size 0.35 0.66) (layers "F.Cu" "F.Paste" "F.Mask") (tstamp c417ef7f-17ec-4a9b-b6bd-b722b999f2eb))
  (pad "MP" smd rect (at 10.275 1.355) (size 0.35 0.66) (layers "F.Cu" "F.Paste" "F.Mask") (tstamp 1814b893-a79e-49bb-9266-4eb85fe9e03d))
  (model "${KIPRJMOD}/kicad-libraries/3dmodels/DF40C-100DP.stp"
    (offset (xyz 6.75 -1 0.6))
    (scale (xyz 1 1 1))
    (rotate (xyz -90 0 90))
  )
)
