(footprint "Connector_Samtec_QSH-060-01-X-D-A"
	(version 20240108)
	(generator "pcbnew")
	(generator_version "8.0")
	(layer "F.Cu")
	(property "Reference" "REF**"
		(at -17.325 -5.135 0)
		(layer "F.SilkS")
		(uuid "cbba35e9-7f25-4610-98ce-973588203bf2")
		(effects
			(font
				(size 1 1)
				(thickness 0.15)
			)
		)
	)
	(property "Value" "Connector_Samtec_QSH-060-01-X-D-A"
		(at -5.895 5.865 0)
		(layer "F.Fab")
		(uuid "9d090c06-8d30-4a0c-b930-9460823a223f")
		(effects
			(font
				(size 1 1)
				(thickness 0.15)
			)
		)
	)
	(property "Footprint" ""
		(at 0 0 0)
		(unlocked yes)
		(layer "F.Fab")
		(hide yes)
		(uuid "08ec365a-f1ca-4889-9aed-abbe4c4f38c1")
		(effects
			(font
				(size 1.27 1.27)
			)
		)
	)
	(property "Datasheet" ""
		(at 0 0 0)
		(unlocked yes)
		(layer "F.Fab")
		(hide yes)
		(uuid "018d7ce2-3fd6-4a07-9ab1-6b908ddcede3")
		(effects
			(font
				(size 1.27 1.27)
			)
		)
	)
	(property "Description" ""
		(at 0 0 0)
		(unlocked yes)
		(layer "F.Fab")
		(hide yes)
		(uuid "54297605-ca26-49aa-aa36-02a782767d80")
		(effects
			(font
				(size 1.27 1.27)
			)
		)
	)
	(attr smd)
	(fp_line
		(start -20.655 -3.62)
		(end -17.75 -3.62)
		(stroke
			(width 0.2)
			(type solid)
		)
		(layer "F.SilkS")
		(uuid "bd4a1b7d-6900-47aa-bb0f-feec5f1b8e39")
	)
	(fp_line
		(start -20.655 3.62)
		(end -20.655 -1.75)
		(stroke
			(width 0.2)
			(type solid)
		)
		(layer "F.SilkS")
		(uuid "0f592ea0-8f24-4644-a870-510be473a7ba")
	)
	(fp_line
		(start -17.75 3.62)
		(end -20.655 3.62)
		(stroke
			(width 0.2)
			(type solid)
		)
		(layer "F.SilkS")
		(uuid "880d5d20-cf4f-4f64-9f11-61bd29e27bcd")
	)
	(fp_line
		(start -2.26 -3.62)
		(end 2.26 -3.62)
		(stroke
			(width 0.2)
			(type solid)
		)
		(layer "F.SilkS")
		(uuid "6c0c6910-9973-428a-bbdb-559ea3a015af")
	)
	(fp_line
		(start -2.26 3.62)
		(end 2.26 3.62)
		(stroke
			(width 0.2)
			(type solid)
		)
		(layer "F.SilkS")
		(uuid "66b973ff-e02e-478e-99b3-06efd3927dac")
	)
	(fp_line
		(start 17.75 -3.62)
		(end 20.655 -3.62)
		(stroke
			(width 0.2)
			(type solid)
		)
		(layer "F.SilkS")
		(uuid "893dccf9-f6a2-4e4e-ba75-e41eece7da1b")
	)
	(fp_line
		(start 20.655 -1.75)
		(end 20.655 3.62)
		(stroke
			(width 0.2)
			(type solid)
		)
		(layer "F.SilkS")
		(uuid "0f715f8e-8d2b-4066-b1f6-c4cc8db99c47")
	)
	(fp_line
		(start 20.655 3.62)
		(end 17.75 3.62)
		(stroke
			(width 0.2)
			(type solid)
		)
		(layer "F.SilkS")
		(uuid "d6a6f9c4-33a1-407d-acb5-edaf938d0770")
	)
	(fp_circle
		(center -17.2529 4.7)
		(end -17.1529 4.7)
		(stroke
			(width 0.2)
			(type solid)
		)
		(fill none)
		(layer "F.SilkS")
		(uuid "9a389949-ad62-42a4-ba68-acbd9a1cc0be")
	)
	(fp_line
		(start -20.905 -4.25)
		(end -20.905 4.25)
		(stroke
			(width 0.05)
			(type solid)
		)
		(layer "F.CrtYd")
		(uuid "62224dd2-5576-418b-82bd-fe5cfff78304")
	)
	(fp_line
		(start -20.905 4.25)
		(end 20.905 4.25)
		(stroke
			(width 0.05)
			(type solid)
		)
		(layer "F.CrtYd")
		(uuid "0fe15c42-8677-4bd4-b845-f55ec6fcd3e1")
	)
	(fp_line
		(start 20.905 -4.25)
		(end -20.905 -4.25)
		(stroke
			(width 0.05)
			(type solid)
		)
		(layer "F.CrtYd")
		(uuid "e322a9ac-56cb-4147-97a9-3b05034e4612")
	)
	(fp_line
		(start 20.905 4.25)
		(end 20.905 -4.25)
		(stroke
			(width 0.05)
			(type solid)
		)
		(layer "F.CrtYd")
		(uuid "c865a140-6ce2-48ea-9f8a-1d40df9e1afb")
	)
	(fp_line
		(start -20.655 -3.62)
		(end 20.655 -3.62)
		(stroke
			(width 0.1)
			(type solid)
		)
		(layer "F.Fab")
		(uuid "4a25d6a3-7441-4960-bca5-5ea5ce034873")
	)
	(fp_line
		(start -20.655 3.62)
		(end -20.655 -3.62)
		(stroke
			(width 0.1)
			(type solid)
		)
		(layer "F.Fab")
		(uuid "11bf1329-b87a-460d-8f83-15bc2f4e6c16")
	)
	(fp_line
		(start 20.655 -3.62)
		(end 20.655 3.62)
		(stroke
			(width 0.1)
			(type solid)
		)
		(layer "F.Fab")
		(uuid "b00e6658-f277-491b-88db-43f8a4cf81b0")
	)
	(fp_line
		(start 20.655 3.62)
		(end -20.655 3.62)
		(stroke
			(width 0.1)
			(type solid)
		)
		(layer "F.Fab")
		(uuid "b0977f65-a0ec-441d-a7f2-97dee67403fb")
	)
	(fp_circle
		(center -17.2529 4.7)
		(end -17.1529 4.7)
		(stroke
			(width 0.2)
			(type solid)
		)
		(fill none)
		(layer "F.Fab")
		(uuid "9549f5b6-abb1-487d-b8b6-19c4641df2bf")
	)
	(pad "" np_thru_hole circle
		(at -20.065 -2.67)
		(size 1.02 1.02)
		(drill 1.02)
		(layers "*.Cu" "*.Mask")
		(uuid "a15c3e88-ad44-45eb-af5e-c85ea8009192")
	)
	(pad "" np_thru_hole circle
		(at 20.065 -2.67)
		(size 1.02 1.02)
		(drill 1.02)
		(layers "*.Cu" "*.Mask")
		(uuid "03cb876f-e330-4f2d-893e-f6be52248213")
	)
	(pad "1" smd rect
		(at -17.2529 2.865)
		(size 0.279 2.27)
		(layers "F.Cu" "F.Paste" "F.Mask")
		(uuid "9ef148aa-f6f4-44ce-a514-d31f02cd944a")
	)
	(pad "2" smd rect
		(at -17.2529 -2.865)
		(size 0.279 2.27)
		(layers "F.Cu" "F.Paste" "F.Mask")
		(uuid "d6281964-27c2-49f3-991f-cd2534c7b6c5")
	)
	(pad "3" smd rect
		(at -16.7528 2.865)
		(size 0.279 2.27)
		(layers "F.Cu" "F.Paste" "F.Mask")
		(uuid "f751be9e-cb98-45cd-8821-20cd551033c4")
	)
	(pad "4" smd rect
		(at -16.7528 -2.865)
		(size 0.279 2.27)
		(layers "F.Cu" "F.Paste" "F.Mask")
		(uuid "2e35fbf2-9ab7-4748-bd32-342952e2f2c3")
	)
	(pad "5" smd rect
		(at -16.2527 2.865)
		(size 0.279 2.27)
		(layers "F.Cu" "F.Paste" "F.Mask")
		(uuid "a9ddfe7b-ae2e-4ed5-aabc-8c9f27f96eb8")
	)
	(pad "6" smd rect
		(at -16.2527 -2.865)
		(size 0.279 2.27)
		(layers "F.Cu" "F.Paste" "F.Mask")
		(uuid "d7eea2be-8b0b-4f2e-ab20-fc96ef0f5b4e")
	)
	(pad "7" smd rect
		(at -15.7526 2.865)
		(size 0.279 2.27)
		(layers "F.Cu" "F.Paste" "F.Mask")
		(uuid "9fa3cb80-e1e0-4a17-a691-9f784e85b041")
	)
	(pad "8" smd rect
		(at -15.7526 -2.865)
		(size 0.279 2.27)
		(layers "F.Cu" "F.Paste" "F.Mask")
		(uuid "46232a42-fed6-4d66-a550-4a2882db9bbf")
	)
	(pad "9" smd rect
		(at -15.2525 2.865)
		(size 0.279 2.27)
		(layers "F.Cu" "F.Paste" "F.Mask")
		(uuid "b33f7c30-8bc9-44cf-b718-2ea11de70265")
	)
	(pad "10" smd rect
		(at -15.2525 -2.865)
		(size 0.279 2.27)
		(layers "F.Cu" "F.Paste" "F.Mask")
		(uuid "bdf590b1-fd79-4d47-9fbb-bf6be2e1eb26")
	)
	(pad "11" smd rect
		(at -14.7524 2.865)
		(size 0.279 2.27)
		(layers "F.Cu" "F.Paste" "F.Mask")
		(uuid "a838bbcd-12a3-42bc-8d09-e6beacbd7a06")
	)
	(pad "12" smd rect
		(at -14.7524 -2.865)
		(size 0.279 2.27)
		(layers "F.Cu" "F.Paste" "F.Mask")
		(uuid "edd1eeb9-6772-4e3c-8985-74f3314ad9ec")
	)
	(pad "13" smd rect
		(at -14.2523 2.865)
		(size 0.279 2.27)
		(layers "F.Cu" "F.Paste" "F.Mask")
		(uuid "5f1db0ec-e0ec-4a77-9703-c7fe4bcd7609")
	)
	(pad "14" smd rect
		(at -14.2523 -2.865)
		(size 0.279 2.27)
		(layers "F.Cu" "F.Paste" "F.Mask")
		(uuid "67b411f8-8fc7-4fbd-b439-3522fd92f875")
	)
	(pad "15" smd rect
		(at -13.7523 2.865)
		(size 0.279 2.27)
		(layers "F.Cu" "F.Paste" "F.Mask")
		(uuid "ce1c7f70-0876-4712-ae94-a0ab21fcf585")
	)
	(pad "16" smd rect
		(at -13.7523 -2.865)
		(size 0.279 2.27)
		(layers "F.Cu" "F.Paste" "F.Mask")
		(uuid "cf8a0316-f4af-492d-a045-892a9311b886")
	)
	(pad "17" smd rect
		(at -13.2522 2.865)
		(size 0.279 2.27)
		(layers "F.Cu" "F.Paste" "F.Mask")
		(uuid "4c74415c-b972-493b-895d-2cc95c04a1eb")
	)
	(pad "18" smd rect
		(at -13.2522 -2.865)
		(size 0.279 2.27)
		(layers "F.Cu" "F.Paste" "F.Mask")
		(uuid "946bdbd2-93fe-412e-ad60-20ac5706aa80")
	)
	(pad "19" smd rect
		(at -12.7521 2.865)
		(size 0.279 2.27)
		(layers "F.Cu" "F.Paste" "F.Mask")
		(uuid "60782326-ea88-4b37-b46d-707c0f849e74")
	)
	(pad "20" smd rect
		(at -12.7521 -2.865)
		(size 0.279 2.27)
		(layers "F.Cu" "F.Paste" "F.Mask")
		(uuid "0349991d-5cab-4516-aeb5-6de15fda735d")
	)
	(pad "21" smd rect
		(at -12.252 2.865)
		(size 0.279 2.27)
		(layers "F.Cu" "F.Paste" "F.Mask")
		(uuid "406ea43e-d440-4e23-bd11-9ecfda1f244c")
	)
	(pad "22" smd rect
		(at -12.252 -2.865)
		(size 0.279 2.27)
		(layers "F.Cu" "F.Paste" "F.Mask")
		(uuid "fb1ff822-731e-4a24-aae1-bee606ed163a")
	)
	(pad "23" smd rect
		(at -11.7518 2.865)
		(size 0.279 2.27)
		(layers "F.Cu" "F.Paste" "F.Mask")
		(uuid "b29373d8-35b4-4a4d-904f-157a22df47a2")
	)
	(pad "24" smd rect
		(at -11.7518 -2.865)
		(size 0.279 2.27)
		(layers "F.Cu" "F.Paste" "F.Mask")
		(uuid "b00c2b15-8886-4905-953b-6c2e03a05480")
	)
	(pad "25" smd rect
		(at -11.2517 2.865)
		(size 0.279 2.27)
		(layers "F.Cu" "F.Paste" "F.Mask")
		(uuid "085aa62e-9d77-47f8-b090-e767c3f1a08c")
	)
	(pad "26" smd rect
		(at -11.2517 -2.865)
		(size 0.279 2.27)
		(layers "F.Cu" "F.Paste" "F.Mask")
		(uuid "4cecd1fa-f261-4888-a3c4-129e5489e0a8")
	)
	(pad "27" smd rect
		(at -10.7516 2.865)
		(size 0.279 2.27)
		(layers "F.Cu" "F.Paste" "F.Mask")
		(uuid "57ea9d25-43b2-4ced-a6aa-94988b651342")
	)
	(pad "28" smd rect
		(at -10.7516 -2.865)
		(size 0.279 2.27)
		(layers "F.Cu" "F.Paste" "F.Mask")
		(uuid "bb145310-4369-4a03-820a-d79acf5333de")
	)
	(pad "29" smd rect
		(at -10.2515 2.865)
		(size 0.279 2.27)
		(layers "F.Cu" "F.Paste" "F.Mask")
		(uuid "2e078257-3178-4565-ae1d-923c5ae9f6c2")
	)
	(pad "30" smd rect
		(at -10.2515 -2.865)
		(size 0.279 2.27)
		(layers "F.Cu" "F.Paste" "F.Mask")
		(uuid "8bf38a37-361f-42e4-ae35-27acaa1d279d")
	)
	(pad "31" smd rect
		(at -9.75145 2.865)
		(size 0.279 2.27)
		(layers "F.Cu" "F.Paste" "F.Mask")
		(uuid "c00df893-67ae-4e6b-b2ad-5d29dd66f3b1")
	)
	(pad "32" smd rect
		(at -9.75145 -2.865)
		(size 0.279 2.27)
		(layers "F.Cu" "F.Paste" "F.Mask")
		(uuid "79439ac1-6fb8-4cfb-8ad8-a3052dcd4924")
	)
	(pad "33" smd rect
		(at -9.25135 2.865)
		(size 0.279 2.27)
		(layers "F.Cu" "F.Paste" "F.Mask")
		(uuid "837ebc3a-4c0c-43bc-8379-0e85612b2951")
	)
	(pad "34" smd rect
		(at -9.25135 -2.865)
		(size 0.279 2.27)
		(layers "F.Cu" "F.Paste" "F.Mask")
		(uuid "8de8fb50-fb0f-45d3-95e2-ddeb18a63684")
	)
	(pad "35" smd rect
		(at -8.75125 2.865)
		(size 0.279 2.27)
		(layers "F.Cu" "F.Paste" "F.Mask")
		(uuid "81747686-0b76-42d9-a5e8-8e981fb5909f")
	)
	(pad "36" smd rect
		(at -8.75125 -2.865)
		(size 0.279 2.27)
		(layers "F.Cu" "F.Paste" "F.Mask")
		(uuid "a51c8f96-0d43-41f2-bd08-3ac056420640")
	)
	(pad "37" smd rect
		(at -8.25115 2.865)
		(size 0.279 2.27)
		(layers "F.Cu" "F.Paste" "F.Mask")
		(uuid "8c71f36a-a3f3-48dd-a764-306ce05977bc")
	)
	(pad "38" smd rect
		(at -8.25115 -2.865)
		(size 0.279 2.27)
		(layers "F.Cu" "F.Paste" "F.Mask")
		(uuid "89694522-ac60-4479-a068-e5a7fd029a2e")
	)
	(pad "39" smd rect
		(at -7.75105 2.865)
		(size 0.279 2.27)
		(layers "F.Cu" "F.Paste" "F.Mask")
		(uuid "b55acb83-6084-4321-8e73-299028fd2274")
	)
	(pad "40" smd rect
		(at -7.75105 -2.865)
		(size 0.279 2.27)
		(layers "F.Cu" "F.Paste" "F.Mask")
		(uuid "2e46614e-98eb-4fbf-b76b-62be8b8e0970")
	)
	(pad "41" smd rect
		(at -7.25095 2.865)
		(size 0.279 2.27)
		(layers "F.Cu" "F.Paste" "F.Mask")
		(uuid "185b1ebc-ef0a-4927-a227-47523ebc2f77")
	)
	(pad "42" smd rect
		(at -7.25095 -2.865)
		(size 0.279 2.27)
		(layers "F.Cu" "F.Paste" "F.Mask")
		(uuid "95ef5640-608a-4801-87fc-d28eccebaaf9")
	)
	(pad "43" smd rect
		(at -6.75085 2.865)
		(size 0.279 2.27)
		(layers "F.Cu" "F.Paste" "F.Mask")
		(uuid "a56fecf6-1f0f-46cb-b7aa-c7ebb331cad6")
	)
	(pad "44" smd rect
		(at -6.75085 -2.865)
		(size 0.279 2.27)
		(layers "F.Cu" "F.Paste" "F.Mask")
		(uuid "e3141beb-8fe4-4c4b-a0b4-f7c675a13716")
	)
	(pad "45" smd rect
		(at -6.25075 2.865)
		(size 0.279 2.27)
		(layers "F.Cu" "F.Paste" "F.Mask")
		(uuid "bd71e442-fa0e-4918-b333-95f928e30918")
	)
	(pad "46" smd rect
		(at -6.25075 -2.865)
		(size 0.279 2.27)
		(layers "F.Cu" "F.Paste" "F.Mask")
		(uuid "30e3a868-9097-43f2-867f-573614c27b78")
	)
	(pad "47" smd rect
		(at -5.75065 2.865)
		(size 0.279 2.27)
		(layers "F.Cu" "F.Paste" "F.Mask")
		(uuid "66a4eb06-63e5-4540-b037-ef522db51aa6")
	)
	(pad "48" smd rect
		(at -5.75065 -2.865)
		(size 0.279 2.27)
		(layers "F.Cu" "F.Paste" "F.Mask")
		(uuid "98095785-d5da-41bb-9952-4794b259f2ae")
	)
	(pad "49" smd rect
		(at -5.25055 2.865)
		(size 0.279 2.27)
		(layers "F.Cu" "F.Paste" "F.Mask")
		(uuid "7ed9f290-66ae-4ae2-8167-4d3f91c40fc0")
	)
	(pad "50" smd rect
		(at -5.25055 -2.865)
		(size 0.279 2.27)
		(layers "F.Cu" "F.Paste" "F.Mask")
		(uuid "74ee9824-04ca-473b-aa75-359aa1fde91c")
	)
	(pad "51" smd rect
		(at -4.75045 2.865)
		(size 0.279 2.27)
		(layers "F.Cu" "F.Paste" "F.Mask")
		(uuid "732f7447-b5d5-4107-8780-7b6fa29b9973")
	)
	(pad "52" smd rect
		(at -4.75045 -2.865)
		(size 0.279 2.27)
		(layers "F.Cu" "F.Paste" "F.Mask")
		(uuid "9dc37d1b-8621-4088-b206-9cd8b1371239")
	)
	(pad "53" smd rect
		(at -4.25035 2.865)
		(size 0.279 2.27)
		(layers "F.Cu" "F.Paste" "F.Mask")
		(uuid "0e0e8f6f-8ad6-4af5-8c1f-7d6a44c63b2f")
	)
	(pad "54" smd rect
		(at -4.25035 -2.865)
		(size 0.279 2.27)
		(layers "F.Cu" "F.Paste" "F.Mask")
		(uuid "243f0153-8ceb-491b-b4f1-3360b0ea8735")
	)
	(pad "55" smd rect
		(at -3.75025 2.865)
		(size 0.279 2.27)
		(layers "F.Cu" "F.Paste" "F.Mask")
		(uuid "e25371b2-84c0-4577-916a-397ef76185ef")
	)
	(pad "56" smd rect
		(at -3.75025 -2.865)
		(size 0.279 2.27)
		(layers "F.Cu" "F.Paste" "F.Mask")
		(uuid "24cd1422-18fa-4172-a62c-b80c654799ef")
	)
	(pad "57" smd rect
		(at -3.25015 2.865)
		(size 0.279 2.27)
		(layers "F.Cu" "F.Paste" "F.Mask")
		(uuid "01484a91-dd49-43bd-ae59-af279e923406")
	)
	(pad "58" smd rect
		(at -3.25015 -2.865)
		(size 0.279 2.27)
		(layers "F.Cu" "F.Paste" "F.Mask")
		(uuid "23db30ff-949f-4369-8806-bc70119d46b1")
	)
	(pad "59" smd rect
		(at -2.75005 2.865)
		(size 0.279 2.27)
		(layers "F.Cu" "F.Paste" "F.Mask")
		(uuid "e6f90783-7801-4f0e-83e9-90cf135558dc")
	)
	(pad "60" smd rect
		(at -2.75005 -2.865)
		(size 0.279 2.27)
		(layers "F.Cu" "F.Paste" "F.Mask")
		(uuid "149c05f1-f89f-4646-8d28-37514aa5d410")
	)
	(pad "61" smd rect
		(at 2.75005 2.865)
		(size 0.279 2.27)
		(layers "F.Cu" "F.Paste" "F.Mask")
		(uuid "6dd6b915-8916-4d60-994f-27c35b2fe3f5")
	)
	(pad "62" smd rect
		(at 2.75005 -2.865)
		(size 0.279 2.27)
		(layers "F.Cu" "F.Paste" "F.Mask")
		(uuid "e40a5c25-6af5-4791-99c8-e9407b772055")
	)
	(pad "63" smd rect
		(at 3.25015 2.865)
		(size 0.279 2.27)
		(layers "F.Cu" "F.Paste" "F.Mask")
		(uuid "74f979e1-456f-4206-8e25-1317cae3f278")
	)
	(pad "64" smd rect
		(at 3.25015 -2.865)
		(size 0.279 2.27)
		(layers "F.Cu" "F.Paste" "F.Mask")
		(uuid "d83887c2-d239-4218-996f-db99b594aada")
	)
	(pad "65" smd rect
		(at 3.75025 2.865)
		(size 0.279 2.27)
		(layers "F.Cu" "F.Paste" "F.Mask")
		(uuid "24875739-f13e-404e-9900-e3ea0c98835f")
	)
	(pad "66" smd rect
		(at 3.75025 -2.865)
		(size 0.279 2.27)
		(layers "F.Cu" "F.Paste" "F.Mask")
		(uuid "29c61058-a730-4e7c-a6fe-e8b08f2dc1b6")
	)
	(pad "67" smd rect
		(at 4.25035 2.865)
		(size 0.279 2.27)
		(layers "F.Cu" "F.Paste" "F.Mask")
		(uuid "dfd8c253-aa5a-4ce9-afeb-c26a67c81935")
	)
	(pad "68" smd rect
		(at 4.25035 -2.865)
		(size 0.279 2.27)
		(layers "F.Cu" "F.Paste" "F.Mask")
		(uuid "c3f4a8cf-3cbf-49c4-89be-cc8990dc4358")
	)
	(pad "69" smd rect
		(at 4.75045 2.865)
		(size 0.279 2.27)
		(layers "F.Cu" "F.Paste" "F.Mask")
		(uuid "12361c08-cc54-4662-a807-4a6ef2aa638c")
	)
	(pad "70" smd rect
		(at 4.75045 -2.865)
		(size 0.279 2.27)
		(layers "F.Cu" "F.Paste" "F.Mask")
		(uuid "2a38904f-d81a-4c9d-aa54-c5e7d64d405f")
	)
	(pad "71" smd rect
		(at 5.25055 2.865)
		(size 0.279 2.27)
		(layers "F.Cu" "F.Paste" "F.Mask")
		(uuid "f6844434-e02e-4d7c-b57c-a46e42a35f16")
	)
	(pad "72" smd rect
		(at 5.25055 -2.865)
		(size 0.279 2.27)
		(layers "F.Cu" "F.Paste" "F.Mask")
		(uuid "80d8eb4f-029c-4a35-98b9-213274330b82")
	)
	(pad "73" smd rect
		(at 5.75065 2.865)
		(size 0.279 2.27)
		(layers "F.Cu" "F.Paste" "F.Mask")
		(uuid "e613d352-bc26-4096-9191-6898c4fd1123")
	)
	(pad "74" smd rect
		(at 5.75065 -2.865)
		(size 0.279 2.27)
		(layers "F.Cu" "F.Paste" "F.Mask")
		(uuid "66f21ac7-dda9-46f5-b702-77e392201688")
	)
	(pad "75" smd rect
		(at 6.25075 2.865)
		(size 0.279 2.27)
		(layers "F.Cu" "F.Paste" "F.Mask")
		(uuid "3223e92a-32d7-4ab1-ac9f-f42f5b64f444")
	)
	(pad "76" smd rect
		(at 6.25075 -2.865)
		(size 0.279 2.27)
		(layers "F.Cu" "F.Paste" "F.Mask")
		(uuid "92f1cd3e-c567-4a86-91e8-14942cc1a250")
	)
	(pad "77" smd rect
		(at 6.75085 2.865)
		(size 0.279 2.27)
		(layers "F.Cu" "F.Paste" "F.Mask")
		(uuid "52e55020-8ff1-4e8d-93f0-a137f1ab333e")
	)
	(pad "78" smd rect
		(at 6.75085 -2.865)
		(size 0.279 2.27)
		(layers "F.Cu" "F.Paste" "F.Mask")
		(uuid "1ea6eb04-7bc4-41e8-b706-50705ef8cb0a")
	)
	(pad "79" smd rect
		(at 7.25095 2.865)
		(size 0.279 2.27)
		(layers "F.Cu" "F.Paste" "F.Mask")
		(uuid "ec9548a7-9c68-4f1e-8886-12facbe65cb9")
	)
	(pad "80" smd rect
		(at 7.25095 -2.865)
		(size 0.279 2.27)
		(layers "F.Cu" "F.Paste" "F.Mask")
		(uuid "5e0a7fa0-9f39-4949-b7e3-bbb52a6f46f7")
	)
	(pad "81" smd rect
		(at 7.75105 2.865)
		(size 0.279 2.27)
		(layers "F.Cu" "F.Paste" "F.Mask")
		(uuid "2bd5552d-55c5-42b0-bf5e-bedd37037760")
	)
	(pad "82" smd rect
		(at 7.75105 -2.865)
		(size 0.279 2.27)
		(layers "F.Cu" "F.Paste" "F.Mask")
		(uuid "5d014c7d-25fc-4e77-884e-a969ae5cc903")
	)
	(pad "83" smd rect
		(at 8.25115 2.865)
		(size 0.279 2.27)
		(layers "F.Cu" "F.Paste" "F.Mask")
		(uuid "8b2b45e4-ebd5-415e-ba59-02b82e98ba5b")
	)
	(pad "84" smd rect
		(at 8.25115 -2.865)
		(size 0.279 2.27)
		(layers "F.Cu" "F.Paste" "F.Mask")
		(uuid "4550cb80-6d58-4a85-93ef-7cfd5d3f0e37")
	)
	(pad "85" smd rect
		(at 8.75125 2.865)
		(size 0.279 2.27)
		(layers "F.Cu" "F.Paste" "F.Mask")
		(uuid "684e564a-50aa-4221-b4fb-8d9e4ad0b6be")
	)
	(pad "86" smd rect
		(at 8.75125 -2.865)
		(size 0.279 2.27)
		(layers "F.Cu" "F.Paste" "F.Mask")
		(uuid "c9df1295-0229-46d9-87e0-aa9238fd8d8e")
	)
	(pad "87" smd rect
		(at 9.25135 2.865)
		(size 0.279 2.27)
		(layers "F.Cu" "F.Paste" "F.Mask")
		(uuid "cb8b0b1b-a31c-4e3c-9185-4afb33625bae")
	)
	(pad "88" smd rect
		(at 9.25135 -2.865)
		(size 0.279 2.27)
		(layers "F.Cu" "F.Paste" "F.Mask")
		(uuid "41d32ef3-00b7-46c7-9e84-18a6b338ad5f")
	)
	(pad "89" smd rect
		(at 9.75145 2.865)
		(size 0.279 2.27)
		(layers "F.Cu" "F.Paste" "F.Mask")
		(uuid "03fd1906-079a-4c21-bd97-3ea563a92f7c")
	)
	(pad "90" smd rect
		(at 9.75145 -2.865)
		(size 0.279 2.27)
		(layers "F.Cu" "F.Paste" "F.Mask")
		(uuid "1548efec-d65d-4b1a-aa99-f3bfd1815373")
	)
	(pad "91" smd rect
		(at 10.2515 2.865)
		(size 0.279 2.27)
		(layers "F.Cu" "F.Paste" "F.Mask")
		(uuid "7b145ba8-3e99-4d67-a76a-8f3ba66cfd95")
	)
	(pad "92" smd rect
		(at 10.2515 -2.865)
		(size 0.279 2.27)
		(layers "F.Cu" "F.Paste" "F.Mask")
		(uuid "92edc234-5d7b-484d-9585-cb7afe07c490")
	)
	(pad "93" smd rect
		(at 10.7516 2.865)
		(size 0.279 2.27)
		(layers "F.Cu" "F.Paste" "F.Mask")
		(uuid "7d4b5288-4912-44ad-8749-2421e9de87c9")
	)
	(pad "94" smd rect
		(at 10.7516 -2.865)
		(size 0.279 2.27)
		(layers "F.Cu" "F.Paste" "F.Mask")
		(uuid "c39c084d-8a0f-405d-ab8c-31abe9dcb412")
	)
	(pad "95" smd rect
		(at 11.2517 2.865)
		(size 0.279 2.27)
		(layers "F.Cu" "F.Paste" "F.Mask")
		(uuid "aba425ce-d88b-4029-a39f-d43d496facc5")
	)
	(pad "96" smd rect
		(at 11.2517 -2.865)
		(size 0.279 2.27)
		(layers "F.Cu" "F.Paste" "F.Mask")
		(uuid "0e9f2d7e-21dd-47c8-a578-49700256f44d")
	)
	(pad "97" smd rect
		(at 11.7518 2.865)
		(size 0.279 2.27)
		(layers "F.Cu" "F.Paste" "F.Mask")
		(uuid "8633d2dd-abb3-447b-9173-fb74f5ea8f4f")
	)
	(pad "98" smd rect
		(at 11.7518 -2.865)
		(size 0.279 2.27)
		(layers "F.Cu" "F.Paste" "F.Mask")
		(uuid "5bfd5e9b-69ae-4371-9c5e-0d34ed54bc92")
	)
	(pad "99" smd rect
		(at 12.252 2.865)
		(size 0.279 2.27)
		(layers "F.Cu" "F.Paste" "F.Mask")
		(uuid "d5bd49ab-610d-42e4-91b2-39cd0d30ead5")
	)
	(pad "100" smd rect
		(at 12.252 -2.865)
		(size 0.279 2.27)
		(layers "F.Cu" "F.Paste" "F.Mask")
		(uuid "e571797f-5282-4e76-b933-11484a4e79f4")
	)
	(pad "101" smd rect
		(at 12.7521 2.865)
		(size 0.279 2.27)
		(layers "F.Cu" "F.Paste" "F.Mask")
		(uuid "285c695a-fe3c-48cd-afdb-8950a62b949a")
	)
	(pad "102" smd rect
		(at 12.7521 -2.865)
		(size 0.279 2.27)
		(layers "F.Cu" "F.Paste" "F.Mask")
		(uuid "210ce19a-74c4-4566-9574-2c1584bc338b")
	)
	(pad "103" smd rect
		(at 13.2522 2.865)
		(size 0.279 2.27)
		(layers "F.Cu" "F.Paste" "F.Mask")
		(uuid "2880ec4e-42f5-4165-a0b5-f01e368541aa")
	)
	(pad "104" smd rect
		(at 13.2522 -2.865)
		(size 0.279 2.27)
		(layers "F.Cu" "F.Paste" "F.Mask")
		(uuid "3b71ea77-7233-4d34-9d65-61511d7a12cd")
	)
	(pad "105" smd rect
		(at 13.7523 2.865)
		(size 0.279 2.27)
		(layers "F.Cu" "F.Paste" "F.Mask")
		(uuid "e2fc4945-ec14-4e49-a58c-73a57f3b2dec")
	)
	(pad "106" smd rect
		(at 13.7523 -2.865)
		(size 0.279 2.27)
		(layers "F.Cu" "F.Paste" "F.Mask")
		(uuid "b41df087-c871-4d6e-8bd9-91246ddc68cd")
	)
	(pad "107" smd rect
		(at 14.2523 2.865)
		(size 0.279 2.27)
		(layers "F.Cu" "F.Paste" "F.Mask")
		(uuid "628ecc16-12b2-48fa-8b3d-7dc14850e627")
	)
	(pad "108" smd rect
		(at 14.2523 -2.865)
		(size 0.279 2.27)
		(layers "F.Cu" "F.Paste" "F.Mask")
		(uuid "673098c2-8203-47c3-834c-ea615110b1ac")
	)
	(pad "109" smd rect
		(at 14.7524 2.865)
		(size 0.279 2.27)
		(layers "F.Cu" "F.Paste" "F.Mask")
		(uuid "1c4d3f07-7e41-4dbe-90cd-10397d600598")
	)
	(pad "110" smd rect
		(at 14.7524 -2.865)
		(size 0.279 2.27)
		(layers "F.Cu" "F.Paste" "F.Mask")
		(uuid "896cb38c-4c41-432e-8745-f2fa4e440c45")
	)
	(pad "111" smd rect
		(at 15.2525 2.865)
		(size 0.279 2.27)
		(layers "F.Cu" "F.Paste" "F.Mask")
		(uuid "9bc5d88d-79b4-4f52-8a2f-c496045f9fdf")
	)
	(pad "112" smd rect
		(at 15.2525 -2.865)
		(size 0.279 2.27)
		(layers "F.Cu" "F.Paste" "F.Mask")
		(uuid "0296801d-c887-4ae6-81aa-0c5090cfc3ce")
	)
	(pad "113" smd rect
		(at 15.7526 2.865)
		(size 0.279 2.27)
		(layers "F.Cu" "F.Paste" "F.Mask")
		(uuid "512d410d-a293-44cf-8e04-7bd56f71bea6")
	)
	(pad "114" smd rect
		(at 15.7526 -2.865)
		(size 0.279 2.27)
		(layers "F.Cu" "F.Paste" "F.Mask")
		(uuid "3c074465-e04b-4dcd-bf67-5b16341966c3")
	)
	(pad "115" smd rect
		(at 16.2527 2.865)
		(size 0.279 2.27)
		(layers "F.Cu" "F.Paste" "F.Mask")
		(uuid "45551856-d05c-4bd8-927b-f9ef7fb350e9")
	)
	(pad "116" smd rect
		(at 16.2527 -2.865)
		(size 0.279 2.27)
		(layers "F.Cu" "F.Paste" "F.Mask")
		(uuid "f33cfa4f-8f6c-455e-ae57-b837a1ed7500")
	)
	(pad "117" smd rect
		(at 16.7528 2.865)
		(size 0.279 2.27)
		(layers "F.Cu" "F.Paste" "F.Mask")
		(uuid "e645e694-a7c4-41bd-bb46-1b26aabfa84b")
	)
	(pad "118" smd rect
		(at 16.7528 -2.865)
		(size 0.279 2.27)
		(layers "F.Cu" "F.Paste" "F.Mask")
		(uuid "b3a5738c-24e7-42e1-bfae-d87632560c52")
	)
	(pad "119" smd rect
		(at 17.2529 2.865)
		(size 0.279 2.27)
		(layers "F.Cu" "F.Paste" "F.Mask")
		(uuid "37a59a25-5420-46b5-bda2-743ad2cc97df")
	)
	(pad "120" smd rect
		(at 17.2529 -2.865)
		(size 0.279 2.27)
		(layers "F.Cu" "F.Paste" "F.Mask")
		(uuid "f531e209-b88c-49ef-8c27-3267ca527d9d")
	)
	(pad "SH" smd rect
		(at -18.0665 0)
		(size 2.54 0.43)
		(layers "F.Cu" "F.Paste" "F.Mask")
		(uuid "a0226e8e-fe64-4e94-989c-1b487e581a12")
	)
	(pad "SH" smd rect
		(at -13.1765 0)
		(size 4.7 0.43)
		(layers "F.Cu" "F.Paste" "F.Mask")
		(uuid "82350130-263f-47a5-b6c2-16b1336e1a06")
	)
	(pad "SH" smd rect
		(at -6.8265 0)
		(size 4.7 0.43)
		(layers "F.Cu" "F.Paste" "F.Mask")
		(uuid "620df9e8-098a-4db8-bf01-99620500f58a")
	)
	(pad "SH" smd rect
		(at -1.9365 0)
		(size 2.54 0.43)
		(layers "F.Cu" "F.Paste" "F.Mask")
		(uuid "bb073cce-bc5e-4c80-a9c5-a1b575769665")
	)
	(pad "SH" smd rect
		(at 1.9365 0)
		(size 2.54 0.43)
		(layers "F.Cu" "F.Paste" "F.Mask")
		(uuid "27d3f26a-4c07-452a-9521-ee8ab8618251")
	)
	(pad "SH" smd rect
		(at 6.8265 0)
		(size 4.7 0.43)
		(layers "F.Cu" "F.Paste" "F.Mask")
		(uuid "9b2a196b-c8d1-44b9-9eaf-7016a8e1829c")
	)
	(pad "SH" smd rect
		(at 13.1765 0)
		(size 4.7 0.43)
		(layers "F.Cu" "F.Paste" "F.Mask")
		(uuid "cb8477e3-9c3b-4bc9-a1b3-78a7b742ef0a")
	)
	(pad "SH" smd rect
		(at 18.0665 0)
		(size 2.54 0.43)
		(layers "F.Cu" "F.Paste" "F.Mask")
		(uuid "53988e53-46de-4332-9d93-b10c670045c2")
	)
	(model "${KIPRJMOD}/kicad-libraries/3dmodels/QSH-060-01-X-D-A.step"
		(offset
			(xyz 0 0 0)
		)
		(scale
			(xyz 1 1 1)
		)
		(rotate
			(xyz -90 0 0)
		)
	)
)