(footprint "Hole_7.5mm" (version 20221018) (generator pcbnew)
  (layer "F.Cu")
  (descr "Hole 7.5mm, no annular")
  (tags "hole 7.5mm no annular")
  (attr exclude_from_pos_files exclude_from_bom)
  (fp_text reference "REF**" (at 0 -5.65) (layer "F.SilkS")
      (effects (font (size 1 1) (thickness 0.15)))
    (tstamp 32fbb37a-7c9c-4309-bda3-1286be42cd00)
  )
  (fp_text value "Hole_7.5mm" (at -0.025 5.9) (layer "F.Fab")
      (effects (font (size 1 1) (thickness 0.15)))
    (tstamp 4c7aa143-70cb-405c-9c5c-b2badb5a1074)
  )
  (fp_text user "${REFERENCE}" (at 0 0) (layer "F.Fab")
      (effects (font (size 1 1) (thickness 0.15)))
    (tstamp f9af9f86-0f99-41a1-8da1-2c70df7a09bf)
  )
  (fp_circle (center 0 0) (end 4.575 0)
    (stroke (width 0.15) (type solid)) (fill none) (layer "Cmts.User") (tstamp 0cdcd992-ac15-4489-8ed9-95e5e1faadbb))
  (fp_circle (center 0 0) (end 4.8 0.025)
    (stroke (width 0.05) (type solid)) (fill none) (layer "F.CrtYd") (tstamp b420248a-6c99-40d8-b1e3-b001eee2fa76))
  (pad "" np_thru_hole circle (at 0 0) (size 7.5 7.5) (drill 8.4) (layers "F&B.Cu" "*.Mask") (tstamp 396dd376-1277-4f67-92c6-2ebdba894a6f))
)
