(footprint "Package_QFN_Texas_RGY_R-PVQFN-N20_EP1.7x2.7mm_ThermalVias"
	(version 20240108)
	(generator "pcbnew")
	(generator_version "8.0")
	(layer "F.Cu")
	(descr "QFN, 20 Pin, RGY0020A (https://www.ti.com/lit/ds/symlink/txb0108.pdf#page=33)")
	(tags "QFN NoLead")
	(property "Reference" "REF**"
		(at 0 -4.08 0)
		(layer "F.SilkS")
		(uuid "7b827ece-9379-4019-870e-c3340c642390")
		(effects
			(font
				(size 1 1)
				(thickness 0.15)
			)
		)
	)
	(property "Value" "Package_QFN_Texas_RGY_R-PVQFN-N20_EP1.7x2.7mm_ThermalVias"
		(at 0 4.08 0)
		(layer "F.Fab")
		(uuid "398753e1-77b0-4689-9973-6945d4a6a083")
		(effects
			(font
				(size 1 1)
				(thickness 0.15)
			)
		)
	)
	(property "Footprint" ""
		(at 0 0 0)
		(unlocked yes)
		(layer "F.Fab")
		(hide yes)
		(uuid "ec1e1450-5a93-406f-b4e3-b77bc436e08e")
		(effects
			(font
				(size 1.27 1.27)
			)
		)
	)
	(property "Datasheet" ""
		(at 0 0 0)
		(unlocked yes)
		(layer "F.Fab")
		(hide yes)
		(uuid "8167fd88-7054-489c-937b-db5921dd557b")
		(effects
			(font
				(size 1.27 1.27)
			)
		)
	)
	(property "Description" ""
		(at 0 0 0)
		(unlocked yes)
		(layer "F.Fab")
		(hide yes)
		(uuid "5d0e4f30-b825-4b36-8a39-f2a3a2c089fb")
		(effects
			(font
				(size 1.27 1.27)
			)
		)
	)
	(attr smd)
	(fp_line
		(start -1.86 -2.36)
		(end -1.86 -2.15)
		(stroke
			(width 0.12)
			(type solid)
		)
		(layer "F.SilkS")
		(uuid "48a7eb50-d1d0-4c00-b42d-ebc412462fcb")
	)
	(fp_line
		(start -1.86 2.355)
		(end -1.86 2.145)
		(stroke
			(width 0.12)
			(type solid)
		)
		(layer "F.SilkS")
		(uuid "1a9bae8b-61a7-44b6-9ac7-eba75bc89c61")
	)
	(fp_line
		(start -1.15 -2.36)
		(end -1.86 -2.36)
		(stroke
			(width 0.12)
			(type solid)
		)
		(layer "F.SilkS")
		(uuid "3aca6c71-8081-4585-aa80-774d8e64b846")
	)
	(fp_line
		(start -1.15 2.355)
		(end -1.86 2.355)
		(stroke
			(width 0.12)
			(type solid)
		)
		(layer "F.SilkS")
		(uuid "05b35223-6d48-41d2-ae77-2990a5d39758")
	)
	(fp_line
		(start 0.35 2.36)
		(end -0.35 2.36)
		(stroke
			(width 0.12)
			(type solid)
		)
		(layer "F.SilkS")
		(uuid "d4019389-d24e-4d04-b662-faf1ce2e94db")
	)
	(fp_line
		(start 1.15 -2.36)
		(end 1.86 -2.36)
		(stroke
			(width 0.12)
			(type solid)
		)
		(layer "F.SilkS")
		(uuid "09e634bc-5cb1-4aa1-8c53-03301eb69853")
	)
	(fp_line
		(start 1.15 2.36)
		(end 1.86 2.36)
		(stroke
			(width 0.12)
			(type solid)
		)
		(layer "F.SilkS")
		(uuid "3f08d820-8ded-4e3b-86ef-686e78021ee4")
	)
	(fp_line
		(start 1.86 -2.36)
		(end 1.86 -2.15)
		(stroke
			(width 0.12)
			(type solid)
		)
		(layer "F.SilkS")
		(uuid "ff58cd87-fb6a-4cf1-b7b6-70fda12b09e5")
	)
	(fp_line
		(start 1.86 2.36)
		(end 1.86 2.15)
		(stroke
			(width 0.12)
			(type solid)
		)
		(layer "F.SilkS")
		(uuid "1f6e0bbd-5c4a-4c1b-a767-4ef51b4a627a")
	)
	(fp_poly
		(pts
			(xy -0.35 -2.36) (xy -0.35 -2.64) (xy -0.07 -2.36) (xy -0.35 -2.36)
		)
		(stroke
			(width 0.12)
			(type solid)
		)
		(fill solid)
		(layer "F.SilkS")
		(uuid "b7ec3889-53ad-47e5-8d47-54d1cd1664cb")
	)
	(fp_line
		(start -2.2 -2.7)
		(end -2.2 2.7)
		(stroke
			(width 0.05)
			(type solid)
		)
		(layer "F.CrtYd")
		(uuid "4115ddf8-a078-4d9f-816a-061188005011")
	)
	(fp_line
		(start -2.2 2.7)
		(end 2.2 2.7)
		(stroke
			(width 0.05)
			(type solid)
		)
		(layer "F.CrtYd")
		(uuid "b1812d43-7e9c-4dcf-a77f-f46e0eda99db")
	)
	(fp_line
		(start 2.2 -2.7)
		(end -2.2 -2.7)
		(stroke
			(width 0.05)
			(type solid)
		)
		(layer "F.CrtYd")
		(uuid "736115a4-c527-4b37-8bfe-3b2377e477b4")
	)
	(fp_line
		(start 2.2 2.7)
		(end 2.2 -2.7)
		(stroke
			(width 0.05)
			(type solid)
		)
		(layer "F.CrtYd")
		(uuid "38eab73b-59ae-4c14-9fbe-5c111c0c3f8a")
	)
	(fp_line
		(start -1.75 -1.95)
		(end -1.45 -2.25)
		(stroke
			(width 0.1)
			(type solid)
		)
		(layer "F.Fab")
		(uuid "47239963-05aa-4d11-9faa-895156b56c8e")
	)
	(fp_line
		(start -1.75 2.25)
		(end -1.75 -1.95)
		(stroke
			(width 0.1)
			(type solid)
		)
		(layer "F.Fab")
		(uuid "4ca28092-41ba-4465-8f6b-5707bc75cb12")
	)
	(fp_line
		(start -1.45 -2.25)
		(end 1.75 -2.25)
		(stroke
			(width 0.1)
			(type solid)
		)
		(layer "F.Fab")
		(uuid "77e849d2-0ff1-4e14-89bb-5e887ab7fb19")
	)
	(fp_line
		(start 1.75 -2.25)
		(end 1.75 2.25)
		(stroke
			(width 0.1)
			(type solid)
		)
		(layer "F.Fab")
		(uuid "4b99e64c-0cb4-4392-b4cf-d6571b07f72d")
	)
	(fp_line
		(start 1.75 2.25)
		(end -1.75 2.25)
		(stroke
			(width 0.1)
			(type solid)
		)
		(layer "F.Fab")
		(uuid "69637315-1e8a-49cc-97dd-8ab070cee2b7")
	)
	(fp_text user "${REFERENCE}"
		(at 0 0 90)
		(layer "F.Fab")
		(uuid "6e9076e9-c3af-4297-bd47-2c7d2d0fe554")
		(effects
			(font
				(size 0.88 0.88)
				(thickness 0.13)
			)
		)
	)
	(pad "" smd rect
		(at -0.45 -0.7)
		(size 0.7 1.2)
		(layers "F.Paste")
		(uuid "eb0d53aa-2195-4711-b689-6e60a6e733f2")
	)
	(pad "" smd rect
		(at -0.45 0.7)
		(size 0.7 1.2)
		(layers "F.Paste")
		(uuid "4e0a995b-fd63-4257-83f2-92d0eca6efe5")
	)
	(pad "" smd rect
		(at 0.45 -0.7)
		(size 0.7 1.2)
		(layers "F.Paste")
		(uuid "a9d61e58-a0cd-4d79-8c96-22ad88e98b12")
	)
	(pad "" smd rect
		(at 0.45 0.7025)
		(size 0.7 1.195)
		(layers "F.Paste")
		(uuid "2f1831f9-b495-4f7b-a4e5-a27c2e21334d")
	)
	(pad "1" smd roundrect
		(at -0.75 -2.15 90)
		(size 0.6 0.24)
		(layers "F.Cu" "F.Paste" "F.Mask")
		(roundrect_rratio 0.2083333333)
		(zone_connect 2)
		(thermal_bridge_angle 45)
		(uuid "3cc54d2d-40eb-47c6-82ff-6edaa42d26f6")
	)
	(pad "2" smd roundrect
		(at -1.65 -1.75)
		(size 0.6 0.24)
		(layers "F.Cu" "F.Paste" "F.Mask")
		(roundrect_rratio 0.2083333333)
		(zone_connect 2)
		(thermal_bridge_angle 45)
		(uuid "71d6d95a-9663-47bf-b635-710cf96f39ab")
	)
	(pad "3" smd roundrect
		(at -1.65 -1.25)
		(size 0.6 0.24)
		(layers "F.Cu" "F.Paste" "F.Mask")
		(roundrect_rratio 0.2083333333)
		(zone_connect 2)
		(thermal_bridge_angle 45)
		(uuid "f4fd0e7a-3030-4912-aa45-4ac642693b5c")
	)
	(pad "4" smd roundrect
		(at -1.65 -0.75)
		(size 0.6 0.24)
		(layers "F.Cu" "F.Paste" "F.Mask")
		(roundrect_rratio 0.2083333333)
		(zone_connect 2)
		(thermal_bridge_angle 45)
		(uuid "38ab82d8-db73-4d73-8524-c26fefebc58f")
	)
	(pad "5" smd roundrect
		(at -1.65 -0.25)
		(size 0.6 0.24)
		(layers "F.Cu" "F.Paste" "F.Mask")
		(roundrect_rratio 0.2083333333)
		(zone_connect 2)
		(thermal_bridge_angle 45)
		(uuid "baa56225-2a3a-41d0-b6b9-ce3c2afd2434")
	)
	(pad "6" smd roundrect
		(at -1.65 0.25)
		(size 0.6 0.24)
		(layers "F.Cu" "F.Paste" "F.Mask")
		(roundrect_rratio 0.2083333333)
		(zone_connect 2)
		(thermal_bridge_angle 45)
		(uuid "90558bdc-25e1-4641-a673-f58bdff70f04")
	)
	(pad "7" smd roundrect
		(at -1.65 0.75)
		(size 0.6 0.24)
		(layers "F.Cu" "F.Paste" "F.Mask")
		(roundrect_rratio 0.2083333333)
		(zone_connect 2)
		(thermal_bridge_angle 45)
		(uuid "2f7dc18d-6f71-45c4-8351-672f29b786d9")
	)
	(pad "8" smd roundrect
		(at -1.65 1.25)
		(size 0.6 0.24)
		(layers "F.Cu" "F.Paste" "F.Mask")
		(roundrect_rratio 0.2083333333)
		(zone_connect 2)
		(thermal_bridge_angle 45)
		(uuid "d13a299b-d427-4d9b-a73d-93f0e9427c2a")
	)
	(pad "9" smd roundrect
		(at -1.65 1.75)
		(size 0.6 0.24)
		(layers "F.Cu" "F.Paste" "F.Mask")
		(roundrect_rratio 0.2083333333)
		(zone_connect 2)
		(thermal_bridge_angle 45)
		(uuid "8df9d599-aa0e-4a32-8b50-723f55401f2b")
	)
	(pad "10" smd roundrect
		(at -0.75 2.15 90)
		(size 0.6 0.24)
		(layers "F.Cu" "F.Paste" "F.Mask")
		(roundrect_rratio 0.2083333333)
		(zone_connect 2)
		(thermal_bridge_angle 45)
		(uuid "af4f1b18-c639-49ca-9a04-3da3125a87df")
	)
	(pad "11" smd roundrect
		(at 0.75 2.15 90)
		(size 0.6 0.24)
		(layers "F.Cu" "F.Paste" "F.Mask")
		(roundrect_rratio 0.2083333333)
		(zone_connect 2)
		(thermal_bridge_angle 45)
		(uuid "e3735709-2c79-4f3b-9a94-f4088dcc3b13")
	)
	(pad "12" smd roundrect
		(at 1.65 1.75)
		(size 0.6 0.24)
		(layers "F.Cu" "F.Paste" "F.Mask")
		(roundrect_rratio 0.2083333333)
		(zone_connect 2)
		(thermal_bridge_angle 45)
		(uuid "7caa6bed-b826-40bf-a64e-825510c5ec1e")
	)
	(pad "13" smd roundrect
		(at 1.65 1.25)
		(size 0.6 0.24)
		(layers "F.Cu" "F.Paste" "F.Mask")
		(roundrect_rratio 0.2083333333)
		(zone_connect 2)
		(thermal_bridge_angle 45)
		(uuid "af1e1338-d6c5-4abd-9435-fb6919559a83")
	)
	(pad "14" smd roundrect
		(at 1.65 0.75)
		(size 0.6 0.24)
		(layers "F.Cu" "F.Paste" "F.Mask")
		(roundrect_rratio 0.2083333333)
		(zone_connect 2)
		(thermal_bridge_angle 45)
		(uuid "8a368c94-583b-434b-b729-5f2b4ca3f2ce")
	)
	(pad "15" smd roundrect
		(at 1.65 0.25)
		(size 0.6 0.24)
		(layers "F.Cu" "F.Paste" "F.Mask")
		(roundrect_rratio 0.2083333333)
		(zone_connect 2)
		(thermal_bridge_angle 45)
		(uuid "caabf35f-0e4e-45d5-b79d-adaf93c78a8c")
	)
	(pad "16" smd roundrect
		(at 1.65 -0.25)
		(size 0.6 0.24)
		(layers "F.Cu" "F.Paste" "F.Mask")
		(roundrect_rratio 0.2083333333)
		(zone_connect 2)
		(thermal_bridge_angle 45)
		(uuid "0f27545a-f860-4ddb-8043-9d5104e1ea55")
	)
	(pad "17" smd roundrect
		(at 1.65 -0.75)
		(size 0.6 0.24)
		(layers "F.Cu" "F.Paste" "F.Mask")
		(roundrect_rratio 0.2083333333)
		(zone_connect 2)
		(thermal_bridge_angle 45)
		(uuid "90d7add1-1ed0-42a7-a91a-7b9d83dd4042")
	)
	(pad "18" smd roundrect
		(at 1.65 -1.25)
		(size 0.6 0.24)
		(layers "F.Cu" "F.Paste" "F.Mask")
		(roundrect_rratio 0.2083333333)
		(zone_connect 2)
		(thermal_bridge_angle 45)
		(uuid "9c094149-c1c2-4ace-b075-5e5272968061")
	)
	(pad "19" smd roundrect
		(at 1.65 -1.75)
		(size 0.6 0.24)
		(layers "F.Cu" "F.Paste" "F.Mask")
		(roundrect_rratio 0.2083333333)
		(zone_connect 2)
		(thermal_bridge_angle 45)
		(uuid "b147632f-e743-4d70-b0ea-fd1a9d2d59ff")
	)
	(pad "20" smd roundrect
		(at 0.75 -2.15 90)
		(size 0.6 0.24)
		(layers "F.Cu" "F.Paste" "F.Mask")
		(roundrect_rratio 0.2083333333)
		(zone_connect 2)
		(thermal_bridge_angle 45)
		(uuid "12e2c08d-ca1d-414c-88c3-5d787ca53348")
	)
	(pad "21" thru_hole circle
		(at -0.6 0)
		(size 0.5 0.5)
		(drill 0.2)
		(layers "*.Cu")
		(remove_unused_layers no)
		(uuid "146b82bb-7847-4f00-baea-efe1c87eb7f2")
	)
	(pad "21" thru_hole circle
		(at 0 -1.1)
		(size 0.5 0.5)
		(drill 0.2)
		(layers "*.Cu")
		(remove_unused_layers no)
		(uuid "17a05770-f6bd-4e60-827e-1aec4c2655be")
	)
	(pad "21" smd roundrect
		(at 0 0)
		(size 1.7 2.7)
		(layers "F.Cu" "F.Mask")
		(roundrect_rratio 0.0243902439)
		(uuid "e26b99be-0f5e-4a29-89c3-eb4066c880db")
	)
	(pad "21" thru_hole circle
		(at 0 1.1)
		(size 0.5 0.5)
		(drill 0.2)
		(layers "*.Cu")
		(remove_unused_layers no)
		(uuid "19cc6a6c-98e9-4531-83c3-2ceb0552a159")
	)
	(pad "21" thru_hole circle
		(at 0.6 0)
		(size 0.5 0.5)
		(drill 0.2)
		(layers "*.Cu")
		(remove_unused_layers no)
		(uuid "bb92fddc-5a67-484d-bf25-7e9c47aa3be3")
	)
	(model "${KICAD8_3DMODEL_DIR}/Package_DFN_QFN.3dshapes/Texas_RGY_R-PVQFN-N20_EP2.05x3.05mm.wrl"
		(offset
			(xyz 0 0 0)
		)
		(scale
			(xyz 1 1 1)
		)
		(rotate
			(xyz 0 0 0)
		)
	)
)