(footprint "Package_SOT-583-8"
	(version 20240108)
	(generator "pcbnew")
	(generator_version "8.0")
	(layer "F.Cu")
	(descr "https://www.ti.com/lit/ds/symlink/tps62933.pdf")
	(tags "SOT-583-8")
	(property "Reference" "REF**"
		(at 0 -2.2 0)
		(unlocked yes)
		(layer "F.SilkS")
		(uuid "f0167ac4-5c70-43c2-b60c-1d0f74c31e43")
		(effects
			(font
				(size 1 1)
				(thickness 0.15)
			)
		)
	)
	(property "Value" "Package_SOT-583-8"
		(at 0 2.8 0)
		(unlocked yes)
		(layer "F.Fab")
		(uuid "dcb42b49-bb2d-4b46-ac3f-eec531b207ee")
		(effects
			(font
				(size 1 1)
				(thickness 0.15)
			)
		)
	)
	(property "Footprint" ""
		(at 0 0 0)
		(unlocked yes)
		(layer "F.Fab")
		(hide yes)
		(uuid "1e85d69f-a0b3-48e2-b128-34f002923de0")
		(effects
			(font
				(size 1.27 1.27)
				(thickness 0.15)
			)
		)
	)
	(property "Datasheet" ""
		(at 0 0 0)
		(unlocked yes)
		(layer "F.Fab")
		(hide yes)
		(uuid "b28a8572-956f-4b1b-8ce9-f391ae364838")
		(effects
			(font
				(size 1.27 1.27)
				(thickness 0.15)
			)
		)
	)
	(property "Description" ""
		(at 0 0 0)
		(unlocked yes)
		(layer "F.Fab")
		(hide yes)
		(uuid "1a715c4e-1b8d-402c-baf1-70df12243bd0")
		(effects
			(font
				(size 1.27 1.27)
				(thickness 0.15)
			)
		)
	)
	(attr smd)
	(fp_line
		(start 0.65 -1.16)
		(end -0.4 -1.16)
		(stroke
			(width 0.12)
			(type default)
		)
		(layer "F.SilkS")
		(uuid "6c0d73f0-cfe1-4b75-b44a-ce2108b32fa2")
	)
	(fp_line
		(start 0.65 1.16)
		(end -0.65 1.16)
		(stroke
			(width 0.12)
			(type default)
		)
		(layer "F.SilkS")
		(uuid "e8f4792e-421b-4be0-91cb-468e932bfa2d")
	)
	(fp_poly
		(pts
			(xy -0.76 -1.16) (xy -1.04 -1.16) (xy -0.76 -1.44) (xy -0.76 -1.16)
		)
		(stroke
			(width 0.12)
			(type solid)
		)
		(fill solid)
		(layer "F.SilkS")
		(uuid "6d672dce-9ed6-4be6-b97f-b25766ee967a")
	)
	(fp_line
		(start -1.32 -1.3)
		(end 1.32 -1.3)
		(stroke
			(width 0.05)
			(type default)
		)
		(layer "F.CrtYd")
		(uuid "4d890c42-130b-43be-88c9-defda66f8e50")
	)
	(fp_line
		(start -1.32 1.3)
		(end -1.32 -1.3)
		(stroke
			(width 0.05)
			(type default)
		)
		(layer "F.CrtYd")
		(uuid "2919eb3b-67cb-49a1-950d-6bce7f9fbefc")
	)
	(fp_line
		(start 1.32 -1.3)
		(end 1.32 1.3)
		(stroke
			(width 0.05)
			(type default)
		)
		(layer "F.CrtYd")
		(uuid "65e724be-52d8-4037-a005-f336d3616c02")
	)
	(fp_line
		(start 1.32 1.3)
		(end -1.32 1.3)
		(stroke
			(width 0.05)
			(type default)
		)
		(layer "F.CrtYd")
		(uuid "b6cd784e-3a03-4a7f-9bbd-b33a35b953b1")
	)
	(fp_line
		(start -0.6 -0.75)
		(end -0.6 1.05)
		(stroke
			(width 0.1)
			(type default)
		)
		(layer "F.Fab")
		(uuid "06edca87-f33c-40d5-a004-ad414bf62ac4")
	)
	(fp_line
		(start -0.6 1.05)
		(end 0.6 1.05)
		(stroke
			(width 0.1)
			(type default)
		)
		(layer "F.Fab")
		(uuid "f4bb332a-03be-4d2a-b5be-50aa77c8dc99")
	)
	(fp_line
		(start -0.3 -1.05)
		(end -0.6 -0.75)
		(stroke
			(width 0.1)
			(type default)
		)
		(layer "F.Fab")
		(uuid "d36a39cd-86cb-48e3-be8d-3a43b7faa47e")
	)
	(fp_line
		(start 0.6 -1.05)
		(end -0.3 -1.05)
		(stroke
			(width 0.1)
			(type default)
		)
		(layer "F.Fab")
		(uuid "b2cd313a-9221-4b22-a72c-1d5fcb81bcb1")
	)
	(fp_line
		(start 0.6 -1.05)
		(end 0.6 1.05)
		(stroke
			(width 0.1)
			(type default)
		)
		(layer "F.Fab")
		(uuid "5b41d5b8-9355-4160-af3c-dbf1b4310c26")
	)
	(fp_text user "${REFERENCE}"
		(at 0 0 90)
		(unlocked yes)
		(layer "F.Fab")
		(uuid "fd8e28b3-96eb-4413-88dd-a91720092948")
		(effects
			(font
				(size 0.5 0.5)
				(thickness 0.075)
			)
		)
	)
	(pad "1" smd roundrect
		(at -0.74 -0.75)
		(size 0.67 0.3)
		(layers "F.Cu" "F.Paste" "F.Mask")
		(roundrect_rratio 0.1666666667)
		(thermal_bridge_angle 45)
		(uuid "95a914b1-aec2-459c-800f-527932fedd92")
	)
	(pad "2" smd roundrect
		(at -0.74 -0.25)
		(size 0.67 0.3)
		(layers "F.Cu" "F.Paste" "F.Mask")
		(roundrect_rratio 0.1666666667)
		(thermal_bridge_angle 45)
		(uuid "5de94aae-9906-4965-9618-f00742a4da1b")
	)
	(pad "3" smd roundrect
		(at -0.74 0.25)
		(size 0.67 0.3)
		(layers "F.Cu" "F.Paste" "F.Mask")
		(roundrect_rratio 0.1666666667)
		(thermal_bridge_angle 45)
		(uuid "b826fa82-10f0-4667-af3a-1adde81a4e08")
	)
	(pad "4" smd roundrect
		(at -0.74 0.75)
		(size 0.67 0.3)
		(layers "F.Cu" "F.Paste" "F.Mask")
		(roundrect_rratio 0.1666666667)
		(thermal_bridge_angle 45)
		(uuid "32de9d04-c646-4004-ad6f-5e9c48bf5b78")
	)
	(pad "5" smd roundrect
		(at 0.74 0.75)
		(size 0.67 0.3)
		(layers "F.Cu" "F.Paste" "F.Mask")
		(roundrect_rratio 0.1666666667)
		(thermal_bridge_angle 45)
		(uuid "799b8374-eccb-4cb4-ab0d-3eb9624f4353")
	)
	(pad "6" smd roundrect
		(at 0.74 0.25)
		(size 0.67 0.3)
		(layers "F.Cu" "F.Paste" "F.Mask")
		(roundrect_rratio 0.1666666667)
		(thermal_bridge_angle 45)
		(uuid "45369f82-2854-4cab-875a-dfaa3dfabcac")
	)
	(pad "7" smd roundrect
		(at 0.74 -0.25)
		(size 0.67 0.3)
		(layers "F.Cu" "F.Paste" "F.Mask")
		(roundrect_rratio 0.1666666667)
		(thermal_bridge_angle 45)
		(uuid "e6ea1b52-1b23-422b-8067-e20bb830ab5e")
	)
	(pad "8" smd roundrect
		(at 0.74 -0.75)
		(size 0.67 0.3)
		(layers "F.Cu" "F.Paste" "F.Mask")
		(roundrect_rratio 0.1666666667)
		(thermal_bridge_angle 45)
		(uuid "c44da805-c063-4a08-bb9b-74907d6e2e33")
	)
	(model "${KIPRJMOD}/kicad-libraries/3dmodels/TI_DRL_SOT583.STEP"
		(offset
			(xyz 0 0 0)
		)
		(scale
			(xyz 1 1 1)
		)
		(rotate
			(xyz -90 0 0)
		)
	)
)
