(footprint "USB_C_Receptacle_GCT_USB4056" (version 20221018) (generator pcbnew)
  (layer "F.Cu")
  (descr "USB TYPE C, RA RCPT PCB, Hybrid, https://gct.co/files/drawings/usb4056.pdf")
  (tags "USB C Type-C Receptacle Hybrid")
  (attr smd)
  (fp_text reference "REF**" (at 0 -5.91) (layer "F.SilkS")
      (effects (font (size 1 1) (thickness 0.15)))
    (tstamp cc9e4c39-bea7-4e94-9c24-79713f9cc7d3)
  )
  (fp_text value "USB_C_Receptacle_GCT_USB4056" (at 0 6.14) (layer "F.Fab")
      (effects (font (size 1 1) (thickness 0.15)))
    (tstamp 7532bfbd-593b-4c4b-abe0-9db5aba2e09b)
  )
  (fp_text user "${REFERENCE}" (at 0 0) (layer "F.Fab")
      (effects (font (size 1 1) (thickness 0.1)))
    (tstamp fbad371e-9c1d-46a8-95d7-2d0a493b34e8)
  )
  (fp_line (start -4.75 -5.37) (end -4.75 1.89)
    (stroke (width 0.12) (type solid)) (layer "F.SilkS") (tstamp c2931665-9613-433c-aa14-e9abf85d36ae))
  (fp_line (start -4.75 -5.37) (end -3.25 -5.37)
    (stroke (width 0.12) (type solid)) (layer "F.SilkS") (tstamp f90c6680-2cd6-4066-a128-2c8ebe03fab8))
  (fp_line (start 3.25 -5.37) (end 4.75 -5.37)
    (stroke (width 0.12) (type solid)) (layer "F.SilkS") (tstamp ce47fb52-c99f-4a10-ab39-dda3800eb41a))
  (fp_line (start 4.75 -5.37) (end 4.75 1.89)
    (stroke (width 0.12) (type solid)) (layer "F.SilkS") (tstamp 7e708e34-9e65-4bc4-84d9-f33cdbc82037))
  (fp_line (start -5.39 -5.87) (end 5.39 -5.87)
    (stroke (width 0.05) (type solid)) (layer "F.CrtYd") (tstamp 7e6f05fe-1ec7-4741-9b94-1aad4bfad894))
  (fp_line (start -5.39 5.73) (end -5.39 -5.87)
    (stroke (width 0.05) (type solid)) (layer "F.CrtYd") (tstamp f413cec4-7e61-490b-87ea-5ea1f59c9e57))
  (fp_line (start 5.39 -5.87) (end 5.39 5.73)
    (stroke (width 0.05) (type solid)) (layer "F.CrtYd") (tstamp edd86c06-80c4-475d-8ac0-b7fee2fe3517))
  (fp_line (start 5.39 5.73) (end -5.39 5.73)
    (stroke (width 0.05) (type solid)) (layer "F.CrtYd") (tstamp 8aff6d64-1c61-4c4a-ae06-88f52f8c1ad1))
  (fp_line (start -4.6 -5.22) (end 4.6 -5.22)
    (stroke (width 0.1) (type solid)) (layer "F.Fab") (tstamp 997697f8-ecfc-49c3-bab2-2067ad344e14))
  (fp_line (start -4.6 3.81) (end -4.6 -5.22)
    (stroke (width 0.1) (type solid)) (layer "F.Fab") (tstamp c137d5f6-2825-4870-869b-1f19ad03e570))
  (fp_line (start -4.6 3.81) (end 4.6 3.81)
    (stroke (width 0.1) (type solid)) (layer "F.Fab") (tstamp 28190817-4423-4e66-a398-129a3525923d))
  (fp_line (start 4.6 3.81) (end 4.6 -5.22)
    (stroke (width 0.1) (type solid)) (layer "F.Fab") (tstamp 1bf977d5-ba47-4842-9234-360e3690a628))
  (pad "" np_thru_hole circle (at -3.6 -4.36) (size 0.65 0.65) (drill 0.65) (layers *.Cu *.Mask) (tstamp 5c20b50b-02aa-487a-8116-0c18582b1e54))
  (pad "" np_thru_hole oval (at 3.6 -4.36) (size 0.95 0.65) (drill oval 0.95 0.65) (layers *.Cu *.Mask) (tstamp db70c4b3-5c7b-49db-973b-e4035024016d))
  (pad "A1" smd rect (at -2.75 -4.91) (size 0.3 0.9) (layers "F.Cu" "F.Paste" "F.Mask") (tstamp 455f66be-5159-4e48-ba4a-a9918c1770b6))
  (pad "A2" smd rect (at -2.25 -4.91) (size 0.3 0.9) (layers "F.Cu" "F.Paste" "F.Mask") (tstamp 79311372-68c4-4bab-a639-123bbddf4c73))
  (pad "A3" smd rect (at -1.75 -4.91) (size 0.3 0.9) (layers "F.Cu" "F.Paste" "F.Mask") (tstamp 1676ebc9-9ffa-45e7-814e-a0f6b2b3194d))
  (pad "A4" smd rect (at -1.25 -4.91) (size 0.3 0.9) (layers "F.Cu" "F.Paste" "F.Mask") (tstamp f4ab1667-0bfb-4604-8150-fdbdb4506122))
  (pad "A5" smd rect (at -0.75 -4.91) (size 0.3 0.9) (layers "F.Cu" "F.Paste" "F.Mask") (tstamp 5f55ce74-3f7c-4921-97a3-e2c82dab17a8))
  (pad "A6" smd rect (at -0.25 -4.91) (size 0.3 0.9) (layers "F.Cu" "F.Paste" "F.Mask") (tstamp 6bcf2b8a-7935-42d7-a5e4-efe216daffb3))
  (pad "A7" smd rect (at 0.25 -4.91) (size 0.3 0.9) (layers "F.Cu" "F.Paste" "F.Mask") (tstamp f8115e39-cc50-4ac3-af5b-daf539ffa90a))
  (pad "A8" smd rect (at 0.75 -4.91) (size 0.3 0.9) (layers "F.Cu" "F.Paste" "F.Mask") (tstamp 9f98d70d-9b82-4cfd-8e6c-9a5a2dbdf850))
  (pad "A9" smd rect (at 1.25 -4.91) (size 0.3 0.9) (layers "F.Cu" "F.Paste" "F.Mask") (tstamp 04e19e33-5ac7-4b55-88ab-2932180f8f92))
  (pad "A10" smd rect (at 1.75 -4.91) (size 0.3 0.9) (layers "F.Cu" "F.Paste" "F.Mask") (tstamp 05c149aa-b044-4f11-8651-9576e24eecdf))
  (pad "A11" smd rect (at 2.25 -4.91) (size 0.3 0.9) (layers "F.Cu" "F.Paste" "F.Mask") (tstamp 464a2c29-9460-4887-a3ad-a2a20afaa63c))
  (pad "A12" smd rect (at 2.75 -4.91) (size 0.3 0.9) (layers "F.Cu" "F.Paste" "F.Mask") (tstamp 732487dc-dce3-4f7d-9571-85e0c7778b06))
  (pad "B1" thru_hole circle (at 2.8 -3.71) (size 0.65 0.65) (drill 0.4) (layers *.Cu *.Mask) (tstamp 431e87f3-2b07-41bd-a79d-80b530c9f5ee))
  (pad "B2" thru_hole circle (at 2.4 -3.01) (size 0.65 0.65) (drill 0.4) (layers *.Cu *.Mask) (tstamp 86fb9f59-f584-4146-b2b5-adc7715fe886))
  (pad "B3" thru_hole circle (at 1.6 -3.01) (size 0.65 0.65) (drill 0.4) (layers *.Cu *.Mask) (tstamp 5b8e4f21-352b-42f5-b955-ba357534b41e))
  (pad "B4" thru_hole circle (at 1.2 -3.71) (size 0.65 0.65) (drill 0.4) (layers *.Cu *.Mask) (tstamp 17ca9f6b-8544-4981-a45e-2c06bd8024f6))
  (pad "B5" thru_hole circle (at 0.8 -3.01) (size 0.65 0.65) (drill 0.4) (layers *.Cu *.Mask) (tstamp b963b755-7b45-4c8e-ad4c-b232259bcd59))
  (pad "B6" thru_hole circle (at 0.4 -3.71) (size 0.65 0.65) (drill 0.4) (layers *.Cu *.Mask) (tstamp f503c65f-671a-4782-abc8-0cccab8852f4))
  (pad "B7" thru_hole circle (at -0.4 -3.71) (size 0.65 0.65) (drill 0.4) (layers *.Cu *.Mask) (tstamp 915f4772-9b94-4798-a740-3011a0736735))
  (pad "B8" thru_hole circle (at -0.8 -3.01) (size 0.65 0.65) (drill 0.4) (layers *.Cu *.Mask) (tstamp 2ef8f15a-d2e1-4e9d-85bf-c67d9b011e81))
  (pad "B9" thru_hole circle (at -1.2 -3.71) (size 0.65 0.65) (drill 0.4) (layers *.Cu *.Mask) (tstamp 4e6e1d06-e61d-49c9-b3de-2a2e4699d04c))
  (pad "B10" thru_hole circle (at -1.6 -3.01) (size 0.65 0.65) (drill 0.4) (layers *.Cu *.Mask) (tstamp 96b737d4-8058-46f4-9419-eeb545a00b6d))
  (pad "B11" thru_hole circle (at -2.4 -3.01) (size 0.65 0.65) (drill 0.4) (layers *.Cu *.Mask) (tstamp 8ea114ee-b284-4437-a1dd-8a72f55a83da))
  (pad "B12" thru_hole circle (at -2.8 -3.71) (size 0.65 0.65) (drill 0.4) (layers *.Cu *.Mask) (tstamp 3eef3f4c-3406-4c3f-ad8b-a41ff605994c))
  (pad "S1" thru_hole oval (at -4.49 1.29) (size 0.8 1.4) (drill oval 0.5 1.1) (layers *.Cu *.Mask) (tstamp fb388ee2-eae3-4c1e-8b47-87883b962efa))
  (pad "S1" thru_hole oval (at -4.13 -3.11) (size 0.8 1.4) (drill oval 0.5 1.1) (layers *.Cu *.Mask) (tstamp fde7d970-0215-4726-a454-86bbded93072))
  (pad "S1" thru_hole oval (at 4.13 -3.11) (size 0.8 1.4) (drill oval 0.5 1.1) (layers *.Cu *.Mask) (tstamp db8bd402-e5c5-4dbf-b3c9-879f427d3681))
  (pad "S1" thru_hole oval (at 4.49 1.29) (size 0.8 1.4) (drill oval 0.5 1.1) (layers *.Cu *.Mask) (tstamp c7079066-c4a6-4757-9480-44b2ba6074fc))
  (model "${KIPRJMOD}/kicad-libraries/3dmodels/USB4056-03-A.stp"
    (offset (xyz 0 1.28 1.7))
    (scale (xyz 1 1 1))
    (rotate (xyz -90 0 0))
  )
)
